{
    "ApiUrlStubs" : {
        "directions" : "https://maps.googleapis.com/maps/api/directions/json",
        "elevation"  : "https://maps.googleapis.com/maps/api/elevation/json",
        "mapsStatic" : "https://maps.googleapis.com/maps/api/staticmap"
    },
    "Directories" : {
        "saved" : "SavedResponses"
    },
    "Colours" : {
        "used" : [
            "black", "brown", "green", "purple", "blue", "orange", "red"
        ],
        "unused" : [
        	"white", "yellow", "gray"
        ]
    },
    "MapsStaticTypes" : [
        "roadmap", "satellite", "hybrid", "terrain"
    ],
    "key" : "AIzaSyAqleP9JIxydMStSoxWQEgc7s7UEu-UoUw"
}