{
   "geocoded_waypoints" : [
      {
         "geocoder_status" : "OK",
         "place_id" : "ChIJwWQIQfT5UjoR1arwWJ9LABQ",
         "types" : [ "establishment", "point_of_interest" ]
      },
      {
         "geocoder_status" : "OK",
         "place_id" : "ChIJl2OoXR9eUjoRR27ibiEvCSE",
         "types" : [ "airport", "establishment", "point_of_interest" ]
      }
   ],
   "routes" : [
      {
         "bounds" : {
            "northeast" : {
               "lat" : 12.9824227,
               "lng" : 80.16786139999999
            },
            "southwest" : {
               "lat" : 12.7705533,
               "lng" : 80.00744619999999
            }
         },
         "copyrights" : "Map data ©2018 Google",
         "legs" : [
            {
               "distance" : {
                  "text" : "30.6 km",
                  "value" : 30630
               },
               "duration" : {
                  "text" : "54 mins",
                  "value" : 3257
               },
               "duration_in_traffic" : {
                  "text" : "48 mins",
                  "value" : 2878
               },
               "end_address" : "Chennai International Airport (MAA), GST Rd, Meenambakkam, Chennai, Tamil Nadu 600027, India",
               "end_location" : {
                  "lat" : 12.9824227,
                  "lng" : 80.16786139999999
               },
               "start_address" : "GST Road, Maraimalai Nagar, Thirukachur, Tamil Nadu 603209, India",
               "start_location" : {
                  "lat" : 12.7743706,
                  "lng" : 80.011081
               },
               "steps" : [
                  {
                     "distance" : {
                        "text" : "6 m",
                        "value" : 6
                     },
                     "duration" : {
                        "text" : "1 min",
                        "value" : 1
                     },
                     "end_location" : {
                        "lat" : 12.7744172,
                        "lng" : 80.0110986
                     },
                     "html_instructions" : "Head \u003cb\u003enorth\u003c/b\u003e\u003cdiv style=\"font-size:0.9em\"\u003eRestricted usage road\u003c/div\u003e",
                     "polyline" : {
                        "points" : "y~}lAgdjgNIC"
                     },
                     "start_location" : {
                        "lat" : 12.7743706,
                        "lng" : 80.011081
                     },
                     "travel_mode" : "DRIVING"
                  },
                  {
                     "distance" : {
                        "text" : "0.2 km",
                        "value" : 185
                     },
                     "duration" : {
                        "text" : "1 min",
                        "value" : 48
                     },
                     "end_location" : {
                        "lat" : 12.774806,
                        "lng" : 80.0094546
                     },
                     "html_instructions" : "Turn \u003cb\u003eleft\u003c/b\u003e toward \u003cb\u003eNH32\u003c/b\u003e",
                     "maneuver" : "turn-left",
                     "polyline" : {
                        "points" : "c_~lAkdjgNw@|F@?Kh@K`@"
                     },
                     "start_location" : {
                        "lat" : 12.7744172,
                        "lng" : 80.0110986
                     },
                     "travel_mode" : "DRIVING"
                  },
                  {
                     "distance" : {
                        "text" : "0.5 km",
                        "value" : 518
                     },
                     "duration" : {
                        "text" : "1 min",
                        "value" : 61
                     },
                     "end_location" : {
                        "lat" : 12.7705533,
                        "lng" : 80.00750309999999
                     },
                     "html_instructions" : "Turn \u003cb\u003eleft\u003c/b\u003e onto \u003cb\u003eNH32\u003c/b\u003e",
                     "maneuver" : "turn-left",
                     "polyline" : {
                        "points" : "qa~lAazigNp@RpA^nBr@bA^jA`@@@|Af@nBt@~FzB"
                     },
                     "start_location" : {
                        "lat" : 12.774806,
                        "lng" : 80.0094546
                     },
                     "travel_mode" : "DRIVING"
                  },
                  {
                     "distance" : {
                        "text" : "16.0 km",
                        "value" : 15960
                     },
                     "duration" : {
                        "text" : "21 mins",
                        "value" : 1275
                     },
                     "end_location" : {
                        "lat" : 12.8907556,
                        "lng" : 80.08480229999999
                     },
                     "html_instructions" : "Make a \u003cb\u003eU-turn\u003c/b\u003e",
                     "maneuver" : "uturn-right",
                     "polyline" : {
                        "points" : "}f}lA{migNGHwAg@yAg@gDoAyDuA_FeBwAe@yGwBq@Wm@Sy@Ua@M]MqC_AcGwBoBu@eCw@cJ{CqJaDiEcBu@[c@S[Qm@_@QMw@_@WMYMi@W{Aw@qFqCwAq@kDgBc@QcB}@c@SA?y@g@}C}AaAg@}A}@yA{@mAq@iBeAwA{@GEo@a@g@[mDqBKG}@e@k@WsDsBuDwBsFaD}Ay@_BaAwAy@iAq@e@WwAy@WOw@e@WOu@c@iAm@{A}@}A}@uAw@UMcAk@}@i@oAs@[S_Ai@sAu@eAm@{A{@_@UiAm@uAy@mAq@WOg@WcBaAcAk@sAs@gAo@iAo@WO{Ay@uAu@SMeAe@_@UgC{A{@g@SK}@a@s@a@oAw@eAs@YQiAq@aBgA_BaA_BaAaEiCy@g@qBqAk@e@e@[}AcAcAi@qD{BqBoAq@c@gAu@qHsEoJaG]S_C}AcA{@m@g@iBkB}HiI_GiGmBuBMM_@a@UUsHeIyB}B_FiF}@cAqC_DeAmAyD{DsIgJm@o@e@i@wAwAcAiAQQoByBmAqAu@u@]YoAwAQQWYkAqAcBgB}AcB}AgBaAiAeA}@m@o@wA_BmBmBuAsAqAoAo@k@uAcA}CsBmAw@}@o@_BkA}@m@o@a@eAs@cAo@g@WgG}DgAq@UM{A_A{ByAwFwDwAaAs@e@sByAUOqCmBoDgCyDoCyEeDUSeCwACCKGA?eAo@{BuAuCqAgBq@eBi@{Ac@eEkAq@UwI}BmA[QEECiBk@OESEeCu@yAa@}Ac@w@WeAWEAQEs@SOE{C}@u@UiDaAaCw@cCq@_@M{EsAu@UoCw@w@SiBi@[KcFyAwAa@AAcEmAA?UGeEmAQGgAYqBm@a@Ks@UqBm@]Ks@UwH_Cg@OMCs@USGyEwAUGaImCaBi@cBi@mBm@eFwAmAa@"
                     },
                     "start_location" : {
                        "lat" : 12.7705533,
                        "lng" : 80.00750309999999
                     },
                     "travel_mode" : "DRIVING"
                  },
                  {
                     "distance" : {
                        "text" : "3.2 km",
                        "value" : 3204
                     },
                     "duration" : {
                        "text" : "6 mins",
                        "value" : 336
                     },
                     "end_location" : {
                        "lat" : 12.9138363,
                        "lng" : 80.10156549999999
                     },
                     "html_instructions" : "Continue straight to stay on \u003cb\u003eNH32\u003c/b\u003e",
                     "maneuver" : "straight",
                     "polyline" : {
                        "points" : "gvtmA_qxgNiAa@y@Ym@WwAo@cAk@i@]AASO_@UCCA?UO{@o@mCgBmGmEyLmIoMaJuFuDoE}CqCiB[UyCuBiAw@s@e@mDcC_Aq@[Wi@a@oEuCk@a@cAq@eAw@oAcAg@]UWGG]a@[e@[e@Wa@MUUc@y@}AYi@y@gBOWU[UWQS[Y_@UYOWMUIKCMCa@GQCSEa@Ea@CyAI{AGC?SAg@Ay@Cw@M"
                     },
                     "start_location" : {
                        "lat" : 12.8907556,
                        "lng" : 80.08480229999999
                     },
                     "travel_mode" : "DRIVING"
                  },
                  {
                     "distance" : {
                        "text" : "0.4 km",
                        "value" : 424
                     },
                     "duration" : {
                        "text" : "1 min",
                        "value" : 30
                     },
                     "end_location" : {
                        "lat" : 12.9158104,
                        "lng" : 80.10443699999999
                     },
                     "html_instructions" : "Take the exit on the \u003cb\u003eright\u003c/b\u003e toward \u003cb\u003eChennai - Nagapattinam Hwy\u003c/b\u003e/\u003cb\u003eChennai - Theni Hwy\u003c/b\u003e/\u003cb\u003eChennai - Trichy Hwy\u003c/b\u003e/\u003cb\u003eTambaram - Mudichur - Oragadam Rd\u003c/b\u003e",
                     "maneuver" : "ramp-right",
                     "polyline" : {
                        "points" : "ofymAyy{gN[Ce@Ge@Ia@M[Ke@WWSYYWYQWYk@IWIWIc@G}@IaBEu@CWCQAICEACAA"
                     },
                     "start_location" : {
                        "lat" : 12.9138363,
                        "lng" : 80.10156549999999
                     },
                     "travel_mode" : "DRIVING"
                  },
                  {
                     "distance" : {
                        "text" : "1.1 km",
                        "value" : 1058
                     },
                     "duration" : {
                        "text" : "2 mins",
                        "value" : 100
                     },
                     "end_location" : {
                        "lat" : 12.9212895,
                        "lng" : 80.11229639999999
                     },
                     "html_instructions" : "Continue onto \u003cb\u003eChennai - Nagapattinam Hwy\u003c/b\u003e/\u003cb\u003eChennai - Theni Hwy\u003c/b\u003e/\u003cb\u003eChennai - Trichy Hwy\u003c/b\u003e/\u003cb\u003eTambaram - Mudichur - Oragadam Rd\u003c/b\u003e\u003cdiv style=\"font-size:0.9em\"\u003ePass by Sivasakthi Thirumana Mandapam (on the left in 550&nbsp;m)\u003c/div\u003e",
                     "polyline" : {
                        "points" : "yrymAwk|gNGo@Ka@GWMc@cAaC]y@Yk@Wk@Se@Sg@MWIQAAMYMSIS_@m@KOa@k@U]]_@U[k@w@e@m@i@u@cAoAwBmD]e@{@aAeAkA}CeDSM"
                     },
                     "start_location" : {
                        "lat" : 12.9158104,
                        "lng" : 80.10443699999999
                     },
                     "travel_mode" : "DRIVING"
                  },
                  {
                     "distance" : {
                        "text" : "1.6 km",
                        "value" : 1637
                     },
                     "duration" : {
                        "text" : "5 mins",
                        "value" : 277
                     },
                     "end_location" : {
                        "lat" : 12.9317975,
                        "lng" : 80.12286349999999
                     },
                     "html_instructions" : "Keep \u003cb\u003eright\u003c/b\u003e to stay on \u003cb\u003eChennai - Nagapattinam Hwy\u003c/b\u003e/\u003cb\u003eChennai - Theni Hwy\u003c/b\u003e/\u003cb\u003eChennai - Trichy Hwy\u003c/b\u003e/\u003cb\u003eTambaram - Mudichur - Oragadam Rd\u003c/b\u003e\u003cdiv style=\"font-size:0.9em\"\u003eContinue to follow Chennai - Nagapattinam Hwy/Chennai - Trichy Hwy\u003c/div\u003e\u003cdiv style=\"font-size:0.9em\"\u003ePass by the church (on the left in 1.2&nbsp;km)\u003c/div\u003e",
                     "maneuver" : "keep-right",
                     "polyline" : {
                        "points" : "auzmA{|}gNOMsCuCcBiBs@u@y@_AoGgGoIyIEEOOc@_@}IsIy@}@_B{A{@{@g@g@mByBQO[YcD_DiCmC"
                     },
                     "start_location" : {
                        "lat" : 12.9212895,
                        "lng" : 80.11229639999999
                     },
                     "travel_mode" : "DRIVING"
                  },
                  {
                     "distance" : {
                        "text" : "1.9 km",
                        "value" : 1939
                     },
                     "duration" : {
                        "text" : "4 mins",
                        "value" : 229
                     },
                     "end_location" : {
                        "lat" : 12.9446543,
                        "lng" : 80.1349154
                     },
                     "html_instructions" : "Continue straight past BP Petrol Pump onto \u003cb\u003eChennai - Nagapattinam Hwy\u003c/b\u003e/\u003cb\u003eChennai - Theni Hwy\u003c/b\u003e/\u003cb\u003eChennai - Trichy Hwy\u003c/b\u003e\u003cdiv style=\"font-size:0.9em\"\u003ePass by Seventh-day Adventist High School (on the left)\u003c/div\u003e",
                     "maneuver" : "straight",
                     "polyline" : {
                        "points" : "wv|mA{~_hN_A_Ae@g@sAuA{B}BsAsAaAaAaA_AEE_A{@cA{@sAgAeB{ASO{AqAu@o@yAiAa@[m@i@iA_AcCsBoFeEu@q@iFwFy@}@cDkDQOwA{A}@_Ac@c@s@s@i@c@a@[o@a@o@a@"
                     },
                     "start_location" : {
                        "lat" : 12.9317975,
                        "lng" : 80.12286349999999
                     },
                     "travel_mode" : "DRIVING"
                  },
                  {
                     "distance" : {
                        "text" : "0.8 km",
                        "value" : 818
                     },
                     "duration" : {
                        "text" : "1 min",
                        "value" : 78
                     },
                     "end_location" : {
                        "lat" : 12.9505352,
                        "lng" : 80.1394363
                     },
                     "html_instructions" : "Continue straight to stay on \u003cb\u003eChennai - Nagapattinam Hwy\u003c/b\u003e/\u003cb\u003eChennai - Theni Hwy\u003c/b\u003e/\u003cb\u003eChennai - Trichy Hwy\u003c/b\u003e",
                     "maneuver" : "straight",
                     "polyline" : {
                        "points" : "ag_nAgjbhNuIqGy@k@[UWSECSO_@WA?aAq@_CoAGEi@[kCeBaAy@u@m@cAq@}AoA"
                     },
                     "start_location" : {
                        "lat" : 12.9446543,
                        "lng" : 80.1349154
                     },
                     "travel_mode" : "DRIVING"
                  },
                  {
                     "distance" : {
                        "text" : "1.0 km",
                        "value" : 1010
                     },
                     "duration" : {
                        "text" : "2 mins",
                        "value" : 147
                     },
                     "end_location" : {
                        "lat" : 12.9583065,
                        "lng" : 80.1441925
                     },
                     "html_instructions" : "Continue straight to stay on \u003cb\u003eChennai - Nagapattinam Hwy\u003c/b\u003e/\u003cb\u003eChennai - Theni Hwy\u003c/b\u003e/\u003cb\u003eChennai - Trichy Hwy\u003c/b\u003e\u003cdiv style=\"font-size:0.9em\"\u003ePass by Citibank ATM (on the left in 600&nbsp;m)\u003c/div\u003e",
                     "maneuver" : "straight",
                     "polyline" : {
                        "points" : "{k`nAofchNWS[SyAeAcD_CIKGE}@q@_@Ye@[{@e@UMa@Og@Ug@U{Am@mCkAyF_CWK}CuA_Bu@iAi@[Ke@U"
                     },
                     "start_location" : {
                        "lat" : 12.9505352,
                        "lng" : 80.1394363
                     },
                     "travel_mode" : "DRIVING"
                  },
                  {
                     "distance" : {
                        "text" : "2.6 km",
                        "value" : 2632
                     },
                     "duration" : {
                        "text" : "7 mins",
                        "value" : 435
                     },
                     "end_location" : {
                        "lat" : 12.9768198,
                        "lng" : 80.15817249999999
                     },
                     "html_instructions" : "Continue straight past Megamart - The Arvind Store onto \u003cb\u003eChennai - Nagapattinam Hwy\u003c/b\u003e/\u003cb\u003eChennai - Theni Hwy\u003c/b\u003e/\u003cb\u003eChennai - Trichy Hwy\u003c/b\u003e/\u003cb\u003eGreat Southern Trunk Rd\u003c/b\u003e\u003cdiv style=\"font-size:0.9em\"\u003eContinue to follow Chennai - Nagapattinam Hwy/Chennai - Theni Hwy/Chennai - Trichy Hwy\u003c/div\u003e\u003cdiv style=\"font-size:0.9em\"\u003ePass by ICICI BANK ATM (on the left in 1.6&nbsp;km)\u003c/div\u003e",
                     "maneuver" : "straight",
                     "polyline" : {
                        "points" : "m|anAeddhNmEmB{DgBA?ECo@YA?eAg@OGaA_@cMsFi@YiB}@{@a@w@]yDeBmCgAICiAe@gAa@[M{By@sCeAy@[eC}@_Bm@wC_AqE_BYQIKo@{@s@iAeCeEiBeDo@mA}AqCcBmCq@iA{AiCs@kAiAoB}@}A"
                     },
                     "start_location" : {
                        "lat" : 12.9583065,
                        "lng" : 80.1441925
                     },
                     "travel_mode" : "DRIVING"
                  },
                  {
                     "distance" : {
                        "text" : "0.2 km",
                        "value" : 245
                     },
                     "duration" : {
                        "text" : "1 min",
                        "value" : 31
                     },
                     "end_location" : {
                        "lat" : 12.9781468,
                        "lng" : 80.15995119999999
                     },
                     "html_instructions" : "Slight \u003cb\u003eleft\u003c/b\u003e onto \u003cb\u003eNH Service Road\u003c/b\u003e",
                     "maneuver" : "turn-slight-left",
                     "polyline" : {
                        "points" : "cpenAq{fhNSIEACACEIIMQaAgBiCgECC"
                     },
                     "start_location" : {
                        "lat" : 12.9768198,
                        "lng" : 80.15817249999999
                     },
                     "travel_mode" : "DRIVING"
                  },
                  {
                     "distance" : {
                        "text" : "0.9 km",
                        "value" : 910
                     },
                     "duration" : {
                        "text" : "3 mins",
                        "value" : 175
                     },
                     "end_location" : {
                        "lat" : 12.9819514,
                        "lng" : 80.16729289999999
                     },
                     "html_instructions" : "Continue onto \u003cb\u003eService Rd\u003c/b\u003e",
                     "polyline" : {
                        "points" : "mxenAufghNc@s@yCmEwBiDSa@Wg@K]Ma@?Ae@kC]wB[}Aa@wAm@_BqAuCmAcCk@oA"
                     },
                     "start_location" : {
                        "lat" : 12.9781468,
                        "lng" : 80.15995119999999
                     },
                     "travel_mode" : "DRIVING"
                  },
                  {
                     "distance" : {
                        "text" : "84 m",
                        "value" : 84
                     },
                     "duration" : {
                        "text" : "1 min",
                        "value" : 34
                     },
                     "end_location" : {
                        "lat" : 12.9824227,
                        "lng" : 80.16786139999999
                     },
                     "html_instructions" : "Slight \u003cb\u003eleft\u003c/b\u003e onto \u003cb\u003eAirport Terminal Link\u003c/b\u003e\u003cdiv style=\"font-size:0.9em\"\u003eDestination will be on the left\u003c/div\u003e",
                     "maneuver" : "turn-slight-left",
                     "polyline" : {
                        "points" : "epfnAqthhNSKICKGECCEIOGUWi@"
                     },
                     "start_location" : {
                        "lat" : 12.9819514,
                        "lng" : 80.16729289999999
                     },
                     "travel_mode" : "DRIVING"
                  }
               ],
               "traffic_speed_entry" : [],
               "via_waypoint" : []
            }
         ],
         "overview_polyline" : {
            "points" : "y~}lAgdjgNICw@|FIh@K`@p@RpA^nBr@nC`A~Ah@nJpDGHwAg@aGwByK{DqMiEkGqBsJmDiNsEqJaDiEcByAo@sC_BwDkBiIcEoEyBcEyB_FeCwDyBwGyDwA}@yDyBiB}@iJkFqI{EwD{B_FsCoEgCsO_JcQyJeNyHqDoByAs@wFeDqBcAuCkBeHmEmMeIqAaAaDmB}KeHaTuM}CqBqBcBgLuL{KoLcTcUoEcFeAmAyD{DaKwK}BaCsGgHsAoAaBiBeHwH_DqDsBmBeEmEgDcDo@k@uAcAkFkD}C{BmBoAiCcBg@WgG}D}A_AwEyCwNyJgD}BiJwGoFyDiC{AoEmCuCqAgBq@aEmAwFaBeLyCqC{@qIaCuCw@uGmBkHyBcD_AyMuD_TiGwRyFyUgHcLwDqEwAsHyBcC{@eCgAmBiAu@g@wAcA{KuHi[oTsRsMeMwI{AiAyFwDoBsAuC{B}@u@e@i@}AcCcDsGe@s@g@k@{@o@q@]a@Mo@Ke@IcAIyDQ{@Cy@Cw@MaAKgAWaAc@q@m@i@q@c@cAS{@Q_DImAE[EIIq@Sy@qAeDcBwDm@sAeAoBaByBqCwDcAoAwBmDyAgBcFqFc@[wF_GmBuBoGgGoIyIUUaKsJyCyCcBcBmByBQO_EyDiEmEiIoIiEcEqGoFmGgFwBiBcCsBoFeEu@q@iFwF}EiFkEoE}AwAqA}@o@a@uIqGuAaAq@g@cBiAgCuAuDaCwBgBcAq@}AoAs@g@}FeEQQ}AkAaBaAw@]yHeDqGkC}FkCyIyDsFeCyCoAcMsFi@YeD_BqFcCwCkAiHoCsLmEiJ_Dc@]cBeCeCeEiBeDmC_FuCwEwGcLa@SW[kEoHg@w@yCmEwBiDk@iAY_Ae@mC]wB[}Aa@wAm@_B_DyGk@oA]OQKMU_@_A"
         },
         "summary" : "NH32 and Chennai - Nagapattinam Hwy/Chennai - Trichy Hwy",
         "warnings" : [],
         "waypoint_order" : []
      },
      {
         "bounds" : {
            "northeast" : {
               "lat" : 12.9824227,
               "lng" : 80.16786139999999
            },
            "southwest" : {
               "lat" : 12.7705533,
               "lng" : 80.00744619999999
            }
         },
         "copyrights" : "Map data ©2018 Google",
         "legs" : [
            {
               "distance" : {
                  "text" : "38.2 km",
                  "value" : 38184
               },
               "duration" : {
                  "text" : "1 hour 6 mins",
                  "value" : 3948
               },
               "duration_in_traffic" : {
                  "text" : "58 mins",
                  "value" : 3470
               },
               "end_address" : "Chennai International Airport (MAA), GST Rd, Meenambakkam, Chennai, Tamil Nadu 600027, India",
               "end_location" : {
                  "lat" : 12.9824227,
                  "lng" : 80.16786139999999
               },
               "start_address" : "GST Road, Maraimalai Nagar, Thirukachur, Tamil Nadu 603209, India",
               "start_location" : {
                  "lat" : 12.7743706,
                  "lng" : 80.011081
               },
               "steps" : [
                  {
                     "distance" : {
                        "text" : "6 m",
                        "value" : 6
                     },
                     "duration" : {
                        "text" : "1 min",
                        "value" : 1
                     },
                     "end_location" : {
                        "lat" : 12.7744172,
                        "lng" : 80.0110986
                     },
                     "html_instructions" : "Head \u003cb\u003enorth\u003c/b\u003e\u003cdiv style=\"font-size:0.9em\"\u003eRestricted usage road\u003c/div\u003e",
                     "polyline" : {
                        "points" : "y~}lAgdjgNIC"
                     },
                     "start_location" : {
                        "lat" : 12.7743706,
                        "lng" : 80.011081
                     },
                     "travel_mode" : "DRIVING"
                  },
                  {
                     "distance" : {
                        "text" : "0.2 km",
                        "value" : 185
                     },
                     "duration" : {
                        "text" : "1 min",
                        "value" : 48
                     },
                     "end_location" : {
                        "lat" : 12.774806,
                        "lng" : 80.0094546
                     },
                     "html_instructions" : "Turn \u003cb\u003eleft\u003c/b\u003e toward \u003cb\u003eNH32\u003c/b\u003e",
                     "maneuver" : "turn-left",
                     "polyline" : {
                        "points" : "c_~lAkdjgNw@|F@?Kh@K`@"
                     },
                     "start_location" : {
                        "lat" : 12.7744172,
                        "lng" : 80.0110986
                     },
                     "travel_mode" : "DRIVING"
                  },
                  {
                     "distance" : {
                        "text" : "0.5 km",
                        "value" : 518
                     },
                     "duration" : {
                        "text" : "1 min",
                        "value" : 61
                     },
                     "end_location" : {
                        "lat" : 12.7705533,
                        "lng" : 80.00750309999999
                     },
                     "html_instructions" : "Turn \u003cb\u003eleft\u003c/b\u003e onto \u003cb\u003eNH32\u003c/b\u003e",
                     "maneuver" : "turn-left",
                     "polyline" : {
                        "points" : "qa~lAazigNp@RpA^nBr@bA^jA`@@@|Af@nBt@~FzB"
                     },
                     "start_location" : {
                        "lat" : 12.774806,
                        "lng" : 80.0094546
                     },
                     "travel_mode" : "DRIVING"
                  },
                  {
                     "distance" : {
                        "text" : "16.0 km",
                        "value" : 15960
                     },
                     "duration" : {
                        "text" : "21 mins",
                        "value" : 1275
                     },
                     "end_location" : {
                        "lat" : 12.8907556,
                        "lng" : 80.08480229999999
                     },
                     "html_instructions" : "Make a \u003cb\u003eU-turn\u003c/b\u003e\u003cdiv style=\"font-size:0.9em\"\u003ePass by Sivanantha Saraswathi (on the left in 5.2&nbsp;km)\u003c/div\u003e",
                     "maneuver" : "uturn-right",
                     "polyline" : {
                        "points" : "}f}lA{migNGHwAg@yAg@gDoAyDuA_FeBwAe@yGwBq@Wm@Sy@Ua@M]MqC_AcGwBoBu@eCw@cJ{CqJaDiEcBu@[c@S[Qm@_@QMw@_@WMYMi@W{Aw@qFqCwAq@kDgBc@QcB}@c@SA?y@g@}C}AaAg@}A}@yA{@mAq@iBeAwA{@GEo@a@g@[mDqBKG}@e@k@WsDsBuDwBsFaD}Ay@_BaAwAy@iAq@e@WwAy@WOw@e@WOu@c@iAm@{A}@}A}@uAw@UMcAk@}@i@oAs@[S_Ai@sAu@eAm@{A{@_@UiAm@uAy@mAq@WOg@WcBaAcAk@sAs@gAo@iAo@WO{Ay@uAu@SMeAe@_@UgC{A{@g@SK}@a@s@a@oAw@eAs@YQiAq@aBgA_BaA_BaAaEiCy@g@qBqAk@e@e@[}AcAcAi@qD{BqBoAq@c@gAu@qHsEoJaG]S_C}AcA{@m@g@iBkB}HiI_GiGmBuBMM_@a@UUsHeIyB}B_FiF}@cAqC_DeAmAyD{DsIgJm@o@e@i@wAwAcAiAQQoByBmAqAu@u@]YoAwAQQWYkAqAcBgB}AcB}AgBaAiAeA}@m@o@wA_BmBmBuAsAqAoAo@k@uAcA}CsBmAw@}@o@_BkA}@m@o@a@eAs@cAo@g@WgG}DgAq@UM{A_A{ByAwFwDwAaAs@e@sByAUOqCmBoDgCyDoCyEeDUSeCwACCKGA?eAo@{BuAuCqAgBq@eBi@{Ac@eEkAq@UwI}BmA[QEECiBk@OESEeCu@yAa@}Ac@w@WeAWEAQEs@SOE{C}@u@UiDaAaCw@cCq@_@M{EsAu@UoCw@w@SiBi@[KcFyAwAa@AAcEmAA?UGeEmAQGgAYqBm@a@Ks@UqBm@]Ks@UwH_Cg@OMCs@USGyEwAUGaImCaBi@cBi@mBm@eFwAmAa@"
                     },
                     "start_location" : {
                        "lat" : 12.7705533,
                        "lng" : 80.00750309999999
                     },
                     "travel_mode" : "DRIVING"
                  },
                  {
                     "distance" : {
                        "text" : "0.2 km",
                        "value" : 240
                     },
                     "duration" : {
                        "text" : "1 min",
                        "value" : 28
                     },
                     "end_location" : {
                        "lat" : 12.8926994,
                        "lng" : 80.08569709999999
                     },
                     "html_instructions" : "Take the exit toward \u003cb\u003ePerungalathur Flyover\u003c/b\u003e/\u003cb\u003eTambaram - Mudichur - Walajabad Rd\u003c/b\u003e/\u003cb\u003eVandalur Rd\u003c/b\u003e/\u003cb\u003eVandalur - Oragadam - Walajabad Rd\u003c/b\u003e",
                     "maneuver" : "ramp-left",
                     "polyline" : {
                        "points" : "gvtmA_qxgNO?S?UCQEw@WaAa@gAi@s@_@m@]CAAAMC"
                     },
                     "start_location" : {
                        "lat" : 12.8907556,
                        "lng" : 80.08480229999999
                     },
                     "travel_mode" : "DRIVING"
                  },
                  {
                     "distance" : {
                        "text" : "1.8 km",
                        "value" : 1838
                     },
                     "duration" : {
                        "text" : "3 mins",
                        "value" : 162
                     },
                     "end_location" : {
                        "lat" : 12.8912124,
                        "lng" : 80.0698309
                     },
                     "html_instructions" : "Turn \u003cb\u003eleft\u003c/b\u003e onto \u003cb\u003ePerungalathur Flyover\u003c/b\u003e/\u003cb\u003eTambaram - Mudichur - Walajabad Rd\u003c/b\u003e/\u003cb\u003eVandalur Rd\u003c/b\u003e/\u003cb\u003eVandalur - Oragadam - Walajabad Rd\u003c/b\u003e\u003cdiv style=\"font-size:0.9em\"\u003eContinue to follow Tambaram - Mudichur - Walajabad Rd/Vandalur - Oragadam - Walajabad Rd\u003c/div\u003e\u003cdiv style=\"font-size:0.9em\"\u003ePass by Sree Abhinav Students Pint (on the left)\u003c/div\u003e",
                     "maneuver" : "turn-left",
                     "polyline" : {
                        "points" : "kbumAsvxgN?DSlAKx@Iv@Gl@Il@Gf@Gd@_@rD_@pDEFCHSlEAP?xB@NAT?NAlA?N@H?D@B?B@@?B@@?@BBFBBBB?B@D@F@VBr@FF@F@FBDBHDLLFJXf@JRhAhAJJLJDDBNDXBZ@b@BtABdABrABpADlAFlB?J@r@BnAHzAFn@P|ALz@Lz@J|@Fz@Db@DjA?\\@z@BdAAvACl@CT"
                     },
                     "start_location" : {
                        "lat" : 12.8926994,
                        "lng" : 80.08569709999999
                     },
                     "travel_mode" : "DRIVING"
                  },
                  {
                     "distance" : {
                        "text" : "92 m",
                        "value" : 92
                     },
                     "duration" : {
                        "text" : "1 min",
                        "value" : 15
                     },
                     "end_location" : {
                        "lat" : 12.8912552,
                        "lng" : 80.07062259999999
                     },
                     "html_instructions" : "Make a \u003cb\u003eU-turn\u003c/b\u003e at Star Medicals",
                     "maneuver" : "uturn-right",
                     "polyline" : {
                        "points" : "aytmAmsugNMCDm@?g@AcA"
                     },
                     "start_location" : {
                        "lat" : 12.8912124,
                        "lng" : 80.0698309
                     },
                     "travel_mode" : "DRIVING"
                  },
                  {
                     "distance" : {
                        "text" : "1.3 km",
                        "value" : 1263
                     },
                     "duration" : {
                        "text" : "2 mins",
                        "value" : 129
                     },
                     "end_location" : {
                        "lat" : 12.902522,
                        "lng" : 80.0709212
                     },
                     "html_instructions" : "Turn \u003cb\u003eleft\u003c/b\u003e onto \u003cb\u003eService Rd\u003c/b\u003e",
                     "maneuver" : "turn-left",
                     "polyline" : {
                        "points" : "kytmAkxugNE@m@PiANi@F{@DcADiA?iAB_DB}C@{A@wA@uA?}A@wA@qCB{BAqACgAE_AIiAMwBYmBWOAiFq@"
                     },
                     "start_location" : {
                        "lat" : 12.8912552,
                        "lng" : 80.07062259999999
                     },
                     "travel_mode" : "DRIVING"
                  },
                  {
                     "distance" : {
                        "text" : "6.4 km",
                        "value" : 6355
                     },
                     "duration" : {
                        "text" : "6 mins",
                        "value" : 348
                     },
                     "end_location" : {
                        "lat" : 12.9565786,
                        "lng" : 80.089759
                     },
                     "html_instructions" : "Slight \u003cb\u003eright\u003c/b\u003e to merge onto \u003cb\u003eChennai Outer Ring Rd\u003c/b\u003e",
                     "polyline" : {
                        "points" : "w_wmAgzugN]_@KAqEk@{@MsAUiAU}Be@sCo@mFkAmE_AwD{@{D{@kE_AuBe@[GkIkB_GoAy@S]I]I_@KoFqAsA[yA[_AQUEs@MoGmAkHsAcHqAi@Mg@KqHmB{DcAwDcAiBg@wJiCmReFqFyAyAa@iBg@kFwAcKwC{D}@sEkAm@Q}Ac@cAWeEgA}DgAyDgAuBm@sA]g@MwI_CwF_B}EqA{HuB}IiC_Cq@uBi@{C{@_D}@_Cq@u@QsCw@YI"
                     },
                     "start_location" : {
                        "lat" : 12.902522,
                        "lng" : 80.0709212
                     },
                     "travel_mode" : "DRIVING"
                  },
                  {
                     "distance" : {
                        "text" : "1.1 km",
                        "value" : 1125
                     },
                     "duration" : {
                        "text" : "2 mins",
                        "value" : 108
                     },
                     "end_location" : {
                        "lat" : 12.9666557,
                        "lng" : 80.0897616
                     },
                     "html_instructions" : "Exit onto \u003cb\u003eService Rd Ring Rd\u003c/b\u003e",
                     "maneuver" : "ramp-left",
                     "polyline" : {
                        "points" : "sqanA_pygNeAECAaBYy@Ku@IoAIiAAyA@oDD_BF{DDC?uDFmBD}CDwEHwDFgBFeA?"
                     },
                     "start_location" : {
                        "lat" : 12.9565786,
                        "lng" : 80.089759
                     },
                     "travel_mode" : "DRIVING"
                  },
                  {
                     "distance" : {
                        "text" : "0.8 km",
                        "value" : 764
                     },
                     "duration" : {
                        "text" : "2 mins",
                        "value" : 130
                     },
                     "end_location" : {
                        "lat" : 12.9692933,
                        "lng" : 80.0953133
                     },
                     "html_instructions" : "Turn \u003cb\u003eright\u003c/b\u003e",
                     "maneuver" : "turn-right",
                     "polyline" : {
                        "points" : "spcnA_pygNDa@Hw@Dq@JqA?ABy@?y@Ak@C_@CYEWEUa@aCG_@Qs@Ia@WaAAAOy@G[GQEIGIGEIGIEMGcAg@iC{@wCu@"
                     },
                     "start_location" : {
                        "lat" : 12.9666557,
                        "lng" : 80.0897616
                     },
                     "travel_mode" : "DRIVING"
                  },
                  {
                     "distance" : {
                        "text" : "2.1 km",
                        "value" : 2118
                     },
                     "duration" : {
                        "text" : "5 mins",
                        "value" : 270
                     },
                     "end_location" : {
                        "lat" : 12.9655062,
                        "lng" : 80.1136384
                     },
                     "html_instructions" : "Turn \u003cb\u003eright\u003c/b\u003e onto \u003cb\u003eTirumudivakkam Main Rd\u003c/b\u003e\u003cdiv style=\"font-size:0.9em\"\u003ePass by AmarPrakash Heritage (on the right in 1.4&nbsp;km)\u003c/div\u003e",
                     "maneuver" : "turn-right",
                     "polyline" : {
                        "points" : "aadnAurzgN^{LBa@?W?i@PuBDcAD[F]\\qAn@uCp@yC`AaEX_BRaALo@Fk@Fo@Dq@Dg@BWBUBSPiABUDWJ_@FSZmAJYFQDOFYFWFYDYNcADUb@mBDOf@qB?CPi@J]Ja@J_@J_@DOBOBWp@iFHo@@QBQBKDKDMJU@CJSj@aA@ADG\\k@DIR]Pe@?A@E@G@E?CACAEAECIGIGGMKMKs@_@WOQMCCCEAAAECICKAMASAI?G?E@CBI"
                     },
                     "start_location" : {
                        "lat" : 12.9692933,
                        "lng" : 80.0953133
                     },
                     "travel_mode" : "DRIVING"
                  },
                  {
                     "distance" : {
                        "text" : "0.4 km",
                        "value" : 363
                     },
                     "duration" : {
                        "text" : "1 min",
                        "value" : 56
                     },
                     "end_location" : {
                        "lat" : 12.9622807,
                        "lng" : 80.11333549999999
                     },
                     "html_instructions" : "Turn \u003cb\u003eright\u003c/b\u003e onto \u003cb\u003eTheradi St\u003c/b\u003e",
                     "maneuver" : "turn-right",
                     "polyline" : {
                        "points" : "micnAge~gNFAD?D?D?D@NDLBLBjANh@FTDP@L@PBt@@~CHt@BL?X?PAt@E"
                     },
                     "start_location" : {
                        "lat" : 12.9655062,
                        "lng" : 80.1136384
                     },
                     "travel_mode" : "DRIVING"
                  },
                  {
                     "distance" : {
                        "text" : "0.8 km",
                        "value" : 827
                     },
                     "duration" : {
                        "text" : "3 mins",
                        "value" : 160
                     },
                     "end_location" : {
                        "lat" : 12.9582688,
                        "lng" : 80.11902599999999
                     },
                     "html_instructions" : "At Tiruneermalai - Divya Desam 61, continue onto \u003cb\u003eS Mada St\u003c/b\u003e\u003cdiv style=\"font-size:0.9em\"\u003ePass by Punitha Thomyyar Higher Secondary School (on the right in 450&nbsp;m)\u003c/div\u003e",
                     "polyline" : {
                        "points" : "gubnAkc~gNJANAj@KJQJKDKDODYFWDm@Bk@FwB@Q@i@?I?G@S@Q@QJUrA[@Ab@SrAu@~@m@TMPMfAq@POFIZ_@DE`@wAFc@p@yADIVe@`@i@h@s@"
                     },
                     "start_location" : {
                        "lat" : 12.9622807,
                        "lng" : 80.11333549999999
                     },
                     "travel_mode" : "DRIVING"
                  },
                  {
                     "distance" : {
                        "text" : "3.0 km",
                        "value" : 3038
                     },
                     "duration" : {
                        "text" : "9 mins",
                        "value" : 524
                     },
                     "end_location" : {
                        "lat" : 12.9613272,
                        "lng" : 80.1458135
                     },
                     "html_instructions" : "Continue onto \u003cb\u003eTiruneermalai Main Rd\u003c/b\u003e\u003cdiv style=\"font-size:0.9em\"\u003eDrive along the lake (on the right for 600&nbsp;m)\u003c/div\u003e",
                     "polyline" : {
                        "points" : "e|anA}f_hNVW^a@DGNQNSFKJWDOBQ@MASAMGOMOMSM[GIEOAGAIBSDOHUNWPm@TeBHu@Dc@Fa@BY@U@YA{@AyAA{@A_@?i@?q@@u@BgA?k@Ai@?[A_@A[AIAOOmAGk@SmBCSEg@CMEMKWKSKU{B}DS[MSu@kAa@q@o@eAKO_@s@S_@EGGOAQa@eBi@eCOu@CIWiAMm@CKKo@K}@Gs@CWIs@Gq@AUIyAC[EeAA_@QqGAWE_CCuAAmBCq@MqEEsBAsBC{ABw@GmF@m@GkKAO?E@C?A?A?E?S"
                     },
                     "start_location" : {
                        "lat" : 12.9582688,
                        "lng" : 80.11902599999999
                     },
                     "travel_mode" : "DRIVING"
                  },
                  {
                     "distance" : {
                        "text" : "2.3 km",
                        "value" : 2253
                     },
                     "duration" : {
                        "text" : "7 mins",
                        "value" : 393
                     },
                     "end_location" : {
                        "lat" : 12.9768198,
                        "lng" : 80.15817249999999
                     },
                     "html_instructions" : "Turn \u003cb\u003eleft\u003c/b\u003e at \u003cb\u003ePonds Signal\u003c/b\u003e onto \u003cb\u003eChennai - Nagapattinam Hwy\u003c/b\u003e/\u003cb\u003eChennai - Theni Hwy\u003c/b\u003e/\u003cb\u003eChennai - Trichy Hwy\u003c/b\u003e/\u003cb\u003eGreat Southern Trunk Rd\u003c/b\u003e\u003cdiv style=\"font-size:0.9em\"\u003eContinue to follow Chennai - Nagapattinam Hwy/Chennai - Theni Hwy/Chennai - Trichy Hwy\u003c/div\u003e\u003cdiv style=\"font-size:0.9em\"\u003ePass by ICICI BANK ATM (on the left in 1.3&nbsp;km)\u003c/div\u003e",
                     "maneuver" : "turn-left",
                     "polyline" : {
                        "points" : "iobnAindhNcMsFi@YiB}@{@a@w@]yDeBmCgAICiAe@gAa@[M{By@sCeAy@[eC}@_Bm@wC_AqE_BYQIKo@{@s@iAeCeEiBeDo@mA}AqCcBmCq@iA{AiCs@kAiAoB}@}A"
                     },
                     "start_location" : {
                        "lat" : 12.9613272,
                        "lng" : 80.1458135
                     },
                     "travel_mode" : "DRIVING"
                  },
                  {
                     "distance" : {
                        "text" : "0.2 km",
                        "value" : 245
                     },
                     "duration" : {
                        "text" : "1 min",
                        "value" : 31
                     },
                     "end_location" : {
                        "lat" : 12.9781468,
                        "lng" : 80.15995119999999
                     },
                     "html_instructions" : "Slight \u003cb\u003eleft\u003c/b\u003e onto \u003cb\u003eNH Service Road\u003c/b\u003e",
                     "maneuver" : "turn-slight-left",
                     "polyline" : {
                        "points" : "cpenAq{fhNSIEACACEIIMQaAgBiCgECC"
                     },
                     "start_location" : {
                        "lat" : 12.9768198,
                        "lng" : 80.15817249999999
                     },
                     "travel_mode" : "DRIVING"
                  },
                  {
                     "distance" : {
                        "text" : "0.9 km",
                        "value" : 910
                     },
                     "duration" : {
                        "text" : "3 mins",
                        "value" : 175
                     },
                     "end_location" : {
                        "lat" : 12.9819514,
                        "lng" : 80.16729289999999
                     },
                     "html_instructions" : "Continue onto \u003cb\u003eService Rd\u003c/b\u003e",
                     "polyline" : {
                        "points" : "mxenAufghNc@s@yCmEwBiDSa@Wg@K]Ma@?Ae@kC]wB[}Aa@wAm@_BqAuCmAcCk@oA"
                     },
                     "start_location" : {
                        "lat" : 12.9781468,
                        "lng" : 80.15995119999999
                     },
                     "travel_mode" : "DRIVING"
                  },
                  {
                     "distance" : {
                        "text" : "84 m",
                        "value" : 84
                     },
                     "duration" : {
                        "text" : "1 min",
                        "value" : 34
                     },
                     "end_location" : {
                        "lat" : 12.9824227,
                        "lng" : 80.16786139999999
                     },
                     "html_instructions" : "Slight \u003cb\u003eleft\u003c/b\u003e onto \u003cb\u003eAirport Terminal Link\u003c/b\u003e\u003cdiv style=\"font-size:0.9em\"\u003eDestination will be on the left\u003c/div\u003e",
                     "maneuver" : "turn-slight-left",
                     "polyline" : {
                        "points" : "epfnAqthhNSKICKGECCEIOGUWi@"
                     },
                     "start_location" : {
                        "lat" : 12.9819514,
                        "lng" : 80.16729289999999
                     },
                     "travel_mode" : "DRIVING"
                  }
               ],
               "traffic_speed_entry" : [],
               "via_waypoint" : []
            }
         ],
         "overview_polyline" : {
            "points" : "y~}lAgdjgNICw@|FIh@K`@p@RpA^nBr@nC`A~Ah@nJpDGHwAg@aGwByK{DqMiEkGqBsJmDiNsEqJaDiEcByAo@sC_BwDkBiIcEoEyBcEyB_FeCwDyBwGyDwA}@yDyBiB}@iJkFqI{EwD{B_FsCoEgCsO_JcQyJeNyHqDoByAs@wFeDqBcAuCkBeHmEmMeIqAaAaDmB}KeHaTuM}CqBqBcBgLuL{KoLcTcUoEcFeAmAyD{DaKwK}BaCsGgHsAoAaBiBeHwH_DqDsBmBeEmEgDcDo@k@uAcAkFkD}C{BmBoAiCcBg@WgG}D}A_AwEyCwNyJgD}BiJwGoFyDiC{AoEmCuCqAgBq@aEmAwFaBeLyCqC{@qIaCuCw@uGmBkHyBcD_AyMuD_TiGwRyFyUgHcLwDqEwAsHyBc@?g@IyBy@mDiBOESrAg@lEoArLIPU~E?nD?lBBLLJPFzAN^NTXd@z@hBfBHh@D~@N`INzFLjDXlCZvBRxBJnB@xA@|CGbAMCDm@AkBs@RsBV_CJsCBqNH}KFmEEgCO_IaAiFq@]_@}Em@oCc@gE{@gWwF}d@cKaKcCcFaAi[aGyIyBsJgCai@qNsXyHoKiCkCu@iG_BwJoCiQyEuMqDyS_GqPuEcJeCiAG{Ce@eCScD?oGL_EDyS\\_HNeA?Da@NiBJsABsBEkAIq@g@wCYsAa@cBQ{@Om@MSQMWMcAg@iC{@wCu@^{LBy@?i@PuBJ_BfC_LzAaH`@qBZuDJaAT_BPw@v@mC\\{AT}Ah@cC~@oDn@_CH_@t@aGR_BXs@~@_Bb@u@d@cADUESKSUSaAk@i@]KQKw@?[BIFAJ?h@JxC`@^BfADtELf@?bBKj@KJQPWJi@LeAN_FBw@@QJUtA]b@SrAu@tA{@xA_AXY`@e@`@wAFc@v@cBVe@`@i@`AkAd@i@^e@Rc@Ha@?a@I][c@Ue@GW@]Ne@`@eA^{CRuB?uACuC?qDBsBAeAGuAo@{FIu@Qe@Wi@oCyEuCwEeAkBoCeMO{@SqBWsCU{ESiHIuEE_DSeIEoEBw@E{GI{K@K?G?ScMsFsCwAsB_AgImDsAi@sJoD_EyA_Bm@wC_AqE_BYQy@gAyDoGyCsFaE_HmCsE}B{D}@}ASIICMO}EeI}DaGkCkEc@eAMc@cAcG[}Aa@wAm@_BqAuCyBsEi@WIIQe@Wi@"
         },
         "summary" : "NH32",
         "warnings" : [],
         "waypoint_order" : []
      },
      {
         "bounds" : {
            "northeast" : {
               "lat" : 12.9986969,
               "lng" : 80.16786139999999
            },
            "southwest" : {
               "lat" : 12.7705533,
               "lng" : 80.00744619999999
            }
         },
         "copyrights" : "Map data ©2018 Google",
         "legs" : [
            {
               "distance" : {
                  "text" : "41.8 km",
                  "value" : 41796
               },
               "duration" : {
                  "text" : "1 hour 12 mins",
                  "value" : 4346
               },
               "duration_in_traffic" : {
                  "text" : "1 hour 5 mins",
                  "value" : 3870
               },
               "end_address" : "Chennai International Airport (MAA), GST Rd, Meenambakkam, Chennai, Tamil Nadu 600027, India",
               "end_location" : {
                  "lat" : 12.9824227,
                  "lng" : 80.16786139999999
               },
               "start_address" : "GST Road, Maraimalai Nagar, Thirukachur, Tamil Nadu 603209, India",
               "start_location" : {
                  "lat" : 12.7743706,
                  "lng" : 80.011081
               },
               "steps" : [
                  {
                     "distance" : {
                        "text" : "6 m",
                        "value" : 6
                     },
                     "duration" : {
                        "text" : "1 min",
                        "value" : 1
                     },
                     "end_location" : {
                        "lat" : 12.7744172,
                        "lng" : 80.0110986
                     },
                     "html_instructions" : "Head \u003cb\u003enorth\u003c/b\u003e\u003cdiv style=\"font-size:0.9em\"\u003eRestricted usage road\u003c/div\u003e",
                     "polyline" : {
                        "points" : "y~}lAgdjgNIC"
                     },
                     "start_location" : {
                        "lat" : 12.7743706,
                        "lng" : 80.011081
                     },
                     "travel_mode" : "DRIVING"
                  },
                  {
                     "distance" : {
                        "text" : "0.2 km",
                        "value" : 185
                     },
                     "duration" : {
                        "text" : "1 min",
                        "value" : 48
                     },
                     "end_location" : {
                        "lat" : 12.774806,
                        "lng" : 80.0094546
                     },
                     "html_instructions" : "Turn \u003cb\u003eleft\u003c/b\u003e toward \u003cb\u003eNH32\u003c/b\u003e",
                     "maneuver" : "turn-left",
                     "polyline" : {
                        "points" : "c_~lAkdjgNw@|F@?Kh@K`@"
                     },
                     "start_location" : {
                        "lat" : 12.7744172,
                        "lng" : 80.0110986
                     },
                     "travel_mode" : "DRIVING"
                  },
                  {
                     "distance" : {
                        "text" : "0.5 km",
                        "value" : 518
                     },
                     "duration" : {
                        "text" : "1 min",
                        "value" : 61
                     },
                     "end_location" : {
                        "lat" : 12.7705533,
                        "lng" : 80.00750309999999
                     },
                     "html_instructions" : "Turn \u003cb\u003eleft\u003c/b\u003e onto \u003cb\u003eNH32\u003c/b\u003e",
                     "maneuver" : "turn-left",
                     "polyline" : {
                        "points" : "qa~lAazigNp@RpA^nBr@bA^jA`@@@|Af@nBt@~FzB"
                     },
                     "start_location" : {
                        "lat" : 12.774806,
                        "lng" : 80.0094546
                     },
                     "travel_mode" : "DRIVING"
                  },
                  {
                     "distance" : {
                        "text" : "16.0 km",
                        "value" : 15960
                     },
                     "duration" : {
                        "text" : "21 mins",
                        "value" : 1275
                     },
                     "end_location" : {
                        "lat" : 12.8907556,
                        "lng" : 80.08480229999999
                     },
                     "html_instructions" : "Make a \u003cb\u003eU-turn\u003c/b\u003e\u003cdiv style=\"font-size:0.9em\"\u003ePass by Sivanantha Saraswathi (on the left in 5.2&nbsp;km)\u003c/div\u003e",
                     "maneuver" : "uturn-right",
                     "polyline" : {
                        "points" : "}f}lA{migNGHwAg@yAg@gDoAyDuA_FeBwAe@yGwBq@Wm@Sy@Ua@M]MqC_AcGwBoBu@eCw@cJ{CqJaDiEcBu@[c@S[Qm@_@QMw@_@WMYMi@W{Aw@qFqCwAq@kDgBc@QcB}@c@SA?y@g@}C}AaAg@}A}@yA{@mAq@iBeAwA{@GEo@a@g@[mDqBKG}@e@k@WsDsBuDwBsFaD}Ay@_BaAwAy@iAq@e@WwAy@WOw@e@WOu@c@iAm@{A}@}A}@uAw@UMcAk@}@i@oAs@[S_Ai@sAu@eAm@{A{@_@UiAm@uAy@mAq@WOg@WcBaAcAk@sAs@gAo@iAo@WO{Ay@uAu@SMeAe@_@UgC{A{@g@SK}@a@s@a@oAw@eAs@YQiAq@aBgA_BaA_BaAaEiCy@g@qBqAk@e@e@[}AcAcAi@qD{BqBoAq@c@gAu@qHsEoJaG]S_C}AcA{@m@g@iBkB}HiI_GiGmBuBMM_@a@UUsHeIyB}B_FiF}@cAqC_DeAmAyD{DsIgJm@o@e@i@wAwAcAiAQQoByBmAqAu@u@]YoAwAQQWYkAqAcBgB}AcB}AgBaAiAeA}@m@o@wA_BmBmBuAsAqAoAo@k@uAcA}CsBmAw@}@o@_BkA}@m@o@a@eAs@cAo@g@WgG}DgAq@UM{A_A{ByAwFwDwAaAs@e@sByAUOqCmBoDgCyDoCyEeDUSeCwACCKGA?eAo@{BuAuCqAgBq@eBi@{Ac@eEkAq@UwI}BmA[QEECiBk@OESEeCu@yAa@}Ac@w@WeAWEAQEs@SOE{C}@u@UiDaAaCw@cCq@_@M{EsAu@UoCw@w@SiBi@[KcFyAwAa@AAcEmAA?UGeEmAQGgAYqBm@a@Ks@UqBm@]Ks@UwH_Cg@OMCs@USGyEwAUGaImCaBi@cBi@mBm@eFwAmAa@"
                     },
                     "start_location" : {
                        "lat" : 12.7705533,
                        "lng" : 80.00750309999999
                     },
                     "travel_mode" : "DRIVING"
                  },
                  {
                     "distance" : {
                        "text" : "0.2 km",
                        "value" : 240
                     },
                     "duration" : {
                        "text" : "1 min",
                        "value" : 28
                     },
                     "end_location" : {
                        "lat" : 12.8926994,
                        "lng" : 80.08569709999999
                     },
                     "html_instructions" : "Take the exit toward \u003cb\u003ePerungalathur Flyover\u003c/b\u003e/\u003cb\u003eTambaram - Mudichur - Walajabad Rd\u003c/b\u003e/\u003cb\u003eVandalur Rd\u003c/b\u003e/\u003cb\u003eVandalur - Oragadam - Walajabad Rd\u003c/b\u003e",
                     "maneuver" : "ramp-left",
                     "polyline" : {
                        "points" : "gvtmA_qxgNO?S?UCQEw@WaAa@gAi@s@_@m@]CAAAMC"
                     },
                     "start_location" : {
                        "lat" : 12.8907556,
                        "lng" : 80.08480229999999
                     },
                     "travel_mode" : "DRIVING"
                  },
                  {
                     "distance" : {
                        "text" : "1.8 km",
                        "value" : 1838
                     },
                     "duration" : {
                        "text" : "3 mins",
                        "value" : 162
                     },
                     "end_location" : {
                        "lat" : 12.8912124,
                        "lng" : 80.0698309
                     },
                     "html_instructions" : "Turn \u003cb\u003eleft\u003c/b\u003e onto \u003cb\u003ePerungalathur Flyover\u003c/b\u003e/\u003cb\u003eTambaram - Mudichur - Walajabad Rd\u003c/b\u003e/\u003cb\u003eVandalur Rd\u003c/b\u003e/\u003cb\u003eVandalur - Oragadam - Walajabad Rd\u003c/b\u003e\u003cdiv style=\"font-size:0.9em\"\u003eContinue to follow Tambaram - Mudichur - Walajabad Rd/Vandalur - Oragadam - Walajabad Rd\u003c/div\u003e\u003cdiv style=\"font-size:0.9em\"\u003ePass by Sree Abhinav Students Pint (on the left)\u003c/div\u003e",
                     "maneuver" : "turn-left",
                     "polyline" : {
                        "points" : "kbumAsvxgN?DSlAKx@Iv@Gl@Il@Gf@Gd@_@rD_@pDEFCHSlEAP?xB@NAT?NAlA?N@H?D@B?B@@?B@@?@BBFBBBB?B@D@F@VBr@FF@F@FBDBHDLLFJXf@JRhAhAJJLJDDBNDXBZ@b@BtABdABrABpADlAFlB?J@r@BnAHzAFn@P|ALz@Lz@J|@Fz@Db@DjA?\\@z@BdAAvACl@CT"
                     },
                     "start_location" : {
                        "lat" : 12.8926994,
                        "lng" : 80.08569709999999
                     },
                     "travel_mode" : "DRIVING"
                  },
                  {
                     "distance" : {
                        "text" : "92 m",
                        "value" : 92
                     },
                     "duration" : {
                        "text" : "1 min",
                        "value" : 15
                     },
                     "end_location" : {
                        "lat" : 12.8912552,
                        "lng" : 80.07062259999999
                     },
                     "html_instructions" : "Make a \u003cb\u003eU-turn\u003c/b\u003e at Star Medicals",
                     "maneuver" : "uturn-right",
                     "polyline" : {
                        "points" : "aytmAmsugNMCDm@?g@AcA"
                     },
                     "start_location" : {
                        "lat" : 12.8912124,
                        "lng" : 80.0698309
                     },
                     "travel_mode" : "DRIVING"
                  },
                  {
                     "distance" : {
                        "text" : "1.3 km",
                        "value" : 1263
                     },
                     "duration" : {
                        "text" : "2 mins",
                        "value" : 129
                     },
                     "end_location" : {
                        "lat" : 12.902522,
                        "lng" : 80.0709212
                     },
                     "html_instructions" : "Turn \u003cb\u003eleft\u003c/b\u003e onto \u003cb\u003eService Rd\u003c/b\u003e",
                     "maneuver" : "turn-left",
                     "polyline" : {
                        "points" : "kytmAkxugNE@m@PiANi@F{@DcADiA?iAB_DB}C@{A@wA@uA?}A@wA@qCB{BAqACgAE_AIiAMwBYmBWOAiFq@"
                     },
                     "start_location" : {
                        "lat" : 12.8912552,
                        "lng" : 80.07062259999999
                     },
                     "travel_mode" : "DRIVING"
                  },
                  {
                     "distance" : {
                        "text" : "9.9 km",
                        "value" : 9915
                     },
                     "duration" : {
                        "text" : "9 mins",
                        "value" : 533
                     },
                     "end_location" : {
                        "lat" : 12.9885225,
                        "lng" : 80.08905
                     },
                     "html_instructions" : "Slight \u003cb\u003eright\u003c/b\u003e to merge onto \u003cb\u003eChennai Outer Ring Rd\u003c/b\u003e",
                     "polyline" : {
                        "points" : "w_wmAgzugN]_@KAqEk@{@MsAUiAU}Be@sCo@mFkAmE_AwD{@{D{@kE_AuBe@[GkIkB_GoAy@S]I]I_@KoFqAsA[yA[_AQUEs@MoGmAkHsAcHqAi@Mg@KqHmB{DcAwDcAiBg@wJiCmReFqFyAyAa@iBg@kFwAcKwC{D}@sEkAm@Q}Ac@cAWeEgA}DgAyDgAuBm@sA]g@MwI_CwF_B}EqA{HuB}IiC_Cq@uBi@{C{@_D}@_Cq@u@QsCw@YI{@Uq@OYEQEYEa@GOCQA]Ei@CYCa@AS?S?s@?wB@_AByFHqSZmABuABmFFs@@s@@gABgDBmGDcJJaHFwC@wC@K?uC@aa@X}ADmA@mAByABiELqADeBF{FLw@BcDF{DL_EJ[@"
                     },
                     "start_location" : {
                        "lat" : 12.902522,
                        "lng" : 80.0709212
                     },
                     "travel_mode" : "DRIVING"
                  },
                  {
                     "distance" : {
                        "text" : "0.2 km",
                        "value" : 190
                     },
                     "duration" : {
                        "text" : "1 min",
                        "value" : 17
                     },
                     "end_location" : {
                        "lat" : 12.9901931,
                        "lng" : 80.08883039999999
                     },
                     "html_instructions" : "Slight \u003cb\u003eleft\u003c/b\u003e",
                     "maneuver" : "turn-slight-left",
                     "polyline" : {
                        "points" : "gygnAqkygNONK?iCFgDR"
                     },
                     "start_location" : {
                        "lat" : 12.9885225,
                        "lng" : 80.08905
                     },
                     "travel_mode" : "DRIVING"
                  },
                  {
                     "distance" : {
                        "text" : "0.5 km",
                        "value" : 517
                     },
                     "duration" : {
                        "text" : "1 min",
                        "value" : 44
                     },
                     "end_location" : {
                        "lat" : 12.9945904,
                        "lng" : 80.0873105
                     },
                     "html_instructions" : "Continue straight",
                     "maneuver" : "straight",
                     "polyline" : {
                        "points" : "uchnAejygN}@Hk@H_AP}Ab@WH[HoA^yBt@_Bb@YH_@LE?kAXs@La@HOBWH"
                     },
                     "start_location" : {
                        "lat" : 12.9901931,
                        "lng" : 80.08883039999999
                     },
                     "travel_mode" : "DRIVING"
                  },
                  {
                     "distance" : {
                        "text" : "34 m",
                        "value" : 34
                     },
                     "duration" : {
                        "text" : "1 min",
                        "value" : 7
                     },
                     "end_location" : {
                        "lat" : 12.994892,
                        "lng" : 80.0872469
                     },
                     "html_instructions" : "Continue straight",
                     "maneuver" : "straight",
                     "polyline" : {
                        "points" : "e_inAu`ygN{@J"
                     },
                     "start_location" : {
                        "lat" : 12.9945904,
                        "lng" : 80.0873105
                     },
                     "travel_mode" : "DRIVING"
                  },
                  {
                     "distance" : {
                        "text" : "1.1 km",
                        "value" : 1101
                     },
                     "duration" : {
                        "text" : "3 mins",
                        "value" : 194
                     },
                     "end_location" : {
                        "lat" : 12.9974088,
                        "lng" : 80.0964006
                     },
                     "html_instructions" : "Turn \u003cb\u003eright\u003c/b\u003e onto \u003cb\u003eKundrathur - Sriperumbudur Rd\u003c/b\u003e\u003cdiv style=\"font-size:0.9em\"\u003ePass by Kunrathur Police Station (on the left in 600&nbsp;m)\u003c/div\u003e",
                     "maneuver" : "turn-right",
                     "polyline" : {
                        "points" : "aainAi`ygNMmACOC[Gi@?COsBOaBMwA?AGs@K_BGk@GWEMEKKKc@YIGgAg@g@UWMEAAAi@W[OMIIGOO?AKSGOEQCWAUAW?QAs@Aq@Cm@Em@Ei@C]Go@Em@A_@ASCs@?m@?q@BaAFqC"
                     },
                     "start_location" : {
                        "lat" : 12.994892,
                        "lng" : 80.0872469
                     },
                     "travel_mode" : "DRIVING"
                  },
                  {
                     "distance" : {
                        "text" : "0.1 km",
                        "value" : 95
                     },
                     "duration" : {
                        "text" : "1 min",
                        "value" : 36
                     },
                     "end_location" : {
                        "lat" : 12.9982503,
                        "lng" : 80.0965557
                     },
                     "html_instructions" : "Turn \u003cb\u003eleft\u003c/b\u003e onto \u003cb\u003eBazaar St\u003c/b\u003e/\u003cb\u003eKundrathur Main Rd\u003c/b\u003e/\u003cb\u003eKundrathur - Sriperumbudur Rd\u003c/b\u003e",
                     "maneuver" : "turn-left",
                     "polyline" : {
                        "points" : "ypinAoyzgNUEg@G}AOKA"
                     },
                     "start_location" : {
                        "lat" : 12.9974088,
                        "lng" : 80.0964006
                     },
                     "travel_mode" : "DRIVING"
                  },
                  {
                     "distance" : {
                        "text" : "7.1 km",
                        "value" : 7084
                     },
                     "duration" : {
                        "text" : "21 mins",
                        "value" : 1261
                     },
                     "end_location" : {
                        "lat" : 12.9704537,
                        "lng" : 80.14694849999999
                     },
                     "html_instructions" : "Turn \u003cb\u003eright\u003c/b\u003e onto \u003cb\u003eJawaharlal Nehru Rd\u003c/b\u003e/\u003cb\u003eKundrathur - Sriperumbudur Rd\u003c/b\u003e/\u003cb\u003ePalla St\u003c/b\u003e/\u003cb\u003ePammal Main Rd\u003c/b\u003e\u003cdiv style=\"font-size:0.9em\"\u003eContinue to follow Jawaharlal Nehru Rd/Pammal Main Rd\u003c/div\u003e\u003cdiv style=\"font-size:0.9em\"\u003ePass by Post Office (on the right in 3.4&nbsp;km)\u003c/div\u003e",
                     "maneuver" : "turn-right",
                     "polyline" : {
                        "points" : "avinAozzgNHy@@I?E?W@E@K?GDSNw@LS\\a@FIBIDIBIFWBg@FuA?g@?u@Cg@Cm@Eg@?AS_ASm@Si@SeAAGEIa@u@QMOMMOIMIOCKAECU?U@WHq@@IFUFWHSBGPa@BC^s@Ve@\\m@LuA@GP{ALo@Nu@H]FaAHo@Hg@JUDOP]FKL_@Rc@Po@BOF]^uBHa@H]Pg@Tg@Tk@Rq@TiAHm@Hi@\\sAJUpAmCTc@HQHMJMLOZ]xA}ARSLMd@g@p@q@JMLM`@g@FIr@eAx@uAJQDEPSl@m@X[@CRU@C~AsA`EoDlB}ALIbEgCrD{BxAcAtB{AdC}Af@]^k@j@}@t@iApAwBl@sAVWXSZOFEFEFGBEBI?ECSCGEKEKMSa@o@CQGWEc@Ew@Aw@Dm@@KDMHOFOHKLMx@mAh@y@^g@f@u@PYTc@Rg@Le@BU@AHaAHcALmAX_DBSNgC?C@E@C@E@ELCVCTAJADADAHCDIBGBM?GB[@QDUFEDAD?JAbAFtCJxAFd@DdAJ`BZH@FAFA@?@AFEPWBE\\m@PWLKNMVWd@[j@_@xAqAPKhAEJAFGDGBC@CBGDK@KBMDYF[HYDWFQFQLWL[JU^wABIBIBIDGBEFGBCFE@AB?LCp@HdAH\\Dt@Dd@ETANAJEHGDCJMNqA@]BWBg@FiAF{@LkAHg@DMBMHUBG\\o@hAuBf@}@Xe@Nc@Vi@Zo@Ro@FYPaADQH[BMRm@t@kBPi@Zs@Xs@H[ZiAP{@BMJu@F]D_@Hu@H}@D_@LuAJ{@Da@Jg@J_@H]Lk@Ns@XiANe@Ng@l@aBN[LWL]FKHIdBoAc@w@U]Q]U_@]o@"
                     },
                     "start_location" : {
                        "lat" : 12.9982503,
                        "lng" : 80.0965557
                     },
                     "travel_mode" : "DRIVING"
                  },
                  {
                     "distance" : {
                        "text" : "0.1 km",
                        "value" : 117
                     },
                     "duration" : {
                        "text" : "1 min",
                        "value" : 36
                     },
                     "end_location" : {
                        "lat" : 12.9696034,
                        "lng" : 80.14758920000001
                     },
                     "html_instructions" : "Turn \u003cb\u003eright\u003c/b\u003e onto \u003cb\u003eIndira Gandhi Rd\u003c/b\u003e/\u003cb\u003ePillayar Kovil St\u003c/b\u003e",
                     "maneuver" : "turn-right",
                     "polyline" : {
                        "points" : "ihdnAmudhNhD_C"
                     },
                     "start_location" : {
                        "lat" : 12.9704537,
                        "lng" : 80.14694849999999
                     },
                     "travel_mode" : "DRIVING"
                  },
                  {
                     "distance" : {
                        "text" : "0.5 km",
                        "value" : 482
                     },
                     "duration" : {
                        "text" : "2 mins",
                        "value" : 121
                     },
                     "end_location" : {
                        "lat" : 12.972082,
                        "lng" : 80.15122509999999
                     },
                     "html_instructions" : "Turn \u003cb\u003eleft\u003c/b\u003e at the 1st cross street onto \u003cb\u003eCattle Shandy Rd\u003c/b\u003e",
                     "maneuver" : "turn-left",
                     "polyline" : {
                        "points" : "_cdnAmydhNg@w@KQS[e@y@uAaCYe@Ua@EIo@gAqDyFSY?AA??A@C"
                     },
                     "start_location" : {
                        "lat" : 12.9696034,
                        "lng" : 80.14758920000001
                     },
                     "travel_mode" : "DRIVING"
                  },
                  {
                     "distance" : {
                        "text" : "0.9 km",
                        "value" : 920
                     },
                     "duration" : {
                        "text" : "2 mins",
                        "value" : 138
                     },
                     "end_location" : {
                        "lat" : 12.9768198,
                        "lng" : 80.15817249999999
                     },
                     "html_instructions" : "Slight \u003cb\u003eleft\u003c/b\u003e onto \u003cb\u003eChennai - Nagapattinam Hwy\u003c/b\u003e/\u003cb\u003eChennai - Theni Hwy\u003c/b\u003e/\u003cb\u003eChennai - Trichy Hwy\u003c/b\u003e",
                     "maneuver" : "turn-slight-left",
                     "polyline" : {
                        "points" : "ordnAepehNYQIKo@{@s@iAeCeEiBeDo@mA}AqCcBmCq@iA{AiCs@kAiAoB}@}A"
                     },
                     "start_location" : {
                        "lat" : 12.972082,
                        "lng" : 80.15122509999999
                     },
                     "travel_mode" : "DRIVING"
                  },
                  {
                     "distance" : {
                        "text" : "0.2 km",
                        "value" : 245
                     },
                     "duration" : {
                        "text" : "1 min",
                        "value" : 31
                     },
                     "end_location" : {
                        "lat" : 12.9781468,
                        "lng" : 80.15995119999999
                     },
                     "html_instructions" : "Slight \u003cb\u003eleft\u003c/b\u003e onto \u003cb\u003eNH Service Road\u003c/b\u003e",
                     "maneuver" : "turn-slight-left",
                     "polyline" : {
                        "points" : "cpenAq{fhNSIEACACEIIMQaAgBiCgECC"
                     },
                     "start_location" : {
                        "lat" : 12.9768198,
                        "lng" : 80.15817249999999
                     },
                     "travel_mode" : "DRIVING"
                  },
                  {
                     "distance" : {
                        "text" : "0.9 km",
                        "value" : 910
                     },
                     "duration" : {
                        "text" : "3 mins",
                        "value" : 175
                     },
                     "end_location" : {
                        "lat" : 12.9819514,
                        "lng" : 80.16729289999999
                     },
                     "html_instructions" : "Continue onto \u003cb\u003eService Rd\u003c/b\u003e",
                     "polyline" : {
                        "points" : "mxenAufghNc@s@yCmEwBiDSa@Wg@K]Ma@?Ae@kC]wB[}Aa@wAm@_BqAuCmAcCk@oA"
                     },
                     "start_location" : {
                        "lat" : 12.9781468,
                        "lng" : 80.15995119999999
                     },
                     "travel_mode" : "DRIVING"
                  },
                  {
                     "distance" : {
                        "text" : "84 m",
                        "value" : 84
                     },
                     "duration" : {
                        "text" : "1 min",
                        "value" : 34
                     },
                     "end_location" : {
                        "lat" : 12.9824227,
                        "lng" : 80.16786139999999
                     },
                     "html_instructions" : "Slight \u003cb\u003eleft\u003c/b\u003e onto \u003cb\u003eAirport Terminal Link\u003c/b\u003e\u003cdiv style=\"font-size:0.9em\"\u003eDestination will be on the left\u003c/div\u003e",
                     "maneuver" : "turn-slight-left",
                     "polyline" : {
                        "points" : "epfnAqthhNSKICKGECCEIOGUWi@"
                     },
                     "start_location" : {
                        "lat" : 12.9819514,
                        "lng" : 80.16729289999999
                     },
                     "travel_mode" : "DRIVING"
                  }
               ],
               "traffic_speed_entry" : [],
               "via_waypoint" : []
            }
         ],
         "overview_polyline" : {
            "points" : "y~}lAgdjgNICw@|FIh@K`@p@R`ErAnFjBnJpDGHwAg@aGwByK{DqMiEkGqBsJmDiNsEqJaDiEcByAo@sC_BwDkByO}HcEyB_FeCwDyBwGyDqGwDiB}@iJkFiOwIoL{Gwa@yUeNyHqDoByAs@wFeDqBcAuCkBeHmEmMeIqAaAaDmB}KeHaTuM}CqBqBcBgLuL{KoLcTcUoEcF_GiG_OyOsGgHsAoAaBiBeHwH_DqDsBmBeEmEgDcDeCoBkFkDkGkEyLyHuHyEwNyJqOuKoFyDiC{AoEmC}FcCaEmAwFaBeLyCqC{@qIaCuCw@uGmBkHyBcD_AyMuD_TiGwRyFyUgHuRoGsHyBc@?g@IyBy@mDiBOESrAg@lEoArLIPU~E?nD?lBBLLJPFzAN^NTXd@z@hBfBHh@D~@N`INzFLjDXlCZvBRxBJnB@xA@|CGbAMCDm@AkBs@RsBV_CJsCBqNH}KFmEEgCO_IaAiFq@]_@}Em@oCc@gE{@gWwF}d@cKaKcCcFaAi[aGmUaGai@qNsXyHoKiCkCu@aSoFiQyEuMqDyS_GqPuEcJeCyCq@}AScCOsE@em@|@aZX}QJwe@ZkDFcMZ}P`@{JX[@ONuCFeF\\kBZuBl@kBh@yExAkCp@}Bd@{@JMmAGk@g@cGa@mFOcAKYo@e@qAo@gAg@}Ay@OQSc@Ii@Cm@GeDOuBQqCCaB?q@JsE}@MiBQJcABo@D[Nw@LSd@k@HSJa@J}BCeCIuASaAg@wAUmAg@_Aa@[W]M[E[@m@J{@Nm@b@aAv@yA\\m@LuARcB\\eBd@wDj@oA`@cAT_Az@sEpAmD^wBHi@\\sA|AcD^u@~@iAnG}G`CwD~AcBTY`BwAnHmGpEqClG_EzFyDf@]^k@`BgCpAwBl@sAp@k@r@c@FOCY]s@a@o@CQM{@GoBFy@N]P[pC}Dx@oAh@kAP{@JcAt@eIRuCBKd@Gl@GNMFUJkALGPAxER~BLdAJ`BZH@REX]`@s@fAiApA{@jB}AtAGLON[RoA^uAZs@j@mBPe@VWREjE^z@GZGNKJMNqADu@JqBTgCNu@Lc@`@w@pBsDh@iAr@yAZiAd@}BvBwFb@oAl@eCVaB^sDXqCPiAr@}Ch@oB|@iCr@}AnByAy@uAg@}@]o@hD_Cs@iAy@uAkCsEuF{IAC@Cc@]cBeCoFkJmC_FuCwEwGcLa@ScFkIg@w@yCmEwBiDk@iAY_Ae@mCy@uEoAwD_DyGk@oA]OQKMU_@_A"
         },
         "summary" : "NH32 and Chennai Outer Ring Rd",
         "warnings" : [],
         "waypoint_order" : []
      }
   ],
   "status" : "OK"
}
