{
   "error_message" : "departure_time is in the past. Traffic information is only available for future and current times.",
   "geocoded_waypoints" : [
      {
         "geocoder_status" : "OK",
         "place_id" : "ChIJwWQIQfT5UjoR1arwWJ9LABQ",
         "types" : [ "establishment", "point_of_interest" ]
      },
      {
         "geocoder_status" : "OK",
         "place_id" : "ChIJl2OoXR9eUjoRR27ibiEvCSE",
         "types" : [ "airport", "establishment", "point_of_interest" ]
      }
   ],
   "routes" : [],
   "status" : "INVALID_REQUEST"
}
