{
   "geocoded_waypoints" : [
      {
         "geocoder_status" : "OK",
         "place_id" : "ChIJgdshh_2d-DkRYEXv1hjTRRU",
         "types" : [ "political", "sublocality", "sublocality_level_3" ]
      },
      {
         "geocoder_status" : "OK",
         "place_id" : "ChIJAwZV4ch1AjoRNGPynnGXfaQ",
         "types" : [ "establishment", "point_of_interest", "university" ]
      }
   ],
   "routes" : [
      {
         "bounds" : {
            "northeast" : {
               "lat" : 22.6214358,
               "lng" : 88.4182077
            },
            "southwest" : {
               "lat" : 22.5737223,
               "lng" : 88.39532369999999
            }
         },
         "copyrights" : "Map data ©2018 Google",
         "legs" : [
            {
               "distance" : {
                  "text" : "8.5 km",
                  "value" : 8509
               },
               "duration" : {
                  "text" : "27 mins",
                  "value" : 1622
               },
               "duration_in_traffic" : {
                  "text" : "27 mins",
                  "value" : 1597
               },
               "end_address" : "Salt Lake City, Sector III, HC Block, Kolkata, West Bengal 700106, India",
               "end_location" : {
                  "lat" : 22.5737223,
                  "lng" : 88.4173823
               },
               "start_address" : "Space Town, Bahiragath Colony, South Dum Dum, Kolkata, West Bengal 700074, India",
               "start_location" : {
                  "lat" : 22.6205363,
                  "lng" : 88.401809
               },
               "steps" : [
                  {
                     "distance" : {
                        "text" : "88 m",
                        "value" : 88
                     },
                     "duration" : {
                        "text" : "1 min",
                        "value" : 32
                     },
                     "end_location" : {
                        "lat" : 22.6213133,
                        "lng" : 88.40198959999999
                     },
                     "html_instructions" : "Head \u003cb\u003enorth\u003c/b\u003e toward \u003cb\u003eDum Dum Rd\u003c/b\u003e",
                     "polyline" : {
                        "points" : "kaaiCi~pzOyCc@"
                     },
                     "start_location" : {
                        "lat" : 22.6205363,
                        "lng" : 88.401809
                     },
                     "travel_mode" : "DRIVING"
                  },
                  {
                     "distance" : {
                        "text" : "73 m",
                        "value" : 73
                     },
                     "duration" : {
                        "text" : "1 min",
                        "value" : 38
                     },
                     "end_location" : {
                        "lat" : 22.6214358,
                        "lng" : 88.40268589999999
                     },
                     "html_instructions" : "Turn \u003cb\u003eright\u003c/b\u003e onto \u003cb\u003eDum Dum Rd\u003c/b\u003e\u003cdiv style=\"font-size:0.9em\"\u003ePass by Hanuman Temple (on the right)\u003c/div\u003e",
                     "maneuver" : "turn-right",
                     "polyline" : {
                        "points" : "efaiCm_qzOAMEe@E[K{@"
                     },
                     "start_location" : {
                        "lat" : 22.6213133,
                        "lng" : 88.40198959999999
                     },
                     "travel_mode" : "DRIVING"
                  },
                  {
                     "distance" : {
                        "text" : "1.1 km",
                        "value" : 1122
                     },
                     "duration" : {
                        "text" : "4 mins",
                        "value" : 238
                     },
                     "end_location" : {
                        "lat" : 22.6129216,
                        "lng" : 88.4076561
                     },
                     "html_instructions" : "Turn \u003cb\u003eright\u003c/b\u003e onto \u003cb\u003eBagjola Khal Rd\u003c/b\u003e",
                     "maneuver" : "turn-right",
                     "polyline" : {
                        "points" : "_gaiCycqzOVCLENGNIPONKLGNCdFs@XEn@M`BWTGXGRINEb@WpBkAHEf@[PITOJEHCJENCJCLAJCRCbBKl@Gr@Gt@IVERGJELMFGNQTYb@s@fA_BZe@t@cA\\e@dAwAlAcB"
                     },
                     "start_location" : {
                        "lat" : 22.6214358,
                        "lng" : 88.40268589999999
                     },
                     "travel_mode" : "DRIVING"
                  },
                  {
                     "distance" : {
                        "text" : "0.2 km",
                        "value" : 244
                     },
                     "duration" : {
                        "text" : "1 min",
                        "value" : 81
                     },
                     "end_location" : {
                        "lat" : 22.6107691,
                        "lng" : 88.4073088
                     },
                     "html_instructions" : "Turn \u003cb\u003eright\u003c/b\u003e toward \u003cb\u003eJessore Rd\u003c/b\u003e",
                     "maneuver" : "turn-right",
                     "polyline" : {
                        "points" : "wq_iC{brzOZNTHj@HJ@^BN@^@H?H@P@PDx@HX@p@BP@H?D?BANA"
                     },
                     "start_location" : {
                        "lat" : 22.6129216,
                        "lng" : 88.4076561
                     },
                     "travel_mode" : "DRIVING"
                  },
                  {
                     "distance" : {
                        "text" : "0.2 km",
                        "value" : 191
                     },
                     "duration" : {
                        "text" : "1 min",
                        "value" : 56
                     },
                     "end_location" : {
                        "lat" : 22.6111687,
                        "lng" : 88.4091222
                     },
                     "html_instructions" : "Turn \u003cb\u003eleft\u003c/b\u003e onto \u003cb\u003eJessore Rd\u003c/b\u003e\u003cdiv style=\"font-size:0.9em\"\u003eDrive along Clubtown Greens (on the right for 100&nbsp;m)\u003c/div\u003e",
                     "maneuver" : "turn-left",
                     "polyline" : {
                        "points" : "id_iCu`rzO]{CUcB[iB"
                     },
                     "start_location" : {
                        "lat" : 22.6107691,
                        "lng" : 88.4073088
                     },
                     "travel_mode" : "DRIVING"
                  },
                  {
                     "distance" : {
                        "text" : "0.1 km",
                        "value" : 100
                     },
                     "duration" : {
                        "text" : "1 min",
                        "value" : 44
                     },
                     "end_location" : {
                        "lat" : 22.6105544,
                        "lng" : 88.409369
                     },
                     "html_instructions" : "Turn \u003cb\u003eright\u003c/b\u003e after Guru Dham (on the right)",
                     "maneuver" : "turn-right",
                     "polyline" : {
                        "points" : "yf_iC_lrzOMk@TA`@AR@V@d@E"
                     },
                     "start_location" : {
                        "lat" : 22.6111687,
                        "lng" : 88.4091222
                     },
                     "travel_mode" : "DRIVING"
                  },
                  {
                     "distance" : {
                        "text" : "0.6 km",
                        "value" : 625
                     },
                     "duration" : {
                        "text" : "3 mins",
                        "value" : 175
                     },
                     "end_location" : {
                        "lat" : 22.6052212,
                        "lng" : 88.40990789999999
                     },
                     "html_instructions" : "Slight \u003cb\u003eright\u003c/b\u003e",
                     "maneuver" : "turn-slight-right",
                     "polyline" : {
                        "points" : "}b_iCqmrzOPHL@hF`@~AH@?d@Fd@AL?pA[rA[|AWtA]vA_@dAYzAc@BAJb@"
                     },
                     "start_location" : {
                        "lat" : 22.6105544,
                        "lng" : 88.409369
                     },
                     "travel_mode" : "DRIVING"
                  },
                  {
                     "distance" : {
                        "text" : "0.3 km",
                        "value" : 285
                     },
                     "duration" : {
                        "text" : "1 min",
                        "value" : 74
                     },
                     "end_location" : {
                        "lat" : 22.6027012,
                        "lng" : 88.41039619999999
                     },
                     "html_instructions" : "Turn \u003cb\u003eleft\u003c/b\u003e",
                     "maneuver" : "turn-left",
                     "polyline" : {
                        "points" : "sa~hC}przOvAUFAdAIL?bAKbAKxAQzASDA"
                     },
                     "start_location" : {
                        "lat" : 22.6052212,
                        "lng" : 88.40990789999999
                     },
                     "travel_mode" : "DRIVING"
                  },
                  {
                     "distance" : {
                        "text" : "0.5 km",
                        "value" : 477
                     },
                     "duration" : {
                        "text" : "2 mins",
                        "value" : 106
                     },
                     "end_location" : {
                        "lat" : 22.6004412,
                        "lng" : 88.40647760000002
                     },
                     "html_instructions" : "Turn \u003cb\u003eright\u003c/b\u003e toward \u003cb\u003eLake Town Rd\u003c/b\u003e",
                     "maneuver" : "turn-right",
                     "polyline" : {
                        "points" : "{q}hC_trzO^j@LTFLDLDPH\\Jd@FTFTJTN\\JNl@x@HLbAhBdB~DpAxB"
                     },
                     "start_location" : {
                        "lat" : 22.6027012,
                        "lng" : 88.41039619999999
                     },
                     "travel_mode" : "DRIVING"
                  },
                  {
                     "distance" : {
                        "text" : "60 m",
                        "value" : 60
                     },
                     "duration" : {
                        "text" : "1 min",
                        "value" : 39
                     },
                     "end_location" : {
                        "lat" : 22.6000977,
                        "lng" : 88.4068982
                     },
                     "html_instructions" : "Turn \u003cb\u003eleft\u003c/b\u003e onto \u003cb\u003eLake Town Rd\u003c/b\u003e",
                     "maneuver" : "turn-left",
                     "polyline" : {
                        "points" : "wc}hCo{qzOXMJe@\\_@"
                     },
                     "start_location" : {
                        "lat" : 22.6004412,
                        "lng" : 88.40647760000002
                     },
                     "travel_mode" : "DRIVING"
                  },
                  {
                     "distance" : {
                        "text" : "1.0 km",
                        "value" : 959
                     },
                     "duration" : {
                        "text" : "2 mins",
                        "value" : 113
                     },
                     "end_location" : {
                        "lat" : 22.5952451,
                        "lng" : 88.39932159999999
                     },
                     "html_instructions" : "Turn \u003cb\u003eright\u003c/b\u003e onto \u003cb\u003eKazi Nazrul Islam Ave\u003c/b\u003e/\u003cb\u003eThakurnagar - Panchpota Rd\u003c/b\u003e/\u003cb\u003eVIP Rd\u003c/b\u003e\u003cdiv style=\"font-size:0.9em\"\u003eContinue to follow Thakurnagar - Panchpota Rd/VIP Rd\u003c/div\u003e",
                     "maneuver" : "turn-right",
                     "polyline" : {
                        "points" : "sa}hCc~qzONEDAF@JB@@~@nBpAtBvChFNZVf@|EhJbB`DHNf@hAFPDFr@~AP\\bCxE"
                     },
                     "start_location" : {
                        "lat" : 22.6000977,
                        "lng" : 88.4068982
                     },
                     "travel_mode" : "DRIVING"
                  },
                  {
                     "distance" : {
                        "text" : "2.0 km",
                        "value" : 1959
                     },
                     "duration" : {
                        "text" : "4 mins",
                        "value" : 218
                     },
                     "end_location" : {
                        "lat" : 22.5807263,
                        "lng" : 88.40117479999999
                     },
                     "html_instructions" : "Turn \u003cb\u003eleft\u003c/b\u003e onto \u003cb\u003eEastern Metropolitan Bypass\u003c/b\u003e/\u003cb\u003eEM Bypass - Kazi Nazrul Islam Ave Flyover\u003c/b\u003e/\u003cb\u003eThakurnagar - Panchpota Rd\u003c/b\u003e/\u003cb\u003eUltadanga Flyover\u003c/b\u003e\u003cdiv style=\"font-size:0.9em\"\u003eContinue to follow Eastern Metropolitan Bypass/Thakurnagar - Panchpota Rd\u003c/div\u003e",
                     "maneuver" : "turn-left",
                     "polyline" : {
                        "points" : "ic|hCwnpzONBFBD@D@HHFDFHRd@Zh@z@~A`A|A|@xAl@hAnBfDh@hAJTHLHJHHJHLFXFN@N?VE\\M\\Qd@]\\WXQb@[^U^Sf@WhAa@d@QNEjAc@dA]bBm@jAe@l@WhCeAhCgA~@e@v@c@l@c@XQzAk@VKrBq@tAa@XMb@Mz@Yh@QdBq@hAa@fAc@dAc@hAe@p@UZOPIZI"
                     },
                     "start_location" : {
                        "lat" : 22.5952451,
                        "lng" : 88.39932159999999
                     },
                     "travel_mode" : "DRIVING"
                  },
                  {
                     "distance" : {
                        "text" : "0.5 km",
                        "value" : 546
                     },
                     "duration" : {
                        "text" : "2 mins",
                        "value" : 115
                     },
                     "end_location" : {
                        "lat" : 22.5815536,
                        "lng" : 88.406232
                     },
                     "html_instructions" : "Turn \u003cb\u003eleft\u003c/b\u003e at \u003cb\u003eBengal Chemical Crossing\u003c/b\u003e onto \u003cb\u003eDuttabad Rd\u003c/b\u003e\u003cdiv style=\"font-size:0.9em\"\u003ePass by Bidhan Abasan (on the right in 500&nbsp;m)\u003c/div\u003e",
                     "maneuver" : "turn-left",
                     "polyline" : {
                        "points" : "qhyhCizpzODQ@I@K?KAa@?C?O@O@K?K?A?IAIAMCk@CYCe@GgAA_@AQ@Y@Y?y@@w@?G?C?m@?g@Ae@CYI_@GUOg@GSOMQWgAwB"
                     },
                     "start_location" : {
                        "lat" : 22.5807263,
                        "lng" : 88.40117479999999
                     },
                     "travel_mode" : "DRIVING"
                  },
                  {
                     "distance" : {
                        "text" : "1.0 km",
                        "value" : 1030
                     },
                     "duration" : {
                        "text" : "3 mins",
                        "value" : 157
                     },
                     "end_location" : {
                        "lat" : 22.5767641,
                        "lng" : 88.41347809999999
                     },
                     "html_instructions" : "At the roundabout, take the \u003cb\u003e3rd\u003c/b\u003e exit onto \u003cb\u003e1st Cross Rd\u003c/b\u003e\u003cdiv style=\"font-size:0.9em\"\u003eGo through 1 roundabout\u003c/div\u003e\u003cdiv style=\"font-size:0.9em\"\u003ePass by Bank of Maharashtra (on the left in 700&nbsp;m)\u003c/div\u003e",
                     "maneuver" : "roundabout-left",
                     "polyline" : {
                        "points" : "umyhC}yqzOC?C?A?A?C?A?AAA?CAAAA?ACAAAAACAA?AACAA?E?A?A?C?A?A@C?A@A?A@A@A@A@A@A@A@A@A@?BA@?B?B?@?@?B?@?@@@@B?@@@@@@bDqBlBmAzA_AvA_At@_@n@_@PKt@c@f@_@VS`AyAj@cBAA?A?AA??A?A?A?A?A@??A?A@A?A@??A@?TuB`@eDn@aFNmANaB"
                     },
                     "start_location" : {
                        "lat" : 22.5815536,
                        "lng" : 88.406232
                     },
                     "travel_mode" : "DRIVING"
                  },
                  {
                     "distance" : {
                        "text" : "0.5 km",
                        "value" : 494
                     },
                     "duration" : {
                        "text" : "1 min",
                        "value" : 87
                     },
                     "end_location" : {
                        "lat" : 22.5756587,
                        "lng" : 88.41801579999999
                     },
                     "html_instructions" : "At the roundabout, take the \u003cb\u003e2nd\u003c/b\u003e exit and stay on \u003cb\u003e1st Cross Rd\u003c/b\u003e\u003cdiv style=\"font-size:0.9em\"\u003ePass by Susrut Eye Foundation &amp; Research Centre (on the right in 450&nbsp;m)\u003c/div\u003e",
                     "maneuver" : "roundabout-left",
                     "polyline" : {
                        "points" : "woxhCggszOCAAAAAAAAC?AAA?CAA?C?A?A?C?A?C?A@A?C@A?C@A@A@A@A@ABA@?@A@?BA@?B?XkBHeAf@gD@GPcAPkATyANaAL_AJk@VkA"
                     },
                     "start_location" : {
                        "lat" : 22.5767641,
                        "lng" : 88.41347809999999
                     },
                     "travel_mode" : "DRIVING"
                  },
                  {
                     "distance" : {
                        "text" : "0.3 km",
                        "value" : 256
                     },
                     "duration" : {
                        "text" : "1 min",
                        "value" : 49
                     },
                     "end_location" : {
                        "lat" : 22.5737223,
                        "lng" : 88.4173823
                     },
                     "html_instructions" : "At the roundabout, take the \u003cb\u003e3rd\u003c/b\u003e exit\u003cdiv style=\"font-size:0.9em\"\u003eDestination will be on the left\u003c/div\u003e",
                     "maneuver" : "roundabout-left",
                     "polyline" : {
                        "points" : "{hxhCsctzOAAA??AAA?A?AA??A?A?A?A?A?A@A?A?A@??A@A@A@?@A@??A@?B?@?@?@?@@@?@@@@@@?@@??@?@@??@?@?@?@jBj@zBt@ZHtA^HB"
                     },
                     "start_location" : {
                        "lat" : 22.5756587,
                        "lng" : 88.41801579999999
                     },
                     "travel_mode" : "DRIVING"
                  }
               ],
               "traffic_speed_entry" : [],
               "via_waypoint" : []
            }
         ],
         "overview_polyline" : {
            "points" : "kaaiCi~pzOyCc@AMKaAK{@VC\\M`@Y\\StFw@hASvB_@l@QnDoBzA{@p@QpCUnD_@^MTUd@k@jBsCtDgFlAcBZN`ARzAHv@HrAJbADb@Cs@_Gi@uCv@Cj@Bd@EPHvFb@`BHd@Fd@A~A[rA[|AWlD}@`D}@BAJb@~AWrAIfCWtDe@DA^j@Tb@J^d@nBZr@x@hAlAvBdB~DpAxBXMJe@\\_@NEL?LD~@nBpAtBfDdGbJbQhBbEtCvFVF\\RrBxD~BvD|CpFt@~ARXTRf@N^@t@SzByAbAq@fAk@jE}AhDkAxB}@rGmCvBiAfAu@rBw@hEsA|@[tG_ChGcCl@YZIDQBUAm@Bo@Aa@MyBIgB?k@BsCA_CCYI_@W}@GSOMyAoCK?IAIGGICM?IHQPKTBHDdM_IlDoB~@s@`AyAj@cBAA?AAA?E@E@Ez@}G~@oHNaBCACCCECI?KDUPKDA\\kBHeAf@gDRkAdAgHb@wBAAAAACAIDMFEJ?JJ@HfF`BpBh@HB"
         },
         "summary" : "Thakurnagar - Panchpota Rd",
         "warnings" : [],
         "waypoint_order" : []
      },
      {
         "bounds" : {
            "northeast" : {
               "lat" : 22.6214358,
               "lng" : 88.4176083
            },
            "southwest" : {
               "lat" : 22.5700509,
               "lng" : 88.39532369999999
            }
         },
         "copyrights" : "Map data ©2018 Google",
         "legs" : [
            {
               "distance" : {
                  "text" : "9.2 km",
                  "value" : 9161
               },
               "duration" : {
                  "text" : "28 mins",
                  "value" : 1690
               },
               "duration_in_traffic" : {
                  "text" : "28 mins",
                  "value" : 1671
               },
               "end_address" : "Salt Lake City, Sector III, HC Block, Kolkata, West Bengal 700106, India",
               "end_location" : {
                  "lat" : 22.5737223,
                  "lng" : 88.4173823
               },
               "start_address" : "Space Town, Bahiragath Colony, South Dum Dum, Kolkata, West Bengal 700074, India",
               "start_location" : {
                  "lat" : 22.6205363,
                  "lng" : 88.401809
               },
               "steps" : [
                  {
                     "distance" : {
                        "text" : "88 m",
                        "value" : 88
                     },
                     "duration" : {
                        "text" : "1 min",
                        "value" : 32
                     },
                     "end_location" : {
                        "lat" : 22.6213133,
                        "lng" : 88.40198959999999
                     },
                     "html_instructions" : "Head \u003cb\u003enorth\u003c/b\u003e toward \u003cb\u003eDum Dum Rd\u003c/b\u003e",
                     "polyline" : {
                        "points" : "kaaiCi~pzOyCc@"
                     },
                     "start_location" : {
                        "lat" : 22.6205363,
                        "lng" : 88.401809
                     },
                     "travel_mode" : "DRIVING"
                  },
                  {
                     "distance" : {
                        "text" : "73 m",
                        "value" : 73
                     },
                     "duration" : {
                        "text" : "1 min",
                        "value" : 38
                     },
                     "end_location" : {
                        "lat" : 22.6214358,
                        "lng" : 88.40268589999999
                     },
                     "html_instructions" : "Turn \u003cb\u003eright\u003c/b\u003e onto \u003cb\u003eDum Dum Rd\u003c/b\u003e\u003cdiv style=\"font-size:0.9em\"\u003ePass by Hanuman Temple (on the right)\u003c/div\u003e",
                     "maneuver" : "turn-right",
                     "polyline" : {
                        "points" : "efaiCm_qzOAMEe@E[K{@"
                     },
                     "start_location" : {
                        "lat" : 22.6213133,
                        "lng" : 88.40198959999999
                     },
                     "travel_mode" : "DRIVING"
                  },
                  {
                     "distance" : {
                        "text" : "1.1 km",
                        "value" : 1122
                     },
                     "duration" : {
                        "text" : "4 mins",
                        "value" : 238
                     },
                     "end_location" : {
                        "lat" : 22.6129216,
                        "lng" : 88.4076561
                     },
                     "html_instructions" : "Turn \u003cb\u003eright\u003c/b\u003e onto \u003cb\u003eBagjola Khal Rd\u003c/b\u003e",
                     "maneuver" : "turn-right",
                     "polyline" : {
                        "points" : "_gaiCycqzOVCLENGNIPONKLGNCdFs@XEn@M`BWTGXGRINEb@WpBkAHEf@[PITOJEHCJENCJCLAJCRCbBKl@Gr@Gt@IVERGJELMFGNQTYb@s@fA_BZe@t@cA\\e@dAwAlAcB"
                     },
                     "start_location" : {
                        "lat" : 22.6214358,
                        "lng" : 88.40268589999999
                     },
                     "travel_mode" : "DRIVING"
                  },
                  {
                     "distance" : {
                        "text" : "0.2 km",
                        "value" : 244
                     },
                     "duration" : {
                        "text" : "1 min",
                        "value" : 81
                     },
                     "end_location" : {
                        "lat" : 22.6107691,
                        "lng" : 88.4073088
                     },
                     "html_instructions" : "Turn \u003cb\u003eright\u003c/b\u003e toward \u003cb\u003eJessore Rd\u003c/b\u003e",
                     "maneuver" : "turn-right",
                     "polyline" : {
                        "points" : "wq_iC{brzOZNTHj@HJ@^BN@^@H?H@P@PDx@HX@p@BP@H?D?BANA"
                     },
                     "start_location" : {
                        "lat" : 22.6129216,
                        "lng" : 88.4076561
                     },
                     "travel_mode" : "DRIVING"
                  },
                  {
                     "distance" : {
                        "text" : "0.2 km",
                        "value" : 191
                     },
                     "duration" : {
                        "text" : "1 min",
                        "value" : 56
                     },
                     "end_location" : {
                        "lat" : 22.6111687,
                        "lng" : 88.4091222
                     },
                     "html_instructions" : "Turn \u003cb\u003eleft\u003c/b\u003e onto \u003cb\u003eJessore Rd\u003c/b\u003e\u003cdiv style=\"font-size:0.9em\"\u003eDrive along Clubtown Greens (on the right for 100&nbsp;m)\u003c/div\u003e",
                     "maneuver" : "turn-left",
                     "polyline" : {
                        "points" : "id_iCu`rzO]{CUcB[iB"
                     },
                     "start_location" : {
                        "lat" : 22.6107691,
                        "lng" : 88.4073088
                     },
                     "travel_mode" : "DRIVING"
                  },
                  {
                     "distance" : {
                        "text" : "0.1 km",
                        "value" : 100
                     },
                     "duration" : {
                        "text" : "1 min",
                        "value" : 44
                     },
                     "end_location" : {
                        "lat" : 22.6105544,
                        "lng" : 88.409369
                     },
                     "html_instructions" : "Turn \u003cb\u003eright\u003c/b\u003e after Guru Dham (on the right)",
                     "maneuver" : "turn-right",
                     "polyline" : {
                        "points" : "yf_iC_lrzOMk@TA`@AR@V@d@E"
                     },
                     "start_location" : {
                        "lat" : 22.6111687,
                        "lng" : 88.4091222
                     },
                     "travel_mode" : "DRIVING"
                  },
                  {
                     "distance" : {
                        "text" : "0.6 km",
                        "value" : 625
                     },
                     "duration" : {
                        "text" : "3 mins",
                        "value" : 175
                     },
                     "end_location" : {
                        "lat" : 22.6052212,
                        "lng" : 88.40990789999999
                     },
                     "html_instructions" : "Slight \u003cb\u003eright\u003c/b\u003e",
                     "maneuver" : "turn-slight-right",
                     "polyline" : {
                        "points" : "}b_iCqmrzOPHL@hF`@~AH@?d@Fd@AL?pA[rA[|AWtA]vA_@dAYzAc@BAJb@"
                     },
                     "start_location" : {
                        "lat" : 22.6105544,
                        "lng" : 88.409369
                     },
                     "travel_mode" : "DRIVING"
                  },
                  {
                     "distance" : {
                        "text" : "0.3 km",
                        "value" : 285
                     },
                     "duration" : {
                        "text" : "1 min",
                        "value" : 74
                     },
                     "end_location" : {
                        "lat" : 22.6027012,
                        "lng" : 88.41039619999999
                     },
                     "html_instructions" : "Turn \u003cb\u003eleft\u003c/b\u003e",
                     "maneuver" : "turn-left",
                     "polyline" : {
                        "points" : "sa~hC}przOvAUFAdAIL?bAKbAKxAQzASDA"
                     },
                     "start_location" : {
                        "lat" : 22.6052212,
                        "lng" : 88.40990789999999
                     },
                     "travel_mode" : "DRIVING"
                  },
                  {
                     "distance" : {
                        "text" : "0.5 km",
                        "value" : 477
                     },
                     "duration" : {
                        "text" : "2 mins",
                        "value" : 106
                     },
                     "end_location" : {
                        "lat" : 22.6004412,
                        "lng" : 88.40647760000002
                     },
                     "html_instructions" : "Turn \u003cb\u003eright\u003c/b\u003e toward \u003cb\u003eLake Town Rd\u003c/b\u003e",
                     "maneuver" : "turn-right",
                     "polyline" : {
                        "points" : "{q}hC_trzO^j@LTFLDLDPH\\Jd@FTFTJTN\\JNl@x@HLbAhBdB~DpAxB"
                     },
                     "start_location" : {
                        "lat" : 22.6027012,
                        "lng" : 88.41039619999999
                     },
                     "travel_mode" : "DRIVING"
                  },
                  {
                     "distance" : {
                        "text" : "60 m",
                        "value" : 60
                     },
                     "duration" : {
                        "text" : "1 min",
                        "value" : 39
                     },
                     "end_location" : {
                        "lat" : 22.6000977,
                        "lng" : 88.4068982
                     },
                     "html_instructions" : "Turn \u003cb\u003eleft\u003c/b\u003e onto \u003cb\u003eLake Town Rd\u003c/b\u003e",
                     "maneuver" : "turn-left",
                     "polyline" : {
                        "points" : "wc}hCo{qzOXMJe@\\_@"
                     },
                     "start_location" : {
                        "lat" : 22.6004412,
                        "lng" : 88.40647760000002
                     },
                     "travel_mode" : "DRIVING"
                  },
                  {
                     "distance" : {
                        "text" : "1.0 km",
                        "value" : 959
                     },
                     "duration" : {
                        "text" : "2 mins",
                        "value" : 113
                     },
                     "end_location" : {
                        "lat" : 22.5952451,
                        "lng" : 88.39932159999999
                     },
                     "html_instructions" : "Turn \u003cb\u003eright\u003c/b\u003e onto \u003cb\u003eKazi Nazrul Islam Ave\u003c/b\u003e/\u003cb\u003eThakurnagar - Panchpota Rd\u003c/b\u003e/\u003cb\u003eVIP Rd\u003c/b\u003e\u003cdiv style=\"font-size:0.9em\"\u003eContinue to follow Thakurnagar - Panchpota Rd/VIP Rd\u003c/div\u003e",
                     "maneuver" : "turn-right",
                     "polyline" : {
                        "points" : "sa}hCc~qzONEDAF@JB@@~@nBpAtBvChFNZVf@|EhJbB`DHNf@hAFPDFr@~AP\\bCxE"
                     },
                     "start_location" : {
                        "lat" : 22.6000977,
                        "lng" : 88.4068982
                     },
                     "travel_mode" : "DRIVING"
                  },
                  {
                     "distance" : {
                        "text" : "3.1 km",
                        "value" : 3065
                     },
                     "duration" : {
                        "text" : "6 mins",
                        "value" : 348
                     },
                     "end_location" : {
                        "lat" : 22.571153,
                        "lng" : 88.4040048
                     },
                     "html_instructions" : "Turn \u003cb\u003eleft\u003c/b\u003e onto \u003cb\u003eEastern Metropolitan Bypass\u003c/b\u003e/\u003cb\u003eEM Bypass - Kazi Nazrul Islam Ave Flyover\u003c/b\u003e/\u003cb\u003eThakurnagar - Panchpota Rd\u003c/b\u003e/\u003cb\u003eUltadanga Flyover\u003c/b\u003e\u003cdiv style=\"font-size:0.9em\"\u003eContinue to follow Eastern Metropolitan Bypass/Thakurnagar - Panchpota Rd\u003c/div\u003e",
                     "maneuver" : "turn-left",
                     "polyline" : {
                        "points" : "ic|hCwnpzONBFBD@D@HHFDFHRd@Zh@z@~A`A|A|@xAl@hAnBfDh@hAJTHLHJHHJHLFXFN@N?VE\\M\\Qd@]\\WXQb@[^U^Sf@WhAa@d@QNEjAc@dA]bBm@jAe@l@WhCeAhCgA~@e@v@c@l@c@XQzAk@VKrBq@tAa@XMb@Mz@Yh@QdBq@hAa@fAc@dAc@hAe@p@UZOPIZId@Kh@Kz@OfCg@BA~Ba@jGaAhJ}AvBa@bGw@tCi@x@Un@Q@AlAa@pBw@NI^O"
                     },
                     "start_location" : {
                        "lat" : 22.5952451,
                        "lng" : 88.39932159999999
                     },
                     "travel_mode" : "DRIVING"
                  },
                  {
                     "distance" : {
                        "text" : "0.8 km",
                        "value" : 847
                     },
                     "duration" : {
                        "text" : "3 mins",
                        "value" : 156
                     },
                     "end_location" : {
                        "lat" : 22.5709735,
                        "lng" : 88.4119197
                     },
                     "html_instructions" : "Turn \u003cb\u003eleft\u003c/b\u003e\u003cdiv style=\"font-size:0.9em\"\u003ePass by Hyatt Regency Kolkata (on the right)\u003c/div\u003e",
                     "maneuver" : "turn-left",
                     "polyline" : {
                        "points" : "ulwhC_lqzOCGcAeDEQ_@kACG[oAUeAAGIk@AAGq@?eA@IFy@BSLcAHm@LmABUTkAHg@@GPiAPmAt@sFFe@BQ\\iB"
                     },
                     "start_location" : {
                        "lat" : 22.571153,
                        "lng" : 88.4040048
                     },
                     "travel_mode" : "DRIVING"
                  },
                  {
                     "distance" : {
                        "text" : "0.4 km",
                        "value" : 424
                     },
                     "duration" : {
                        "text" : "1 min",
                        "value" : 70
                     },
                     "end_location" : {
                        "lat" : 22.5700509,
                        "lng" : 88.41580879999999
                     },
                     "html_instructions" : "At the roundabout, continue straight",
                     "maneuver" : "roundabout-left",
                     "polyline" : {
                        "points" : "qkwhCo}rzOCA?AA?AA?AAAAA?A?AAA?A?AAC?A?A?A@A?C?A?A@A?A@A@A@A?A@A@A@A@?@A@?@A@?@?B?@?RaBN}@`@{CJaA@GReAr@iEHs@"
                     },
                     "start_location" : {
                        "lat" : 22.5709735,
                        "lng" : 88.4119197
                     },
                     "travel_mode" : "DRIVING"
                  },
                  {
                     "distance" : {
                        "text" : "0.5 km",
                        "value" : 520
                     },
                     "duration" : {
                        "text" : "2 mins",
                        "value" : 96
                     },
                     "end_location" : {
                        "lat" : 22.5743675,
                        "lng" : 88.4175297
                     },
                     "html_instructions" : "At the roundabout, take the \u003cb\u003e1st\u003c/b\u003e exit\u003cdiv style=\"font-size:0.9em\"\u003eGo through 1 roundabout\u003c/div\u003e",
                     "maneuver" : "roundabout-left",
                     "polyline" : {
                        "points" : "yewhCyuszOA??AA??A?AA??A?AAAUMIEs@QiA[]Ko@QmBi@cBi@oA]A@A@A?A@A?A?A?A?A?A??AA?A??AA??AA??AA??AAA?A?AA??A?A?A?AoA[kA[[GsA][I"
                     },
                     "start_location" : {
                        "lat" : 22.5700509,
                        "lng" : 88.41580879999999
                     },
                     "travel_mode" : "DRIVING"
                  },
                  {
                     "distance" : {
                        "text" : "81 m",
                        "value" : 81
                     },
                     "duration" : {
                        "text" : "1 min",
                        "value" : 24
                     },
                     "end_location" : {
                        "lat" : 22.5737223,
                        "lng" : 88.4173823
                     },
                     "html_instructions" : "Make a \u003cb\u003eU-turn\u003c/b\u003e\u003cdiv style=\"font-size:0.9em\"\u003eDestination will be on the left\u003c/div\u003e",
                     "maneuver" : "uturn-right",
                     "polyline" : {
                        "points" : "y`xhCq`tzODOZHtA^HB"
                     },
                     "start_location" : {
                        "lat" : 22.5743675,
                        "lng" : 88.4175297
                     },
                     "travel_mode" : "DRIVING"
                  }
               ],
               "traffic_speed_entry" : [],
               "via_waypoint" : []
            }
         ],
         "overview_polyline" : {
            "points" : "kaaiCi~pzOyCc@AMKaAK{@VC\\M`@Y\\StFw@hASvB_@l@QnDoBzA{@p@QpCUnD_@^MTUd@k@jBsCtDgFlAcBZN`ARzAHv@HrAJbADb@Cs@_Gi@uCv@Cj@Bd@EPHvFb@`BHd@Fd@A~A[rA[|AWlD}@`D}@BAJb@~AWrAIfCWtDe@DA^j@Tb@J^d@nBZr@x@hAlAvBdB~DpAxBXMJe@\\_@NEL?LD~@nBpAtBfDdGbJbQhBbEtCvFVF\\RrBxD~BvD|CpFt@~ARXTRf@N^@t@SzByAbAq@fAk@jE}AhDkAxB}@rGmCvBiAfAu@rBw@hEsA|@[tG_ChGcCl@Y`AUpFeAjKcB`N_CbGw@tCi@hBg@nAc@`CaA^OCGiAwDc@sAq@uCUgB@oAJmAh@uEr@eErAyJXkBAAEGCQDQLMFAD?b@_Dl@}ETmA|@}FA?ACAA?Ca@UkEkAaHqBEBM?KIAG?CkG}A[IDOpBh@HB"
         },
         "summary" : "Bagjola Khal Rd and Thakurnagar - Panchpota Rd",
         "warnings" : [],
         "waypoint_order" : []
      },
      {
         "bounds" : {
            "northeast" : {
               "lat" : 22.6213133,
               "lng" : 88.41820969999999
            },
            "southwest" : {
               "lat" : 22.5737223,
               "lng" : 88.3742329
            }
         },
         "copyrights" : "Map data ©2018 Google",
         "legs" : [
            {
               "distance" : {
                  "text" : "10.5 km",
                  "value" : 10535
               },
               "duration" : {
                  "text" : "35 mins",
                  "value" : 2118
               },
               "duration_in_traffic" : {
                  "text" : "35 mins",
                  "value" : 2111
               },
               "end_address" : "Salt Lake City, Sector III, HC Block, Kolkata, West Bengal 700106, India",
               "end_location" : {
                  "lat" : 22.5737223,
                  "lng" : 88.4173823
               },
               "start_address" : "Space Town, Bahiragath Colony, South Dum Dum, Kolkata, West Bengal 700074, India",
               "start_location" : {
                  "lat" : 22.6205363,
                  "lng" : 88.401809
               },
               "steps" : [
                  {
                     "distance" : {
                        "text" : "88 m",
                        "value" : 88
                     },
                     "duration" : {
                        "text" : "1 min",
                        "value" : 32
                     },
                     "end_location" : {
                        "lat" : 22.6213133,
                        "lng" : 88.40198959999999
                     },
                     "html_instructions" : "Head \u003cb\u003enorth\u003c/b\u003e toward \u003cb\u003eDum Dum Rd\u003c/b\u003e",
                     "polyline" : {
                        "points" : "kaaiCi~pzOyCc@"
                     },
                     "start_location" : {
                        "lat" : 22.6205363,
                        "lng" : 88.401809
                     },
                     "travel_mode" : "DRIVING"
                  },
                  {
                     "distance" : {
                        "text" : "2.4 km",
                        "value" : 2388
                     },
                     "duration" : {
                        "text" : "11 mins",
                        "value" : 639
                     },
                     "end_location" : {
                        "lat" : 22.6187077,
                        "lng" : 88.3792818
                     },
                     "html_instructions" : "Turn \u003cb\u003eleft\u003c/b\u003e onto \u003cb\u003eDum Dum Rd\u003c/b\u003e\u003cdiv style=\"font-size:0.9em\"\u003ePass by State Bank of India - Dum Dum Road Branch (on the right)\u003c/div\u003e",
                     "maneuver" : "turn-left",
                     "polyline" : {
                        "points" : "efaiCm_qzOBh@Dj@@NDpBLhB?FL`AHnADl@LbBz@vGLtAPd@Fh@RjBD`@D^F^Hv@NhARxAFn@@NPnBJxAHxA?\\Lv@\\lBr@~@f@r@HNDL^zALt@Bn@Bp@?BI~AGhBAdA?TI\\CNAR?hAAvBA\\GdAWbC?JStDGdCAd@AVCpC@l@@X@NXtCHj@Dd@Dl@FbAHbDd@tD"
                     },
                     "start_location" : {
                        "lat" : 22.6213133,
                        "lng" : 88.40198959999999
                     },
                     "travel_mode" : "DRIVING"
                  },
                  {
                     "distance" : {
                        "text" : "1.5 km",
                        "value" : 1547
                     },
                     "duration" : {
                        "text" : "4 mins",
                        "value" : 232
                     },
                     "end_location" : {
                        "lat" : 22.6057699,
                        "lng" : 88.3742329
                     },
                     "html_instructions" : "Turn \u003cb\u003eleft\u003c/b\u003e onto \u003cb\u003eBarrackpore Trunk Rd\u003c/b\u003e/\u003cb\u003eBidhan Sarani Rd\u003c/b\u003e\u003cdiv style=\"font-size:0.9em\"\u003eContinue to follow Barrackpore Trunk Rd\u003c/div\u003e\u003cdiv style=\"font-size:0.9em\"\u003ePass by Om Enclave (on the left in 300&nbsp;m)\u003c/div\u003e",
                     "maneuver" : "turn-left",
                     "polyline" : {
                        "points" : "}u`iCoqlzOpGGj@Al@@Z@\\D\\FlATZH~Ah@lBr@h@Rh@P~D~AxDvAPHdDlAVFfHnCbBr@RHPHVJXJrCdAbA^?@pDpA~Al@rDtA"
                     },
                     "start_location" : {
                        "lat" : 22.6187077,
                        "lng" : 88.3792818
                     },
                     "travel_mode" : "DRIVING"
                  },
                  {
                     "distance" : {
                        "text" : "0.4 km",
                        "value" : 430
                     },
                     "duration" : {
                        "text" : "2 mins",
                        "value" : 102
                     },
                     "end_location" : {
                        "lat" : 22.6031512,
                        "lng" : 88.3773156
                     },
                     "html_instructions" : "Turn \u003cb\u003eleft\u003c/b\u003e onto \u003cb\u003eManmatha Nath Ganguly Rd\u003c/b\u003e",
                     "maneuver" : "turn-left",
                     "polyline" : {
                        "points" : "ae~hC}qkzO@AbAkAtAgBBEX]xBoCh@q@DGdBaCPQn@q@"
                     },
                     "start_location" : {
                        "lat" : 22.6057699,
                        "lng" : 88.3742329
                     },
                     "travel_mode" : "DRIVING"
                  },
                  {
                     "distance" : {
                        "text" : "0.2 km",
                        "value" : 171
                     },
                     "duration" : {
                        "text" : "1 min",
                        "value" : 59
                     },
                     "end_location" : {
                        "lat" : 22.6018872,
                        "lng" : 88.3782428
                     },
                     "html_instructions" : "Continue onto \u003cb\u003eRaicharan Sadhukhan Rd\u003c/b\u003e",
                     "polyline" : {
                        "points" : "ut}hCgelzOFEDCv@[~AcAd@_@n@m@"
                     },
                     "start_location" : {
                        "lat" : 22.6031512,
                        "lng" : 88.3773156
                     },
                     "travel_mode" : "DRIVING"
                  },
                  {
                     "distance" : {
                        "text" : "0.2 km",
                        "value" : 153
                     },
                     "duration" : {
                        "text" : "1 min",
                        "value" : 31
                     },
                     "end_location" : {
                        "lat" : 22.6008183,
                        "lng" : 88.37897359999999
                     },
                     "html_instructions" : "Continue straight to stay on \u003cb\u003eRaicharan Sadhukhan Rd\u003c/b\u003e",
                     "maneuver" : "straight",
                     "polyline" : {
                        "points" : "yl}hC_klzOXc@LYN[JYtBWZE"
                     },
                     "start_location" : {
                        "lat" : 22.6018872,
                        "lng" : 88.3782428
                     },
                     "travel_mode" : "DRIVING"
                  },
                  {
                     "distance" : {
                        "text" : "2.1 km",
                        "value" : 2091
                     },
                     "duration" : {
                        "text" : "6 mins",
                        "value" : 383
                     },
                     "end_location" : {
                        "lat" : 22.5913339,
                        "lng" : 88.3956192
                     },
                     "html_instructions" : "Turn \u003cb\u003eleft\u003c/b\u003e onto \u003cb\u003eCanal E Rd\u003c/b\u003e/\u003cb\u003eCanal Circular Rd\u003c/b\u003e\u003cdiv style=\"font-size:0.9em\"\u003eContinue to follow Canal Circular Rd\u003c/div\u003e",
                     "maneuver" : "turn-left",
                     "polyline" : {
                        "points" : "cf}hCqolzOx@oLDm@^kFLqBLqARqALg@Vy@X{@BGj@gA\\w@Tg@n@oAz@gBRa@bBkDdBuD|AgD\\u@JSPYHMNYN[f@gAJQHQFKFGNSJQR]\\m@Ta@LSHKX]FGb@g@~AoBNQ`DoCrBqAjCwA|@i@j@[p@g@`@[JOFOF[DSDM@CJQHEFE"
                     },
                     "start_location" : {
                        "lat" : 22.6008183,
                        "lng" : 88.37897359999999
                     },
                     "travel_mode" : "DRIVING"
                  },
                  {
                     "distance" : {
                        "text" : "23 m",
                        "value" : 23
                     },
                     "duration" : {
                        "text" : "1 min",
                        "value" : 5
                     },
                     "end_location" : {
                        "lat" : 22.5914525,
                        "lng" : 88.3958002
                     },
                     "html_instructions" : "Turn \u003cb\u003eleft\u003c/b\u003e toward \u003cb\u003e1st Ave\u003c/b\u003e",
                     "maneuver" : "turn-left",
                     "polyline" : {
                        "points" : "yj{hCswozOCCACQ["
                     },
                     "start_location" : {
                        "lat" : 22.5913339,
                        "lng" : 88.3956192
                     },
                     "travel_mode" : "DRIVING"
                  },
                  {
                     "distance" : {
                        "text" : "0.2 km",
                        "value" : 213
                     },
                     "duration" : {
                        "text" : "1 min",
                        "value" : 39
                     },
                     "end_location" : {
                        "lat" : 22.589785,
                        "lng" : 88.39679129999999
                     },
                     "html_instructions" : "Turn \u003cb\u003eright\u003c/b\u003e toward \u003cb\u003e1st Ave\u003c/b\u003e",
                     "maneuver" : "turn-right",
                     "polyline" : {
                        "points" : "qk{hCwxozODGf@_@n@c@ZQd@WrBw@\\OZG"
                     },
                     "start_location" : {
                        "lat" : 22.5914525,
                        "lng" : 88.3958002
                     },
                     "travel_mode" : "DRIVING"
                  },
                  {
                     "distance" : {
                        "text" : "0.3 km",
                        "value" : 336
                     },
                     "duration" : {
                        "text" : "1 min",
                        "value" : 61
                     },
                     "end_location" : {
                        "lat" : 22.5914431,
                        "lng" : 88.39952950000001
                     },
                     "html_instructions" : "Turn \u003cb\u003eleft\u003c/b\u003e onto \u003cb\u003e1st Ave\u003c/b\u003e",
                     "maneuver" : "turn-left",
                     "polyline" : {
                        "points" : "ca{hC}~ozOIKgA{B}AaDkBoDa@q@MW"
                     },
                     "start_location" : {
                        "lat" : 22.589785,
                        "lng" : 88.39679129999999
                     },
                     "travel_mode" : "DRIVING"
                  },
                  {
                     "distance" : {
                        "text" : "1.3 km",
                        "value" : 1346
                     },
                     "duration" : {
                        "text" : "4 mins",
                        "value" : 253
                     },
                     "end_location" : {
                        "lat" : 22.5817671,
                        "lng" : 88.4063745
                     },
                     "html_instructions" : "At the roundabout, take the \u003cb\u003e3rd\u003c/b\u003e exit onto \u003cb\u003e1st Cross Rd\u003c/b\u003e\u003cdiv style=\"font-size:0.9em\"\u003eGo through 2 roundabouts\u003c/div\u003e\u003cdiv style=\"font-size:0.9em\"\u003ePass by Bidhannagar College (on the left in 1.0&nbsp;km)\u003c/div\u003e",
                     "maneuver" : "roundabout-left",
                     "polyline" : {
                        "points" : "ok{hCappzOA?A?A@A?A?AAA?A?A?AAA?AAAAAAAA?AAA?AAA?A?A?A?A?A?A?A?A?A@A?A@A?A@A@A?A@A@A@A@A@A@?@ABA@?@?@?@?B?B??@@?@?@?hAo@VSzA_AlDsBhA_AlF}CBAPKhAm@dCsA?AAC?A?A?C?A@A?A?C@A?A@A@A@C@?@A@A@A@?@A@?B?@A@?@?B?@@@?@?@@@?@@@@rCeBfDqB?C?A?A?A?A?A@A?A?C@A@A?A@A@A@A@A@?@A@??A@?@?@A@?@?B?@?@@@?@?@@@??@vBkAn@]hC_B\\WNKhFwCNK"
                     },
                     "start_location" : {
                        "lat" : 22.5914431,
                        "lng" : 88.39952950000001
                     },
                     "travel_mode" : "DRIVING"
                  },
                  {
                     "distance" : {
                        "text" : "1.0 km",
                        "value" : 999
                     },
                     "duration" : {
                        "text" : "2 mins",
                        "value" : 146
                     },
                     "end_location" : {
                        "lat" : 22.5767641,
                        "lng" : 88.41347809999999
                     },
                     "html_instructions" : "At the roundabout, take the \u003cb\u003e2nd\u003c/b\u003e exit and stay on \u003cb\u003e1st Cross Rd\u003c/b\u003e\u003cdiv style=\"font-size:0.9em\"\u003eGo through 1 roundabout\u003c/div\u003e\u003cdiv style=\"font-size:0.9em\"\u003ePass by Bidhan Abasan (on the right)\u003c/div\u003e",
                     "maneuver" : "roundabout-left",
                     "polyline" : {
                        "points" : "aoyhCyzqzO?E?A?A?C?A?A@C?A@A?A@A@A@A@A@A@A@A@A@?BA@?B?B?@?@?B?@?@@@@B?@@@@@@bDqBlBmAzA_AvA_At@_@n@_@PKt@c@f@_@VS`AyAj@cBAA?A?AA??A?A?A?A?A@??A?A@A?A@??A@?TuB`@eDn@aFNmANaB"
                     },
                     "start_location" : {
                        "lat" : 22.5817671,
                        "lng" : 88.4063745
                     },
                     "travel_mode" : "DRIVING"
                  },
                  {
                     "distance" : {
                        "text" : "0.5 km",
                        "value" : 494
                     },
                     "duration" : {
                        "text" : "1 min",
                        "value" : 87
                     },
                     "end_location" : {
                        "lat" : 22.5756587,
                        "lng" : 88.41801579999999
                     },
                     "html_instructions" : "At the roundabout, take the \u003cb\u003e2nd\u003c/b\u003e exit and stay on \u003cb\u003e1st Cross Rd\u003c/b\u003e\u003cdiv style=\"font-size:0.9em\"\u003ePass by Susrut Eye Foundation &amp; Research Centre (on the right in 450&nbsp;m)\u003c/div\u003e",
                     "maneuver" : "roundabout-left",
                     "polyline" : {
                        "points" : "woxhCggszOCAAAAAAAAC?AAA?CAA?C?A?A?C?A?C?A@A?C@A?C@A@A@A@A@ABA@?@A@?BA@?B?XkBHeAf@gD@GPcAPkATyANaAL_AJk@VkA"
                     },
                     "start_location" : {
                        "lat" : 22.5767641,
                        "lng" : 88.41347809999999
                     },
                     "travel_mode" : "DRIVING"
                  },
                  {
                     "distance" : {
                        "text" : "0.3 km",
                        "value" : 256
                     },
                     "duration" : {
                        "text" : "1 min",
                        "value" : 49
                     },
                     "end_location" : {
                        "lat" : 22.5737223,
                        "lng" : 88.4173823
                     },
                     "html_instructions" : "At the roundabout, take the \u003cb\u003e3rd\u003c/b\u003e exit\u003cdiv style=\"font-size:0.9em\"\u003eDestination will be on the left\u003c/div\u003e",
                     "maneuver" : "roundabout-left",
                     "polyline" : {
                        "points" : "{hxhCsctzOAAA??AAA?A?AA??A?A?A?A?A?A@A?A?A@??A@A@A@?@A@??A@?B?@?@?@?@@@?@@@@@@?@@??@?@@??@?@?@?@jBj@zBt@ZHtA^HB"
                     },
                     "start_location" : {
                        "lat" : 22.5756587,
                        "lng" : 88.41801579999999
                     },
                     "travel_mode" : "DRIVING"
                  }
               ],
               "traffic_speed_entry" : [],
               "via_waypoint" : []
            }
         ],
         "overview_polyline" : {
            "points" : "kaaiCi~pzOyCc@Bh@Fz@RzELhAN|BLbBz@vGLtAPd@ZtC\\xCb@bDH~@\\hEHxA?\\j@dDzArBN\\^zALt@F`BIbBInD?TI\\Eb@A`EIbBWnCStDGdCC|@A~DBh@n@tGPfFd@tDpGGxA?x@FjB\\zBr@`KxDjE`B|DtAjKbEd@RhG|BdMvEbJcLvBsCv@w@|@_@dCcBn@m@Xc@\\u@JYtBWZEx@oLd@yGZcE`@yBp@uBbBoDbFeKlFgLz@}AdAwBv@kAjAoBdD}DpDaD~FiDhBeArAcAR_@Lo@FQTWFECCS_@l@g@jAu@d@WrBw@x@WqAgC}AaDkBoDo@iAC?G?MEGK?MDMJMNCF@B?jAo@rBsAlDsBhA_ApF_DzAy@dCuAAE@IHQPIPBBBzHwE?IDOJKNCF@B@vBiAxD}Bl@c@xFcD?G?IBINOJAJ?HBBBdDoBhEmClC_B`Ak@|AcAVS`AyAh@eB?AAEBKBCfB}N^oDECEICK@UNQHCD?XkBHeAh@oDb@oC~@gGTmAA?ACAG@IHKJAD@HN?@jBl@vC~@~Ab@"
         },
         "summary" : "1st Cross Rd",
         "warnings" : [],
         "waypoint_order" : []
      }
   ],
   "status" : "OK"
}
