{
   "geocoded_waypoints" : [
      {
         "geocoder_status" : "ZERO_RESULTS"
      },
      {
         "geocoder_status" : "OK",
         "partial_match" : true,
         "place_id" : "ChIJq6GRz3jC5zsRO7rJvLTEhUY",
         "types" : [ "establishment", "point_of_interest", "premise" ]
      }
   ],
   "routes" : [],
   "status" : "NOT_FOUND"
}
