{
   "geocoded_waypoints" : [
      {
         "geocoder_status" : "OK",
         "place_id" : "ChIJgdshh_2d-DkRYEXv1hjTRRU",
         "types" : [ "political", "sublocality", "sublocality_level_3" ]
      },
      {
         "geocoder_status" : "OK",
         "partial_match" : true,
         "place_id" : "ChIJxyFZwdl1AjoR3f7Gc7jrJws",
         "types" : [ "establishment", "point_of_interest", "school" ]
      }
   ],
   "routes" : [
      {
         "bounds" : {
            "northeast" : {
               "lat" : 22.6214358,
               "lng" : 88.41039619999999
            },
            "southwest" : {
               "lat" : 22.5772942,
               "lng" : 88.39532369999999
            }
         },
         "copyrights" : "Map data ©2018 Google",
         "legs" : [
            {
               "distance" : {
                  "text" : "6.9 km",
                  "value" : 6893
               },
               "duration" : {
                  "text" : "24 mins",
                  "value" : 1426
               },
               "duration_in_traffic" : {
                  "text" : "24 mins",
                  "value" : 1437
               },
               "end_address" : "Block - FA, FA Block, Sector III, Salt Lake City, Kolkata, West Bengal 700097, India",
               "end_location" : {
                  "lat" : 22.5775166,
                  "lng" : 88.4053481
               },
               "start_address" : "Space Town, Bahiragath Colony, South Dum Dum, Kolkata, West Bengal 700074, India",
               "start_location" : {
                  "lat" : 22.6205363,
                  "lng" : 88.401809
               },
               "steps" : [
                  {
                     "distance" : {
                        "text" : "88 m",
                        "value" : 88
                     },
                     "duration" : {
                        "text" : "1 min",
                        "value" : 32
                     },
                     "end_location" : {
                        "lat" : 22.6213133,
                        "lng" : 88.40198959999999
                     },
                     "html_instructions" : "Head \u003cb\u003enorth\u003c/b\u003e toward \u003cb\u003eDum Dum Rd\u003c/b\u003e",
                     "polyline" : {
                        "points" : "kaaiCi~pzOyCc@"
                     },
                     "start_location" : {
                        "lat" : 22.6205363,
                        "lng" : 88.401809
                     },
                     "travel_mode" : "DRIVING"
                  },
                  {
                     "distance" : {
                        "text" : "73 m",
                        "value" : 73
                     },
                     "duration" : {
                        "text" : "1 min",
                        "value" : 38
                     },
                     "end_location" : {
                        "lat" : 22.6214358,
                        "lng" : 88.40268589999999
                     },
                     "html_instructions" : "Turn \u003cb\u003eright\u003c/b\u003e onto \u003cb\u003eDum Dum Rd\u003c/b\u003e\u003cdiv style=\"font-size:0.9em\"\u003ePass by Hanuman Temple (on the right)\u003c/div\u003e",
                     "maneuver" : "turn-right",
                     "polyline" : {
                        "points" : "efaiCm_qzOAMEe@E[K{@"
                     },
                     "start_location" : {
                        "lat" : 22.6213133,
                        "lng" : 88.40198959999999
                     },
                     "travel_mode" : "DRIVING"
                  },
                  {
                     "distance" : {
                        "text" : "1.1 km",
                        "value" : 1122
                     },
                     "duration" : {
                        "text" : "4 mins",
                        "value" : 238
                     },
                     "end_location" : {
                        "lat" : 22.6129216,
                        "lng" : 88.4076561
                     },
                     "html_instructions" : "Turn \u003cb\u003eright\u003c/b\u003e onto \u003cb\u003eBagjola Khal Rd\u003c/b\u003e",
                     "maneuver" : "turn-right",
                     "polyline" : {
                        "points" : "_gaiCycqzOVCLENGNIPONKLGNCdFs@XEn@M`BWTGXGRINEb@WpBkAHEf@[PITOJEHCJENCJCLAJCRCbBKl@Gr@Gt@IVERGJELMFGNQTYb@s@fA_BZe@t@cA\\e@dAwAlAcB"
                     },
                     "start_location" : {
                        "lat" : 22.6214358,
                        "lng" : 88.40268589999999
                     },
                     "travel_mode" : "DRIVING"
                  },
                  {
                     "distance" : {
                        "text" : "0.2 km",
                        "value" : 244
                     },
                     "duration" : {
                        "text" : "1 min",
                        "value" : 81
                     },
                     "end_location" : {
                        "lat" : 22.6107691,
                        "lng" : 88.4073088
                     },
                     "html_instructions" : "Turn \u003cb\u003eright\u003c/b\u003e toward \u003cb\u003eJessore Rd\u003c/b\u003e",
                     "maneuver" : "turn-right",
                     "polyline" : {
                        "points" : "wq_iC{brzOZNTHj@HJ@^BN@^@H?H@P@PDx@HX@p@BP@H?D?BANA"
                     },
                     "start_location" : {
                        "lat" : 22.6129216,
                        "lng" : 88.4076561
                     },
                     "travel_mode" : "DRIVING"
                  },
                  {
                     "distance" : {
                        "text" : "0.2 km",
                        "value" : 191
                     },
                     "duration" : {
                        "text" : "1 min",
                        "value" : 56
                     },
                     "end_location" : {
                        "lat" : 22.6111687,
                        "lng" : 88.4091222
                     },
                     "html_instructions" : "Turn \u003cb\u003eleft\u003c/b\u003e onto \u003cb\u003eJessore Rd\u003c/b\u003e\u003cdiv style=\"font-size:0.9em\"\u003eDrive along Clubtown Greens (on the right for 100&nbsp;m)\u003c/div\u003e",
                     "maneuver" : "turn-left",
                     "polyline" : {
                        "points" : "id_iCu`rzO]{CUcB[iB"
                     },
                     "start_location" : {
                        "lat" : 22.6107691,
                        "lng" : 88.4073088
                     },
                     "travel_mode" : "DRIVING"
                  },
                  {
                     "distance" : {
                        "text" : "0.1 km",
                        "value" : 100
                     },
                     "duration" : {
                        "text" : "1 min",
                        "value" : 44
                     },
                     "end_location" : {
                        "lat" : 22.6105544,
                        "lng" : 88.409369
                     },
                     "html_instructions" : "Turn \u003cb\u003eright\u003c/b\u003e after Guru Dham (on the right)",
                     "maneuver" : "turn-right",
                     "polyline" : {
                        "points" : "yf_iC_lrzOMk@TA`@AR@V@d@E"
                     },
                     "start_location" : {
                        "lat" : 22.6111687,
                        "lng" : 88.4091222
                     },
                     "travel_mode" : "DRIVING"
                  },
                  {
                     "distance" : {
                        "text" : "0.6 km",
                        "value" : 625
                     },
                     "duration" : {
                        "text" : "3 mins",
                        "value" : 175
                     },
                     "end_location" : {
                        "lat" : 22.6052212,
                        "lng" : 88.40990789999999
                     },
                     "html_instructions" : "Slight \u003cb\u003eright\u003c/b\u003e",
                     "maneuver" : "turn-slight-right",
                     "polyline" : {
                        "points" : "}b_iCqmrzOPHL@hF`@~AH@?d@Fd@AL?pA[rA[|AWtA]vA_@dAYzAc@BAJb@"
                     },
                     "start_location" : {
                        "lat" : 22.6105544,
                        "lng" : 88.409369
                     },
                     "travel_mode" : "DRIVING"
                  },
                  {
                     "distance" : {
                        "text" : "0.3 km",
                        "value" : 285
                     },
                     "duration" : {
                        "text" : "1 min",
                        "value" : 74
                     },
                     "end_location" : {
                        "lat" : 22.6027012,
                        "lng" : 88.41039619999999
                     },
                     "html_instructions" : "Turn \u003cb\u003eleft\u003c/b\u003e",
                     "maneuver" : "turn-left",
                     "polyline" : {
                        "points" : "sa~hC}przOvAUFAdAIL?bAKbAKxAQzASDA"
                     },
                     "start_location" : {
                        "lat" : 22.6052212,
                        "lng" : 88.40990789999999
                     },
                     "travel_mode" : "DRIVING"
                  },
                  {
                     "distance" : {
                        "text" : "0.5 km",
                        "value" : 477
                     },
                     "duration" : {
                        "text" : "2 mins",
                        "value" : 106
                     },
                     "end_location" : {
                        "lat" : 22.6004412,
                        "lng" : 88.40647760000002
                     },
                     "html_instructions" : "Turn \u003cb\u003eright\u003c/b\u003e toward \u003cb\u003eLake Town Rd\u003c/b\u003e",
                     "maneuver" : "turn-right",
                     "polyline" : {
                        "points" : "{q}hC_trzO^j@LTFLDLDPH\\Jd@FTFTJTN\\JNl@x@HLbAhBdB~DpAxB"
                     },
                     "start_location" : {
                        "lat" : 22.6027012,
                        "lng" : 88.41039619999999
                     },
                     "travel_mode" : "DRIVING"
                  },
                  {
                     "distance" : {
                        "text" : "60 m",
                        "value" : 60
                     },
                     "duration" : {
                        "text" : "1 min",
                        "value" : 39
                     },
                     "end_location" : {
                        "lat" : 22.6000977,
                        "lng" : 88.4068982
                     },
                     "html_instructions" : "Turn \u003cb\u003eleft\u003c/b\u003e onto \u003cb\u003eLake Town Rd\u003c/b\u003e",
                     "maneuver" : "turn-left",
                     "polyline" : {
                        "points" : "wc}hCo{qzOXMJe@\\_@"
                     },
                     "start_location" : {
                        "lat" : 22.6004412,
                        "lng" : 88.40647760000002
                     },
                     "travel_mode" : "DRIVING"
                  },
                  {
                     "distance" : {
                        "text" : "1.0 km",
                        "value" : 959
                     },
                     "duration" : {
                        "text" : "2 mins",
                        "value" : 113
                     },
                     "end_location" : {
                        "lat" : 22.5952451,
                        "lng" : 88.39932159999999
                     },
                     "html_instructions" : "Turn \u003cb\u003eright\u003c/b\u003e onto \u003cb\u003eKazi Nazrul Islam Ave\u003c/b\u003e/\u003cb\u003eThakurnagar - Panchpota Rd\u003c/b\u003e/\u003cb\u003eVIP Rd\u003c/b\u003e\u003cdiv style=\"font-size:0.9em\"\u003eContinue to follow Thakurnagar - Panchpota Rd/VIP Rd\u003c/div\u003e",
                     "maneuver" : "turn-right",
                     "polyline" : {
                        "points" : "sa}hCc~qzONEDAF@JB@@~@nBpAtBvChFNZVf@|EhJbB`DHNf@hAFPDFr@~AP\\bCxE"
                     },
                     "start_location" : {
                        "lat" : 22.6000977,
                        "lng" : 88.4068982
                     },
                     "travel_mode" : "DRIVING"
                  },
                  {
                     "distance" : {
                        "text" : "2.0 km",
                        "value" : 1959
                     },
                     "duration" : {
                        "text" : "4 mins",
                        "value" : 218
                     },
                     "end_location" : {
                        "lat" : 22.5807263,
                        "lng" : 88.40117479999999
                     },
                     "html_instructions" : "Turn \u003cb\u003eleft\u003c/b\u003e onto \u003cb\u003eEastern Metropolitan Bypass\u003c/b\u003e/\u003cb\u003eEM Bypass - Kazi Nazrul Islam Ave Flyover\u003c/b\u003e/\u003cb\u003eThakurnagar - Panchpota Rd\u003c/b\u003e/\u003cb\u003eUltadanga Flyover\u003c/b\u003e\u003cdiv style=\"font-size:0.9em\"\u003eContinue to follow Eastern Metropolitan Bypass/Thakurnagar - Panchpota Rd\u003c/div\u003e",
                     "maneuver" : "turn-left",
                     "polyline" : {
                        "points" : "ic|hCwnpzONBFBD@D@HHFDFHRd@Zh@z@~A`A|A|@xAl@hAnBfDh@hAJTHLHJHHJHLFXFN@N?VE\\M\\Qd@]\\WXQb@[^U^Sf@WhAa@d@QNEjAc@dA]bBm@jAe@l@WhCeAhCgA~@e@v@c@l@c@XQzAk@VKrBq@tAa@XMb@Mz@Yh@QdBq@hAa@fAc@dAc@hAe@p@UZOPIZI"
                     },
                     "start_location" : {
                        "lat" : 22.5952451,
                        "lng" : 88.39932159999999
                     },
                     "travel_mode" : "DRIVING"
                  },
                  {
                     "distance" : {
                        "text" : "0.2 km",
                        "value" : 150
                     },
                     "duration" : {
                        "text" : "1 min",
                        "value" : 29
                     },
                     "end_location" : {
                        "lat" : 22.5807507,
                        "lng" : 88.4026164
                     },
                     "html_instructions" : "Turn \u003cb\u003eleft\u003c/b\u003e at \u003cb\u003eBengal Chemical Crossing\u003c/b\u003e onto \u003cb\u003eDuttabad Rd\u003c/b\u003e",
                     "maneuver" : "turn-left",
                     "polyline" : {
                        "points" : "qhyhCizpzODQ@I@K?KAa@?C?O@O@K?K?A?IAIAMCk@CYCe@"
                     },
                     "start_location" : {
                        "lat" : 22.5807263,
                        "lng" : 88.40117479999999
                     },
                     "travel_mode" : "DRIVING"
                  },
                  {
                     "distance" : {
                        "text" : "0.4 km",
                        "value" : 363
                     },
                     "duration" : {
                        "text" : "2 mins",
                        "value" : 109
                     },
                     "end_location" : {
                        "lat" : 22.5785059,
                        "lng" : 88.40470420000001
                     },
                     "html_instructions" : "Turn \u003cb\u003eright\u003c/b\u003e",
                     "maneuver" : "turn-right",
                     "polyline" : {
                        "points" : "uhyhCkcqzO~ASh@MPM^]BE@C?EA]?E@C@CrA_AFEDCDADADCRODCJKZ]BCBABC@?BAFCHCFCDCBEBEBE@I@G@G?KAS?O@C@I"
                     },
                     "start_location" : {
                        "lat" : 22.5807507,
                        "lng" : 88.4026164
                     },
                     "travel_mode" : "DRIVING"
                  },
                  {
                     "distance" : {
                        "text" : "0.2 km",
                        "value" : 159
                     },
                     "duration" : {
                        "text" : "1 min",
                        "value" : 55
                     },
                     "end_location" : {
                        "lat" : 22.5773334,
                        "lng" : 88.4055647
                     },
                     "html_instructions" : "Turn \u003cb\u003eright\u003c/b\u003e",
                     "maneuver" : "turn-right",
                     "polyline" : {
                        "points" : "uzxhCkpqzOHIVO\\QPMHQ?AnAw@x@c@DA"
                     },
                     "start_location" : {
                        "lat" : 22.5785059,
                        "lng" : 88.40470420000001
                     },
                     "travel_mode" : "DRIVING"
                  },
                  {
                     "distance" : {
                        "text" : "38 m",
                        "value" : 38
                     },
                     "duration" : {
                        "text" : "1 min",
                        "value" : 19
                     },
                     "end_location" : {
                        "lat" : 22.5775166,
                        "lng" : 88.4053481
                     },
                     "html_instructions" : "Make a \u003cb\u003eU-turn\u003c/b\u003e\u003cdiv style=\"font-size:0.9em\"\u003eDestination will be on the left\u003c/div\u003e",
                     "maneuver" : "uturn-right",
                     "polyline" : {
                        "points" : "isxhCwuqzOFLm@Z"
                     },
                     "start_location" : {
                        "lat" : 22.5773334,
                        "lng" : 88.4055647
                     },
                     "travel_mode" : "DRIVING"
                  }
               ],
               "traffic_speed_entry" : [],
               "via_waypoint" : []
            }
         ],
         "overview_polyline" : {
            "points" : "kaaiCi~pzOyCc@AMKaAK{@VC\\M`@Y\\StFw@hASvB_@l@QnDoBzA{@p@QpCUnD_@^MTUd@k@jBsCtDgFlAcBZN`ARzAHv@HrAJbADb@Cs@_Gi@uCv@Cj@Bd@EPHvFb@`BHd@Fd@A~A[rA[|AWlD}@`D}@BAJb@~AWrAIfCWtDe@DA^j@Tb@J^d@nBZr@x@hAlAvBdB~DpAxBXMJe@\\_@NEL?LD~@nBpAtBfDdGbJbQhBbEtCvFVF\\RrBxD~BvD|CpFt@~ARXTRf@N^@t@SzByAbAq@fAk@jE}AhDkAxB}@rGmCvBiAfAu@rBw@hEsA|@[tG_ChGcCl@YZIDQBUAm@Bo@Aa@MyBhCa@p@k@DIAc@@ItAcAXMj@c@f@g@VILGFKH_@?s@JSt@a@PMHQnAy@~@e@FLm@Z"
         },
         "summary" : "Thakurnagar - Panchpota Rd",
         "warnings" : [],
         "waypoint_order" : []
      },
      {
         "bounds" : {
            "northeast" : {
               "lat" : 22.6213133,
               "lng" : 88.4055647
            },
            "southwest" : {
               "lat" : 22.5772942,
               "lng" : 88.37736520000001
            }
         },
         "copyrights" : "Map data ©2018 Google",
         "legs" : [
            {
               "distance" : {
                  "text" : "8.4 km",
                  "value" : 8445
               },
               "duration" : {
                  "text" : "33 mins",
                  "value" : 1989
               },
               "duration_in_traffic" : {
                  "text" : "37 mins",
                  "value" : 2223
               },
               "end_address" : "Block - FA, FA Block, Sector III, Salt Lake City, Kolkata, West Bengal 700097, India",
               "end_location" : {
                  "lat" : 22.5775166,
                  "lng" : 88.4053481
               },
               "start_address" : "Space Town, Bahiragath Colony, South Dum Dum, Kolkata, West Bengal 700074, India",
               "start_location" : {
                  "lat" : 22.6205363,
                  "lng" : 88.401809
               },
               "steps" : [
                  {
                     "distance" : {
                        "text" : "88 m",
                        "value" : 88
                     },
                     "duration" : {
                        "text" : "1 min",
                        "value" : 32
                     },
                     "end_location" : {
                        "lat" : 22.6213133,
                        "lng" : 88.40198959999999
                     },
                     "html_instructions" : "Head \u003cb\u003enorth\u003c/b\u003e toward \u003cb\u003eDum Dum Rd\u003c/b\u003e",
                     "polyline" : {
                        "points" : "kaaiCi~pzOyCc@"
                     },
                     "start_location" : {
                        "lat" : 22.6205363,
                        "lng" : 88.401809
                     },
                     "travel_mode" : "DRIVING"
                  },
                  {
                     "distance" : {
                        "text" : "1.5 km",
                        "value" : 1486
                     },
                     "duration" : {
                        "text" : "8 mins",
                        "value" : 474
                     },
                     "end_location" : {
                        "lat" : 22.6188978,
                        "lng" : 88.3879939
                     },
                     "html_instructions" : "Turn \u003cb\u003eleft\u003c/b\u003e onto \u003cb\u003eDum Dum Rd\u003c/b\u003e\u003cdiv style=\"font-size:0.9em\"\u003ePass by State Bank of India - Dum Dum Road Branch (on the right)\u003c/div\u003e",
                     "maneuver" : "turn-left",
                     "polyline" : {
                        "points" : "efaiCm_qzOBh@Dj@@NDpBLhB?FL`AHnADl@LbBz@vGLtAPd@Fh@RjBD`@D^F^Hv@NhARxAFn@@NPnBJxAHxA?\\Lv@\\lBr@~@f@r@HNDL^zALt@Bn@Bp@?BI~AGhBAdA?TI\\CNAR"
                     },
                     "start_location" : {
                        "lat" : 22.6213133,
                        "lng" : 88.40198959999999
                     },
                     "travel_mode" : "DRIVING"
                  },
                  {
                     "distance" : {
                        "text" : "0.2 km",
                        "value" : 201
                     },
                     "duration" : {
                        "text" : "1 min",
                        "value" : 52
                     },
                     "end_location" : {
                        "lat" : 22.6171338,
                        "lng" : 88.38758639999999
                     },
                     "html_instructions" : "Turn \u003cb\u003eleft\u003c/b\u003e onto \u003cb\u003eNorthern Ave\u003c/b\u003e",
                     "maneuver" : "turn-left",
                     "polyline" : {
                        "points" : "cw`iC}gnzO~Ev@jAPNBR?P@"
                     },
                     "start_location" : {
                        "lat" : 22.6188978,
                        "lng" : 88.3879939
                     },
                     "travel_mode" : "DRIVING"
                  },
                  {
                     "distance" : {
                        "text" : "59 m",
                        "value" : 59
                     },
                     "duration" : {
                        "text" : "1 min",
                        "value" : 17
                     },
                     "end_location" : {
                        "lat" : 22.6167221,
                        "lng" : 88.38723019999999
                     },
                     "html_instructions" : "Continue onto \u003cb\u003eSreenath Mukherjee Ln\u003c/b\u003e",
                     "polyline" : {
                        "points" : "al`iCmenzO@@@?@@r@n@VR"
                     },
                     "start_location" : {
                        "lat" : 22.6171338,
                        "lng" : 88.38758639999999
                     },
                     "travel_mode" : "DRIVING"
                  },
                  {
                     "distance" : {
                        "text" : "0.6 km",
                        "value" : 602
                     },
                     "duration" : {
                        "text" : "2 mins",
                        "value" : 138
                     },
                     "end_location" : {
                        "lat" : 22.6117092,
                        "lng" : 88.3856715
                     },
                     "html_instructions" : "Turn \u003cb\u003eleft\u003c/b\u003e onto \u003cb\u003eNorthern Ave\u003c/b\u003e",
                     "maneuver" : "turn-left",
                     "polyline" : {
                        "points" : "oi`iCecnzO\\UB?VCVA`@C\\?r@?T@b@Fb@L`AVzAd@z@Tt@LN@F@JFHHHPFLBDNLTFB@JBNFZJLDr@RhAV~@VbAf@"
                     },
                     "start_location" : {
                        "lat" : 22.6167221,
                        "lng" : 88.38723019999999
                     },
                     "travel_mode" : "DRIVING"
                  },
                  {
                     "distance" : {
                        "text" : "39 m",
                        "value" : 39
                     },
                     "duration" : {
                        "text" : "1 min",
                        "value" : 17
                     },
                     "end_location" : {
                        "lat" : 22.6118461,
                        "lng" : 88.3853263
                     },
                     "html_instructions" : "Turn \u003cb\u003eright\u003c/b\u003e onto \u003cb\u003eRaja Manindra Rd\u003c/b\u003e",
                     "maneuver" : "turn-right",
                     "polyline" : {
                        "points" : "ej_iCmymzO[bA"
                     },
                     "start_location" : {
                        "lat" : 22.6117092,
                        "lng" : 88.3856715
                     },
                     "travel_mode" : "DRIVING"
                  },
                  {
                     "distance" : {
                        "text" : "0.5 km",
                        "value" : 540
                     },
                     "duration" : {
                        "text" : "2 mins",
                        "value" : 90
                     },
                     "end_location" : {
                        "lat" : 22.6074134,
                        "lng" : 88.3835117
                     },
                     "html_instructions" : "Turn \u003cb\u003eleft\u003c/b\u003e onto \u003cb\u003eTara Sankar Sarani\u003c/b\u003e",
                     "maneuver" : "turn-left",
                     "polyline" : {
                        "points" : "ak_iCiwmzOn@VfCz@D@x@PTFVJx@Zr@Tn@Pj@J|APdCRdAPRNf@\\JJFFDHBFBR"
                     },
                     "start_location" : {
                        "lat" : 22.6118461,
                        "lng" : 88.3853263
                     },
                     "travel_mode" : "DRIVING"
                  },
                  {
                     "distance" : {
                        "text" : "75 m",
                        "value" : 75
                     },
                     "duration" : {
                        "text" : "1 min",
                        "value" : 14
                     },
                     "end_location" : {
                        "lat" : 22.6067451,
                        "lng" : 88.38361929999999
                     },
                     "html_instructions" : "Turn \u003cb\u003eleft\u003c/b\u003e toward \u003cb\u003eManmatha Dutta Rd\u003c/b\u003e",
                     "maneuver" : "turn-left",
                     "polyline" : {
                        "points" : "io~hC}kmzOTA^CPCz@K"
                     },
                     "start_location" : {
                        "lat" : 22.6074134,
                        "lng" : 88.3835117
                     },
                     "travel_mode" : "DRIVING"
                  },
                  {
                     "distance" : {
                        "text" : "0.2 km",
                        "value" : 171
                     },
                     "duration" : {
                        "text" : "1 min",
                        "value" : 55
                     },
                     "end_location" : {
                        "lat" : 22.6052407,
                        "lng" : 88.3839758
                     },
                     "html_instructions" : "Continue onto \u003cb\u003eManmatha Dutta Rd\u003c/b\u003e",
                     "polyline" : {
                        "points" : "ek~hCslmzOx@QrFu@"
                     },
                     "start_location" : {
                        "lat" : 22.6067451,
                        "lng" : 88.38361929999999
                     },
                     "travel_mode" : "DRIVING"
                  },
                  {
                     "distance" : {
                        "text" : "0.7 km",
                        "value" : 727
                     },
                     "duration" : {
                        "text" : "3 mins",
                        "value" : 202
                     },
                     "end_location" : {
                        "lat" : 22.6030796,
                        "lng" : 88.37736520000001
                     },
                     "html_instructions" : "Turn \u003cb\u003eright\u003c/b\u003e onto \u003cb\u003eJessore Rd\u003c/b\u003e/\u003cb\u003eKhudiram Bose Sarani\u003c/b\u003e",
                     "maneuver" : "turn-right",
                     "polyline" : {
                        "points" : "wa~hC{nmzOJCBH@FDPDN`@pBt@pDF\\`@pBh@nCz@dDz@dDJd@FZNn@@Dt@vDPx@"
                     },
                     "start_location" : {
                        "lat" : 22.6052407,
                        "lng" : 88.3839758
                     },
                     "travel_mode" : "DRIVING"
                  },
                  {
                     "distance" : {
                        "text" : "0.2 km",
                        "value" : 161
                     },
                     "duration" : {
                        "text" : "1 min",
                        "value" : 40
                     },
                     "end_location" : {
                        "lat" : 22.6018872,
                        "lng" : 88.3782428
                     },
                     "html_instructions" : "Turn \u003cb\u003eleft\u003c/b\u003e onto \u003cb\u003eRaicharan Sadhukhan Rd\u003c/b\u003e",
                     "maneuver" : "turn-left",
                     "polyline" : {
                        "points" : "gt}hCqelzOv@[~AcAd@_@n@m@"
                     },
                     "start_location" : {
                        "lat" : 22.6030796,
                        "lng" : 88.37736520000001
                     },
                     "travel_mode" : "DRIVING"
                  },
                  {
                     "distance" : {
                        "text" : "0.2 km",
                        "value" : 153
                     },
                     "duration" : {
                        "text" : "1 min",
                        "value" : 31
                     },
                     "end_location" : {
                        "lat" : 22.6008183,
                        "lng" : 88.37897359999999
                     },
                     "html_instructions" : "Continue straight to stay on \u003cb\u003eRaicharan Sadhukhan Rd\u003c/b\u003e",
                     "maneuver" : "straight",
                     "polyline" : {
                        "points" : "yl}hC_klzOXc@LYN[JYtBWZE"
                     },
                     "start_location" : {
                        "lat" : 22.6018872,
                        "lng" : 88.3782428
                     },
                     "travel_mode" : "DRIVING"
                  },
                  {
                     "distance" : {
                        "text" : "2.1 km",
                        "value" : 2091
                     },
                     "duration" : {
                        "text" : "6 mins",
                        "value" : 383
                     },
                     "end_location" : {
                        "lat" : 22.5913339,
                        "lng" : 88.3956192
                     },
                     "html_instructions" : "Turn \u003cb\u003eleft\u003c/b\u003e at shree lakshmi bhandar onto \u003cb\u003eCanal E Rd\u003c/b\u003e/\u003cb\u003eCanal Circular Rd\u003c/b\u003e\u003cdiv style=\"font-size:0.9em\"\u003eContinue to follow Canal Circular Rd\u003c/div\u003e\u003cdiv style=\"font-size:0.9em\"\u003ePass by Congress Party Office (on the left in 450&nbsp;m)\u003c/div\u003e",
                     "maneuver" : "turn-left",
                     "polyline" : {
                        "points" : "cf}hCqolzOx@oLDm@^kFLqBLqARqALg@Vy@X{@BGj@gA\\w@Tg@n@oAz@gBRa@bBkDdBuD|AgD\\u@JSPYHMNYN[f@gAJQHQFKFGNSJQR]\\m@Ta@LSHKX]FGb@g@~AoBNQ`DoCrBqAjCwA|@i@j@[p@g@`@[JOFOF[DSDM@CJQHEFE"
                     },
                     "start_location" : {
                        "lat" : 22.6008183,
                        "lng" : 88.37897359999999
                     },
                     "travel_mode" : "DRIVING"
                  },
                  {
                     "distance" : {
                        "text" : "23 m",
                        "value" : 23
                     },
                     "duration" : {
                        "text" : "1 min",
                        "value" : 5
                     },
                     "end_location" : {
                        "lat" : 22.5914525,
                        "lng" : 88.3958002
                     },
                     "html_instructions" : "Turn \u003cb\u003eleft\u003c/b\u003e",
                     "maneuver" : "turn-left",
                     "polyline" : {
                        "points" : "yj{hCswozOCCACQ["
                     },
                     "start_location" : {
                        "lat" : 22.5913339,
                        "lng" : 88.3956192
                     },
                     "travel_mode" : "DRIVING"
                  },
                  {
                     "distance" : {
                        "text" : "0.7 km",
                        "value" : 665
                     },
                     "duration" : {
                        "text" : "2 mins",
                        "value" : 114
                     },
                     "end_location" : {
                        "lat" : 22.5860814,
                        "lng" : 88.3985782
                     },
                     "html_instructions" : "Turn \u003cb\u003eright\u003c/b\u003e",
                     "maneuver" : "turn-right",
                     "polyline" : {
                        "points" : "qk{hCwxozODGf@_@n@c@ZQd@WrBw@\\OZGLClC}@tBw@j@Qx@[tB{@v@]v@]r@]`Ac@BA@AB?D?"
                     },
                     "start_location" : {
                        "lat" : 22.5914525,
                        "lng" : 88.3958002
                     },
                     "travel_mode" : "DRIVING"
                  },
                  {
                     "distance" : {
                        "text" : "0.7 km",
                        "value" : 654
                     },
                     "duration" : {
                        "text" : "2 mins",
                        "value" : 113
                     },
                     "end_location" : {
                        "lat" : 22.5807263,
                        "lng" : 88.40117479999999
                     },
                     "html_instructions" : "Merge onto \u003cb\u003eEastern Metropolitan Bypass\u003c/b\u003e/\u003cb\u003eThakurnagar - Panchpota Rd\u003c/b\u003e\u003cdiv style=\"font-size:0.9em\"\u003ePass by Pepperz Embypass (on the left)\u003c/div\u003e",
                     "maneuver" : "merge",
                     "polyline" : {
                        "points" : "_jzhCcjpzOl@c@XQzAk@VKrBq@tAa@XMb@Mz@Yh@QdBq@hAa@fAc@dAc@hAe@p@UZOPIZI"
                     },
                     "start_location" : {
                        "lat" : 22.5860814,
                        "lng" : 88.3985782
                     },
                     "travel_mode" : "DRIVING"
                  },
                  {
                     "distance" : {
                        "text" : "0.2 km",
                        "value" : 150
                     },
                     "duration" : {
                        "text" : "1 min",
                        "value" : 29
                     },
                     "end_location" : {
                        "lat" : 22.5807507,
                        "lng" : 88.4026164
                     },
                     "html_instructions" : "Turn \u003cb\u003eleft\u003c/b\u003e at \u003cb\u003eBengal Chemical Crossing\u003c/b\u003e onto \u003cb\u003eDuttabad Rd\u003c/b\u003e\u003cdiv style=\"font-size:0.9em\"\u003ePass by Priyanka Store (on the right)\u003c/div\u003e",
                     "maneuver" : "turn-left",
                     "polyline" : {
                        "points" : "qhyhCizpzODQ@I@K?KAa@?C?O@O@K?K?A?IAIAMCk@CYCe@"
                     },
                     "start_location" : {
                        "lat" : 22.5807263,
                        "lng" : 88.40117479999999
                     },
                     "travel_mode" : "DRIVING"
                  },
                  {
                     "distance" : {
                        "text" : "0.4 km",
                        "value" : 363
                     },
                     "duration" : {
                        "text" : "2 mins",
                        "value" : 109
                     },
                     "end_location" : {
                        "lat" : 22.5785059,
                        "lng" : 88.40470420000001
                     },
                     "html_instructions" : "Turn \u003cb\u003eright\u003c/b\u003e",
                     "maneuver" : "turn-right",
                     "polyline" : {
                        "points" : "uhyhCkcqzO~ASh@MPM^]BE@C?EA]?E@C@CrA_AFEDCDADADCRODCJKZ]BCBABC@?BAFCHCFCDCBEBEBE@I@G@G?KAS?O@C@I"
                     },
                     "start_location" : {
                        "lat" : 22.5807507,
                        "lng" : 88.4026164
                     },
                     "travel_mode" : "DRIVING"
                  },
                  {
                     "distance" : {
                        "text" : "0.2 km",
                        "value" : 159
                     },
                     "duration" : {
                        "text" : "1 min",
                        "value" : 55
                     },
                     "end_location" : {
                        "lat" : 22.5773334,
                        "lng" : 88.4055647
                     },
                     "html_instructions" : "Turn \u003cb\u003eright\u003c/b\u003e",
                     "maneuver" : "turn-right",
                     "polyline" : {
                        "points" : "uzxhCkpqzOHIVO\\QPMHQ?AnAw@x@c@DA"
                     },
                     "start_location" : {
                        "lat" : 22.5785059,
                        "lng" : 88.40470420000001
                     },
                     "travel_mode" : "DRIVING"
                  },
                  {
                     "distance" : {
                        "text" : "38 m",
                        "value" : 38
                     },
                     "duration" : {
                        "text" : "1 min",
                        "value" : 19
                     },
                     "end_location" : {
                        "lat" : 22.5775166,
                        "lng" : 88.4053481
                     },
                     "html_instructions" : "Make a \u003cb\u003eU-turn\u003c/b\u003e\u003cdiv style=\"font-size:0.9em\"\u003eDestination will be on the left\u003c/div\u003e",
                     "maneuver" : "uturn-right",
                     "polyline" : {
                        "points" : "isxhCwuqzOFLm@Z"
                     },
                     "start_location" : {
                        "lat" : 22.5773334,
                        "lng" : 88.4055647
                     },
                     "travel_mode" : "DRIVING"
                  }
               ],
               "traffic_speed_entry" : [],
               "via_waypoint