{
   "geocoded_waypoints" : [
      {
         "geocoder_status" : "OK",
         "place_id" : "ChIJz9gNrgv3UjoRvemf6KV0cGQ",
         "types" : [ "establishment", "point_of_interest" ]
      },
      {
         "geocoder_status" : "OK",
         "place_id" : "ChIJr1_DNw33UjoRF_jI8OzoCxU",
         "types" : [ "establishment", "point_of_interest", "university" ]
      }
   ],
   "routes" : [
      {
         "bounds" : {
            "northeast" : {
               "lat" : 12.8320833,
               "lng" : 80.05156070000001
            },
            "southwest" : {
               "lat" : 12.8262294,
               "lng" : 80.041342
            }
         },
         "copyrights" : "Map data ©2018 Google",
         "legs" : [
            {
               "distance" : {
                  "text" : "1.9 km",
                  "value" : 1915
               },
               "duration" : {
                  "text" : "7 mins",
                  "value" : 404
               },
               "duration_in_traffic" : {
                  "text" : "7 mins",
                  "value" : 403
               },
               "end_address" : "Potheri, Mahatma Gandhi Rd, SRM Nagar, Kattankulathur, Tamil Nadu 603203, India",
               "end_location" : {
                  "lat" : 12.8262294,
                  "lng" : 80.0413937
               },
               "start_address" : "Tower 5, Grand Southern Trunk Rd, Potheri, Guduvanchery, Tamil Nadu 603203, India",
               "start_location" : {
                  "lat" : 12.8263165,
                  "lng" : 80.05156070000001
               },
               "steps" : [
                  {
                     "distance" : {
                        "text" : "0.4 km",
                        "value" : 431
                     },
                     "duration" : {
                        "text" : "3 mins",
                        "value" : 151
                     },
                     "end_location" : {
                        "lat" : 12.8281792,
                        "lng" : 80.0486373
                     },
                     "html_instructions" : "Head \u003cb\u003ewest\u003c/b\u003e",
                     "polyline" : {
                        "points" : "ochmAgargNUbBuBhKs@l@eAx@MDG@WCMAA?UEYI"
                     },
                     "start_location" : {
                        "lat" : 12.8263165,
                        "lng" : 80.05156070000001
                     },
                     "travel_mode" : "DRIVING"
                  },
                  {
                     "distance" : {
                        "text" : "0.5 km",
                        "value" : 534
                     },
                     "duration" : {
                        "text" : "2 mins",
                        "value" : 142
                     },
                     "end_location" : {
                        "lat" : 12.8320833,
                        "lng" : 80.0475726
                     },
                     "html_instructions" : "At the roundabout, take the \u003cb\u003e1st\u003c/b\u003e exit",
                     "maneuver" : "roundabout-left",
                     "polyline" : {
                        "points" : "cohmA_oqgNABC@ABC@A@C@C?C@C?C?C?C?C?CAAACACAAACCAAACACAC?CAC?C?C?C?C@EyAEaBE_@IKEYEUAkCEs@b@y@b@GBk@f@g@`@W\\Wn@Sl@OT"
                     },
                     "start_location" : {
                        "lat" : 12.8281792,
                        "lng" : 80.0486373
                     },
                     "travel_mode" : "DRIVING"
                  },
                  {
                     "distance" : {
                        "text" : "0.2 km",
                        "value" : 243
                     },
                     "duration" : {
                        "text" : "1 min",
                        "value" : 44
                     },
                     "end_location" : {
                        "lat" : 12.8306316,
                        "lng" : 80.0458982
                     },
                     "html_instructions" : "Turn \u003cb\u003eleft\u003c/b\u003e onto \u003cb\u003eNH Service Road\u003c/b\u003e",
                     "maneuver" : "turn-left",
                     "polyline" : {
                        "points" : "ogimAihqgNr@v@nAvAdAnAdAxADFBDFD"
                     },
                     "start_location" : {
                        "lat" : 12.8320833,
                        "lng" : 80.0475726
                     },
                     "travel_mode" : "DRIVING"
                  },
                  {
                     "distance" : {
                        "text" : "7 m",
                        "value" : 7
                     },
                     "duration" : {
                        "text" : "1 min",
                        "value" : 7
                     },
                     "end_location" : {
                        "lat" : 12.8306837,
                        "lng" : 80.04585449999999
                     },
                     "html_instructions" : "Turn \u003cb\u003eright\u003c/b\u003e at HDFC ATM toward \u003cb\u003eNH32\u003c/b\u003e",
                     "maneuver" : "turn-right",
                     "polyline" : {
                        "points" : "m~hmA{}pgNIH"
                     },
                     "start_location" : {
                        "lat" : 12.8306316,
                        "lng" : 80.0458982
                     },
                     "travel_mode" : "DRIVING"
                  },
                  {
                     "distance" : {
                        "text" : "0.7 km",
                        "value" : 690
                     },
                     "duration" : {
                        "text" : "1 min",
                        "value" : 52
                     },
                     "end_location" : {
                        "lat" : 12.8263073,
                        "lng" : 80.041342
                     },
                     "html_instructions" : "Turn \u003cb\u003eleft\u003c/b\u003e onto \u003cb\u003eNH32\u003c/b\u003e\u003cdiv style=\"font-size:0.9em\"\u003ePass by Foodpark (on the left in 350&nbsp;m)\u003c/div\u003e",
                     "maneuver" : "turn-left",
                     "polyline" : {
                        "points" : "w~hmAq}pgNDDf@d@fBhB`A`A|BfC|DjEvCzC~B`C|@z@"
                     },
                     "start_location" : {
                        "lat" : 12.8306837,
                        "lng" : 80.04585449999999
                     },
                     "travel_mode" : "DRIVING"
                  },
                  {
                     "distance" : {
                        "text" : "10 m",
                        "value" : 10
                     },
                     "duration" : {
                        "text" : "1 min",
                        "value" : 8
                     },
                     "end_location" : {
                        "lat" : 12.8262294,
                        "lng" : 80.0413937
                     },
                     "html_instructions" : "Turn \u003cb\u003eleft\u003c/b\u003e",
                     "maneuver" : "turn-left",
                     "polyline" : {
                        "points" : "mchmAkapgNNI"
                     },
                     "start_location" : {
                        "lat" : 12.8263073,
                        "lng" : 80.041342
                     },
                     "travel_mode" : "DRIVING"
                  }
               ],
               "traffic_speed_entry" : [],
               "via_waypoint" : []
            }
         ],
         "overview_polyline" : {
            "points" : "ochmAgargNUbBuBhKyBfBUFe@EWEYIABEDEBOBO?MGIKEO?O@EyAEaBEk@Oo@GkCEs@b@aAf@sAhAW\\Wn@Sl@OTbCnCtCvDFDIHl@j@hDjDzHrIvG|G|@z@NI"
         },
         "summary" : "NH32",
         "warnings" : [],
         "waypoint_order" : []
      },
      {
         "bounds" : {
            "northeast" : {
               "lat" : 12.8320833,
               "lng" : 80.05156070000001
            },
            "southwest" : {
               "lat" : 12.8262294,
               "lng" : 80.0413937
            }
         },
         "copyrights" : "Map data ©2018 Google",
         "legs" : [
            {
               "distance" : {
                  "text" : "1.9 km",
                  "value" : 1900
               },
               "duration" : {
                  "text" : "7 mins",
                  "value" : 422
               },
               "duration_in_traffic" : {
                  "text" : "7 mins",
                  "value" : 429
               },
               "end_address" : "Potheri, Mahatma Gandhi Rd, SRM Nagar, Kattankulathur, Tamil Nadu 603203, India",
               "end_location" : {
                  "lat" : 12.8262294,
                  "lng" : 80.0413937
               },
               "start_address" : "Tower 5, Grand Southern Trunk Rd, Potheri, Guduvanchery, Tamil Nadu 603203, India",
               "start_location" : {
                  "lat" : 12.8263165,
                  "lng" : 80.05156070000001
               },
               "steps" : [
                  {
                     "distance" : {
                        "text" : "0.4 km",
                        "value" : 431
                     },
                     "duration" : {
                        "text" : "3 mins",
                        "value" : 151
                     },
                     "end_location" : {
                        "lat" : 12.8281792,
                        "lng" : 80.0486373
                     },
                     "html_instructions" : "Head \u003cb\u003ewest\u003c/b\u003e",
                     "polyline" : {
                        "points" : "ochmAgargNUbBuBhKs@l@eAx@MDG@WCMAA?UEYI"
                     },
                     "start_location" : {
                        "lat" : 12.8263165,
                        "lng" : 80.05156070000001
                     },
                     "travel_mode" : "DRIVING"
                  },
                  {
                     "distance" : {
                        "text" : "0.5 km",
                        "value" : 534
                     },
                     "duration" : {
                        "text" : "2 mins",
                        "value" : 142
                     },
                     "end_location" : {
                        "lat" : 12.8320833,
                        "lng" : 80.0475726
                     },
                     "html_instructions" : "At the roundabout, take the \u003cb\u003e1st\u003c/b\u003e exit",
                     "maneuver" : "roundabout-left",
                     "polyline" : {
                        "points" : "cohmA_oqgNABC@ABC@A@C@C?C@C?C?C?C?C?CAAACACAAACCAAACACAC?CAC?C?C?C?C@EyAEaBE_@IKEYEUAkCEs@b@y@b@GBk@f@g@`@W\\Wn@Sl@OT"
                     },
                     "start_location" : {
                        "lat" : 12.8281792,
                        "lng" : 80.0486373
                     },
                     "travel_mode" : "DRIVING"
                  },
                  {
                     "distance" : {
                        "text" : "0.9 km",
                        "value" : 935
                     },
                     "duration" : {
                        "text" : "2 mins",
                        "value" : 129
                     },
                     "end_location" : {
                        "lat" : 12.8262294,
                        "lng" : 80.0413937
                     },
                     "html_instructions" : "Turn \u003cb\u003eleft\u003c/b\u003e onto \u003cb\u003eNH Service Road\u003c/b\u003e\u003cdiv style=\"font-size:0.9em\"\u003ePass by HDFC ATM (on the left)\u003c/div\u003e",
                     "maneuver" : "turn-left",
                     "polyline" : {
                        "points" : "ogimAihqgNr@v@nAvAdAnAdAxADFBDFDTRJJf@h@pAtAz@n@d@j@XXz@`Al@r@v@|@h@l@VVVZZZf@f@jAlAn@n@r@r@b@b@bA~@"
                     },
                     "start_location" : {
                        "lat" : 12.8320833,
                        "lng" : 80.0475726
                     },
                     "travel_mode" : "DRIVING"
                  }
               ],
               "traffic_speed_entry" : [],
               "via_waypoint" : []
            }
         ],
         "overview_polyline" : {
            "points" : "ochmAgargNUbBuBhKyBfBUFe@EWEYIABEDEBOBO?MGIKEO?O@EyAEaBEk@Oo@GkCEs@b@aAf@sAhAW\\Wn@Sl@OTbCnCtCvDpAnApAtAz@n@~@dAjE`FrBvBrEtEbA~@"
         },
         "summary" : "NH Service Road",
         "warnings" : [],
         "waypoint_order" : []
      }
   ],
   "status" : "OK"
}
