{
   "geocoded_waypoints" : [
      {
         "geocoder_status" : "OK",
         "place_id" : "ChIJr4jIVsMpCTkRmYdRMsBiNUw",
         "types" : [ "locality", "political" ]
      },
      {
         "geocoder_status" : "OK",
         "place_id" : "ChIJLbZ-NFv9DDkRzk0gTkm3wlI",
         "types" : [ "locality", "political" ]
      }
   ],
   "routes" : [
      {
         "bounds" : {
            "northeast" : {
               "lat" : 30.3171881,
               "lng" : 78.03387959999999
            },
            "southwest" : {
               "lat" : 28.5982717,
               "lng" : 77.20884219999999
            }
         },
         "copyrights" : "Map data ©2018 Google",
         "legs" : [
            {
               "distance" : {
                  "text" : "248 km",
                  "value" : 247953
               },
               "duration" : {
                  "text" : "5 hours 30 mins",
                  "value" : 19803
               },
               "duration_in_traffic" : {
                  "text" : "5 hours 14 mins",
                  "value" : 18865
               },
               "end_address" : "New Delhi, Delhi, India",
               "end_location" : {
                  "lat" : 28.6139094,
                  "lng" : 77.2090206
               },
               "start_address" : "Dehradun, Uttarakhand, India",
               "start_location" : {
                  "lat" : 30.31649,
                  "lng" : 78.03219500000002
               },
               "steps" : [
                  {
                     "distance" : {
                        "text" : "0.2 km",
                        "value" : 188
                     },
                     "duration" : {
                        "text" : "1 min",
                        "value" : 49
                     },
                     "end_location" : {
                        "lat" : 30.3162438,
                        "lng" : 78.0341255
                     },
                     "html_instructions" : "Head \u003cb\u003eeast\u003c/b\u003e on \u003cb\u003eGandhi Rd\u003c/b\u003e toward \u003cb\u003ePaltan Bazar Rd\u003c/b\u003e",
                     "polyline" : {
                        "points" : "ae`xDgtg{MDsCPeBHi@JaAB["
                     },
                     "start_location" : {
                        "lat" : 30.31649,
                        "lng" : 78.03219500000002
                     },
                     "travel_mode" : "DRIVING"
                  },
                  {
                     "distance" : {
                        "text" : "0.5 km",
                        "value" : 532
                     },
                     "duration" : {
                        "text" : "2 mins",
                        "value" : 131
                     },
                     "end_location" : {
                        "lat" : 30.3173901,
                        "lng" : 78.02902329999999
                     },
                     "html_instructions" : "Make a \u003cb\u003eU-turn\u003c/b\u003e\u003cdiv style=\"font-size:0.9em\"\u003ePass by Punjab National Bank (on the left in 350&nbsp;m)\u003c/div\u003e",
                     "maneuver" : "uturn-right",
                     "polyline" : {
                        "points" : "oc`xDi`h{MNDGj@Il@ADC\\QvBIhCAR?V?D?H?BElC?PC|@CREZGXCRK\\GVMVKVKTQXk@t@_@b@GJ"
                     },
                     "start_location" : {
                        "lat" : 30.3162438,
                        "lng" : 78.0341255
                     },
                     "travel_mode" : "DRIVING"
                  },
                  {
                     "distance" : {
                        "text" : "4.5 km",
                        "value" : 4466
                     },
                     "duration" : {
                        "text" : "11 mins",
                        "value" : 641
                     },
                     "end_location" : {
                        "lat" : 30.2894666,
                        "lng" : 77.99726250000001
                     },
                     "html_instructions" : "At \u003cb\u003eSaharanpur Chowk\u003c/b\u003e, take the \u003cb\u003e1st\u003c/b\u003e exit onto \u003cb\u003eSaharanpur Rd\u003c/b\u003e\u003cdiv style=\"font-size:0.9em\"\u003ePass by Central Bank of India (on the right)\u003c/div\u003e",
                     "maneuver" : "roundabout-left",
                     "polyline" : {
                        "points" : "uj`xDk`g{M?@?@?@A@?@?@A@?@A??@?@A??@A?A??B?D@DBNDL@JH`@Lh@Rn@FVN^f@hAHNHTf@z@~@rALLz@|@\\X`@ZfAv@bAr@`BbABBfAl@zAv@`Aj@`@TLHJHJHZX^^`@`@~A~A`ExDr@p@NNj@h@`@^ZZPRRTLPbA`BV`@b@p@RX^p@b@fAnArBl@|@T`@r@hADFnAbBx@pABDFTDTBTBT?NAHCb@AXAN?PBN@P?@Fl@PhAFVHTJXJTLXXb@T`@X`@LR`AzApAdBLLn@t@d@f@ZXj@n@lB`BhBpAXNPLp@^PJRLLJJHPNPRLPj@f@`A|@z@r@ZZjBvALHHJJNHNvA|Bj@z@hAnAlAdA`@`@v@r@l@h@lArAn@dAb@dA^h@^^^VVR`@Z`@Zx@n@\\ZtApA~@|@nArANNLLd@^d@XdAh@b@PHBPJ\\Td@^h@h@b@p@LN|@pA\\v@n@tAPZJPz@vADFh@t@`@j@j@n@v@x@d@d@\\ZPJ~EvB"
                     },
                     "start_location" : {
                        "lat" : 30.3173901,
                        "lng" : 78.02902329999999
                     },
                     "travel_mode" : "DRIVING"
                  },
                  {
                     "distance" : {
                        "text" : "51.6 km",
                        "value" : 51592
                     },
                     "duration" : {
                        "text" : "1 hour 13 mins",
                        "value" : 4366
                     },
                     "end_location" : {
                        "lat" : 29.9758621,
                        "lng" : 77.6605903
                     },
                     "html_instructions" : "Slight \u003cb\u003eright\u003c/b\u003e onto \u003cb\u003eISBT Flyover\u003c/b\u003e/\u003cb\u003eSaharanpur Rd\u003c/b\u003e\u003cdiv style=\"font-size:0.9em\"\u003eContinue to follow Saharanpur Rd\u003c/div\u003e\u003cdiv style=\"font-size:0.9em\"\u003ePass by Narula Refreshment (on the left in 1.5&nbsp;km)\u003c/div\u003e",
                     "maneuver" : "turn-slight-right",
                     "polyline" : {
                        "points" : "e|zwD{y`{MFH@@@@DDb@RbCjAh@XhAd@lBn@vAn@nAv@rBnA|B|AlCdB`DrBHDD@D@H?RJXPTJRHDBJHl@Vp@ZHDHDf@Xz@h@t@b@v@j@JF\\TVPNHPHRHRFbARTFTFVFNFvAj@ZNXPXPZVf@b@fAbAr@p@JLNJ@@FDLFFBJ@PDLBL@jALRB`@Hn@PpA`@l@Pz@Rp@LhAPTDXFr@NHBdCb@ZHj@Px@XZJ|@\\bAf@l@ZHDHDF@JBHBLBL@x@LLBB?ND\\Jj@Td@RHDb@R`Ad@n@ZZR^Rf@\\VR@?XT~@t@f@`@\\VB@FFNFjAn@fAf@`Ab@DBpAl@NF|@b@f@Vn@X\\N`@PvAj@fEfBD@HDNHd@Tt@b@pAz@jAv@tCtBRNTPLHb@ZNVrAp@r@`@NJ^\\d@f@x@bAr@dAp@hAf@z@`@l@NPLNVRXRTNVPf@VfBx@hA`@dA^l@Rl@Rn@Px@NnARj@Hd@H^Db@Db@Df@D^Bh@Db@Bf@Bb@@h@@z@B\\@\\Bl@FjDj@rDn@r@Nn@PjAXt@RpA^bAXtBj@p@Nb@H\\D`@DjADH?hBZrBf@RDN@LA~@IL@H@LBLBLHJHJJLNb@t@\\t@f@fAZl@T^LPTZHJHHHFFFLJ`@XVRLJFDHFHHLJJLNNl@t@v@dAX`@JNLRPb@N`@FJHLNPp@t@b@h@l@v@PR`ApANNNPPPPPl@h@h@j@`@d@JHJHHDJFNDt@V^XfA`Av@x@V\\BDFLBFBN?L?VAn@@D@HDLDHDFDFRNf@^FJFN@R?T?`@Cd@Eb@Cj@?X@\\?F@\\?j@Er@Ap@Al@@h@Bb@@LBHBJDFDFFBF@D@J?HCRE^GFAF?B?BBB@B@@@?@@@@B?@BRBPBp@DhC?\\I\\Gv@R`GCx@El@M\\OLU^CFCDCBCDGDKDODk@Tg@V_@`@k@`AENCJALCRAT?X?\\A^CLEFEDIBG@G?G?ICGCGEEGEECKAIAOBQF]HWFa@F[FY@O?KCYEMAECCACGEGACAE?I?G@EBC@C@GNAJAZ@F@HBH@BHNHN@B@B?B?B@D?BABABCDi@v@MRGLCFAF?F?B?F@F@B@@?@B@BBJBDBBB@@@@?@?@?@?B?B?@?@A@C@GF[V[ZA@WVKLKJEJGNGPCJIn@Kv@Ib@CRAHAH@JBHBFBHBDTXRTRNTJLDLBP@N?R?JALETKRMVMPCTAZBXFXRPTJ\\@PAPCZIj@CVAPNh@DDLFLBFALAP?\\HNLPR@DTZZb@`@h@p@z@JTJVDXAJAFWfACP?D@J@JJVLTZb@Z^NPHLHJXTj@\\p@\\d@\\X^R\\J`@DZBb@B\\Br@BRJ`@DRLd@HNHPNRJLLLZLNDb@?ZBVBRDVPZR^P^P^JPD@?RFd@Hx@Hx@DlADbBHj@Dl@HD?z@Nj@Jb@NXRTNVRv@z@hAlAp@x@j@n@HJ~@jAVVPRHNFLDRA`@GtAEdAANDb@F^HZB\\?\\@PAPBPBRFFJHRJTLZLDFr@b@j@Z`@RXJ`@B`A?`@Df@N`@\\JLJNV^TXRN@?RJRDLLNRBFDTFf@H`@@RFLPTRNTJRARI\\Mb@SVK`@K\\Ij@Or@Kj@M`@GVAX@T?PBNDLNLRNXTXh@j@d@d@b@XRR\\P\\LVFTFVHPHPJFNFX@X@d@F\\JXNVJZHV?BJl@Hd@Fb@D^?\\BZFTNXXVVRNPHFRTTNZNb@Nd@Lb@D\\@b@?^@`@F\\Fd@J^F^HXBd@DZFZHZDRDX?XB\\FTFXFb@PXL\\XJXFh@BfA@|@@DHd@PZ\\`@ZRLHVR\\\\RXPTTb@N`AHd@H\\N`@f@v@r@dAT^FLLTLXHVF\\DZBb@Al@?\\?ZB\\@\\?^A`@EREXSj@w@rAOf@On@On@Kf@Af@Al@?j@Bf@Fh@Nj@FX\\r@Tl@?VBVBVRj@NVPX\\ZVVLRNTLRRTNLDDJDPFZHLHHJFLLb@Hd@Bd@Fz@?z@Er@Gr@IlAMx@K\\IX?BAH?FDNFJ@BB@DBJFJDJ@LAPCJ?x@Ar@@d@Bd@Hn@?tG@~E`@pDb@h@HX@d@ANETOXQJMH[R}@Ta@TKTCd@Pl@`@h@v@V`@VXRVTR`@T`@RZLXNTRDHDN@L?JG\\EX?P?NDNHRVXXZh@h@`@XZP^TNPTXh@z@p@`Af@p@p@z@X^VTNFPJTB`@P^FPLPLVPTH^HP?N@x@AVDPJNJFNDRH`@Ff@HTJRPPTJTDd@Hn@R^LXDv@Lt@NPFTDR@\\IPKPIXQTQTKZGR@H?B?L@^LNHJJ\\`@V^PVDDBBD@TFZDNDD@PBTDT@J?FAVKXSn@]r@e@~@Wn@SNIPM`@s@DGf@w@h@q@RONIDAFAB?B?LBHB`@h@HZN`@DJ\\v@Xd@d@j@XZ`@d@JFJBZAZGb@MPCJ?l@Hx@PxA`@bAd@tAv@nAbAZVPV|BhCd@`@PRNJdA`@bBP~@DxA@|@Gf@IlAWhAa@z@Mb@Cl@DLDDDRNn@t@XTRN\\Lv@Pf@HR@TDJDJHNLRNNPFFHLHPFZBh@@TFTXj@`CdD|CpEnAfBjA~Ax@rA^~@XrANjBNzAVrAVv@Xn@Zn@l@x@x@`Av@v@x@jAbBvBlBbCjBrBpBnCrAdBdC|CfS`XrBdCxErFnC|BdExB~CnApAh@vAp@t@`@hBdA`Aj@lAz@b@XnB`BpBfBlAfAdB~AvArA`CxBlD`DnCjCfCrB`VrTnFpEdVrTlNtM~FhFtJvIvKhKh@f@tSvRjJxIbD~ChTjSpEhEh@f@rMfMpH~G`IzHdCzBfHbHnDdDjNzM~HtHpEjEp@j@bKxJrAnAl@l@jEfEpIfIrDfDdDbD|KpKrBnBjFfFzBxBhDnDhG`IlDtFt@nA|AxCjA|Bj@x@j@jArA|CR^xAdEvBtFx@pCBNDXJnB?f@Cl@WjDMpAY~Be@nEWhCStDBnAL|@?BBPDTHPTn@`@l@b@l@bDlDvL`MhExDzAzApEzElR|R`GbG`@`@`FbFbFfFpBpBhAjAXXh@h@pApAvArAj@j@bEnExL|LzHzHfIhInUvUX\\~JbKdFlFt`@x`@~JbKZZjStSlIpIfHfH`FhFjFnFvGtGpCpCnF~ElFbEv@f@zBpApExB~BdAvAt@d@VpA|@nCxBvB`CrAzApC~CpAzAfD~DpInKfKrL~@jAfArAhB~BjAxAt@~@~BxCnC~Dr@hA~CjF`@n@hAzA`BzBbGdIlGvI`AdAvBfCpGtHV\\~AtBlC|DlEdH\\f@hLrRrMxSbElGnIlL|HpKnEvF`D`EnFbGnClCjAhA|GpGtG|GpBzBfAvAdFdH`EbGnDzFf_@jn@vCvEhCfEbItMhF`IDHrBfDnA|BzElIbFrIp@pA~@pBfDlIpC~GzAzD|BvFtDpJtDlJzAvDnCnHzArDn@|AhH`R^`AjCvGtDnJ|BzFvBvF~BdG`C`G~AbEbBjE|C~HtFlNzFxNfBvErAxD"
                     },
                     "start_location" : {
                        "lat" : 30.2894666,
                        "lng" : 77.99726250000001
                     },
                     "travel_mode" : "DRIVING"
                  },
                  {
                     "distance" : {
                        "text" : "0.2 km",
                        "value" : 247
                     },
                     "duration" : {
                        "text" : "1 min",
                        "value" : 43
                     },
                     "end_location" : {
                        "lat" : 29.9737604,
                        "lng" : 77.661309
                     },
                     "html_instructions" : "Turn \u003cb\u003eleft\u003c/b\u003e onto \u003cb\u003eNH344\u003c/b\u003e",
                     "maneuver" : "turn-left",
                     "polyline" : {
                        "points" : "ct}uDua_yM|@H|DqAfDgA"
                     },
                     "start_location" : {
                        "lat" : 29.9758621,
                        "lng" : 77.6605903
                     },
                     "travel_mode" : "DRIVING"
                  },
                  {
                     "distance" : {
                        "text" : "53.0 km",
                        "value" : 52953
                     },
                     "duration" : {
                        "text" : "1 hour 7 mins",
                        "value" : 4003
                     },
                     "end_location" : {
                        "lat" : 29.5218942,
                        "lng" : 77.7125861
                     },
                     "html_instructions" : "Continue straight onto \u003cb\u003eSaharanpur Rd\u003c/b\u003e",
                     "maneuver" : "straight",
                     "polyline" : {
                        "points" : "_g}uDef_yMNEtBe@dAQv@Mf@EXAV?d@?X@VBfB\\rFt@hEn@nFp@fFt@vARjAPfJfBnAPrBVrEj@lFt@|HdAvDf@pEj@hD^fH~@hIfA|I|@tFl@N@lFr@`Fl@pGx@ZDnDb@bHr@nFp@xGz@fCXjCZjDd@`Fn@pFv@bEn@zEv@fEt@zC^lFb@nHl@nBRzBVVDrFt@zF|@bBVjFr@rFx@jANLBtAPbC\\NBfDb@vDj@nC^nARtDf@bDd@vFr@vDh@xKvAzC`@tEl@vEj@xAPjFr@jEn@`HbAfD^pK~A~HfApDf@~Cf@tDd@vDj@dGz@zFx@fEj@ZDzDd@zEj@|@Lj@Hn@HB?TDlCf@`FbA~FjAdI~AbGlAbARnIxAdF`AlFbAhF~@rEz@jCj@d@HF@pYjFpFdAxFdApJbBPDjPbDbFbAdCf@tEv@~E|@`@F|H|AhEv@lKjBxJjB|AZtHvA|JlB`IxAxGnATDhARhFbAnHvAhHtA@?pB^f@NJB|@^hCzAjCzAnGvDzA|@x@`@n@Tn@Lj@Hh@DZCd@Oh@Ol@Yr@i@vBoB^[xDgDlAeAZY|AsAd@Yl@WZMXCHC^AbCCfGCzDBfABR@b@@fC?xA?lCAlFDL@fA@z@?dJBjC@r@Ad@Ed@EjASbEu@fEq@dIuA|B_@bHmAtGgAfNaCpEu@rF_AbEq@XGnF}@|Ey@zFaArDm@b@IdDi@dDk@jDo@|D{@`H{ApDy@|EcAf@K|D_AdE}@vCo@nCk@pA[`D{@jGaBxAa@j@OrA]xDcAlD_ApBk@lCs@tDaArDcAfCq@bD{@dBe@hBe@hD}@`Bc@dFsAdEgA`D{@`AUdCm@lD}@jD{@fCm@dAW|Cy@vBg@`EcApGaBbCg@`Cm@dAU|EsAhCo@|Bi@zG}ANEnIgBjJmBTEtAY`B]tFkArEaA~EeAlGqAlH}A^IxEaAvGwAxEcApEaAlE}@|D{@x@Qp@M`B]pGkAzE}@f@KhFkA`GsAlEeA~AYHCt@OjBc@vIeBbEy@bE{@tAY~A[|D{@jEeA~EiAl@OnAO|@UTGVIn@UvI{CrI_DzCiA`C}@hG{BnFsBfFoBzHqClCcA`DkAzFyBjHmCpFiB~EiBj@WnTuI|CoAfDoAdFyB`@SXMv@c@vHcD~C{AzAu@l@_@\\Wn@q@|@oA`FyHbA{A~@}A\\q@Xm@Zy@Ru@Hc@b@{B`BwIv@iEd@_DXcBLm@LYHOb@g@v@s@`BoAh@]d@Q\\O|Bg@|A]hAKnBKlAC\\?tAFfAJbCX~AZ`Bf@pAh@nAr@rAt@PLPJ@?LDV@x@E~@Ad@?ZDTHb@Rx@f@l@^NH`@Nh@Hz@Jv@F|@FvADdAFr@H~@AD?hAHxAHvAFzDTT@F?xDF|C?hA@zB?~C?xE?V?lBEhEGvFM|A?jAA`A?tSGzXMt@?jF?xB?xFCdNGpCAtAAhFCnECpC?bDAbC?|FAf@A^?`EEvE?jAAxDCrCCZ?vDEjD?nCAJ?xCAzDA`AC|BE|D?~LGbHAhA?fGEtC?jBAfAArACr@AjBKxBIxCOxG_@hBItNm@f@CJAn@EzEWtCObG]vDUdDQ^CjCK|AIbBGjWmAdG[bUsAnJi@tIc@fUsAfJq@vIo@vOgAbEU`E[pBQlIo@PATCrDUdEW~CIzLk@`EQxLm@tGYvG[xJ_@f@EvPu@xEUtG]pBIrDOfBKZC~AMpBItFY`Li@pKa@vIa@xJg@jG]fGY~EUvDOpBKpCObFUfFSrEO~Je@zAGnMm@f@AzEWbGY~@A|SaA~COvDUvESbAGtEW|H]bFWnCKbAEh@ERCTE^Mf@U|@e@rC}Ad@YFC~A_AfEeCnAy@z@m@d@k@jFcGp@u@bIeJjAqAzBeCvAsA`BqA|CwBxDyBPKhAm@DQFSN]`ByDjGqNdAkCd@cAjAmCHQhAsCjA_Dp@eBr@cBHSd@{@FO|AiCd@m@L]HMVi@Ve@@A"
                     },
                     "start_location" : {
                        "lat" : 29.9737604,
                        "lng" : 77.661309
                     },
                     "travel_mode" : "DRIVING"
                  },
                  {
                     "distance" : {
                        "text" : "0.2 km",
                        "value" : 200
                     },
                     "duration" : {
                        "text" : "1 min",
                        "value" : 33
                     },
                     "end_location" : {
                        "lat" : 29.5227563,
                        "lng" : 77.71438929999999
                     },
                     "html_instructions" : "At the roundabout, take the \u003cb\u003e1st\u003c/b\u003e exit onto \u003cb\u003eSH 59\u003c/b\u003e\u003cdiv style=\"font-size:0.9em\"\u003ePass by HARSH PUBLIC SCHOOL (English Medium) (on the left)\u003c/div\u003e",
                     "maneuver" : "roundabout-left",
                     "polyline" : {
                        "points" : "y~dsDufiyMA??A?A@A?AM]a@cA_@_Aw@gBKUK[EMCIAEAE"
                     },
                     "start_location" : {
                        "lat" : 29.5218942,
                        "lng" : 77.7125861
                     },
                     "travel_mode" : "DRIVING"
                  },
                  {
                     "distance" : {
                        "text" : "32 m",
                        "value" : 32
                     },
                     "duration" : {
                        "text" : "1 min",
                        "value" : 8
                     },
                     "end_location" : {
                        "lat" : 29.5226616,
                        "lng" : 77.71468849999999
                     },
                     "html_instructions" : "Slight \u003cb\u003eright\u003c/b\u003e at Suryavanshi Furnitures &amp; Electronics to stay on \u003cb\u003eSH 59\u003c/b\u003e",
                     "maneuver" : "turn-slight-right",
                     "polyline" : {
                        "points" : "gdesD}qiyM?E?A?C@EBKBKBIDG"
                     },
                     "start_location" : {
                        "lat" : 29.5227563,
                        "lng" : 77.71438929999999
                     },
                     "travel_mode" : "DRIVING"
                  },
                  {
                     "distance" : {
                        "text" : "27.6 km",
                        "value" : 27555
                     },
                     "duration" : {
                        "text" : "26 mins",
                        "value" : 1535
                     },
                     "end_location" : {
                        "lat" : 29.3205109,
                        "lng" : 77.72446080000002
                     },
                     "html_instructions" : "Turn \u003cb\u003eright\u003c/b\u003e onto \u003cb\u003eNH334\u003c/b\u003e\u003cdiv style=\"font-size:0.9em\"\u003ePass by Haryana Vaishnavi Puniabi Tourist Dhaaba (on the left)\u003c/div\u003e",
                     "maneuver" : "turn-right",
                     "polyline" : {
                        "points" : "scesDysiyMJOFDBBZRf@Xx@^`@NZHZFb@H\\Bd@@j@@h@ETAXC^IPCRGTIVIRIVMRKXSf@_@`Ay@lAeAnC{Bd@a@nA}@dCcBlBqAhDwB|AiAdCaBhFkDpE}C|B{AbCaBjGcEbFiD|EeDjByA`Ay@dAaARQ~CoCbFoEt@o@v@q@rBgBh@c@bCwBhA_Ax@u@xAyA?A`BqBfAiBhB{ChD_GjAeBNS\\c@~AeBZ[ZYj@i@v@o@|@s@v@k@nAaAXU\\[RSHIDGHIJMLOPYd@y@Xk@L[b@gAbAmCv@sBVo@lA_Dx@sBJ]N[Xq@b@aAh@aAVa@d@u@Ta@RWZc@X]bBkBNQd@a@j@g@j@e@^Wl@c@h@]n@]b@Uv@_@xLkFlGiCxCmAfCgA`DsAjBu@`@QHGFEbBy@bAk@rBmA`DoB~DcCrAu@l@]x@a@ZMTMf@QVGd@MnA_@nB]hCUn@CTAx@?zRLT?B?P?xB@dADV@X@ZDRBRBXF^HXHRH\\LZNNHRLh@\\n@h@j@n@Zb@DDNVr@hA`@l@`CxDvEnH|@tAfAbBzCjEp@`AVZl@z@b@l@d@n@z@fAPR^`@TXdAbATRVTh@b@j@`@NLtA|@`Ah@bAh@xJ~E|@d@x@b@t@`@`@Tn@`@l@^`JtFfDnB`Aj@nAl@b@T\\LTJj@RNDr@TvA`@|@Pd@HhANnANzAJX@`@?n@@v@@vCCtGCZ?vDE^?zOIXAH?N?lWUxAAfCEh@AtCCxBC`@?R?T@ZB`AH|@J~@RD@LBRFn@Pb@P|@^`@Tn@^ZRn@f@^ZTRd@d@h@l@j@v@h@z@`A|AfFhIj@|@jAjBjBxCXb@lEfH`@v@b@z@f@fAd@jAN`@b@rANd@^xAT~@Lr@XbBNdAHp@LpAH`AFhABj@@d@BrA@nA?v@Ap@UzSCjDC`BClAI|DCpAEfAQfF[tJGtCAhA@`A?t@?d@?`@ARAJAHCDED?XCvBA`BApAEdBEfBCfBChCAt@A@?|ABD@BBDBP@\\@ZAr@?~@D~@Dr@Dd@Lv@Nl@Pn@Tp@JVHLP\\NTPXTZRRVXXTRN\\VB@THD@n@\\r@Zr@\\d@Vd@RfAb@p@T`@Jf@J\\Fh@F~@Hv@@b@?dAAhBGnAE`DIxEObEMvCIxHSxCAtA?lBAdHQjCIrFOxEOrWu@dM]~_@gAxFO`FOzFSvAEdDI~EOvCIVArFQtEQrEShAGzDOfCIjCGrJQfBG`@Ar@EZCVCNC\\Ej@Kp@QzF{AzOcEpJgCrGeB`@KdBe@lGaBnD{@xEsAvDeAjDcAXIjCy@dEiAbBc@~Cy@jNuDtI}BdFsAXIbE_ANClD}@d@GpK}CnD{@bA[rA]nBi@pBg@|DeAl@QjEmA|H}BnKqC|F}AdEgAbAYnEiAzI_C~IaCxMmDdZ_Ir@Sz@UpVsGnQ}EpEkAzGgBbCo@r@Sh@Ib@IzAS|ASz@KtCQ"
                     },
                     "start_location" : {
                        "lat" : 29.5226616,
                        "lng" : 77.71468849999999
                     },
                     "travel_mode" : "DRIVING"
                  },
                  {
                     "distance" : {
                        "text" : "3.6 km",
                        "value" : 3564
                     },
                     "duration" : {
                        "text" : "5 mins",
                        "value" : 302
                     },
                     "end_location" : {
                        "lat" : 29.2897367,
                        "lng" : 77.73101
                     },
                     "html_instructions" : "Turn \u003cb\u003eleft\u003c/b\u003e",
                     "maneuver" : "turn-left",
                     "polyline" : {
                        "points" : "et}qD{pkyM?IBK@EBEDGDEROXMbEiAvG}AjIaCvIaC`TwFpI{BZIpHoBvA_@XIdA[pHoBhBe@hAGjAC|A@hA@tBE|AFt@Hv@RjCp@hAX^H^@@?|@A`FObFOvFIhFKlDG`CG`BEz@Az@Dx@LlARd@Hb@FTFh@ILCXMzCiBpAu@"
                     },
                     "start_location" : {
                        "lat" : 29.3205109,
                        "lng" : 77.72446080000002
                     },
                     "travel_mode" : "DRIVING"
                  },
                  {
                     "distance" : {
                        "text" : "61.6 km",
                        "value" : 61610
                     },
                     "duration" : {
                        "text" : "1 hour 15 mins",
                        "value" : 4520
                     },
                     "end_location" : {
                        "lat" : 28.7794142,
                        "lng" : 77.5191344
                     },
                     "html_instructions" : "Turn \u003cb\u003eright\u003c/b\u003e onto \u003cb\u003eUpper Ganga Canal Rd\u003c/b\u003e",
                     "maneuver" : "turn-right",
                     "polyline" : {
                        "points" : "{swqDyylyMPRLNBBbBlAhAt@xQvPxBpB|ArAlMrKrAjAjC~BpAhAtBjBtCbC|AtAtW~TrFxEbCvArBfBhBvAVJV`@bAdAbFjEzB`BbBvAb@TNDLHD@FFFDDFBDFLNVt@z@`@n@tMvK~LjKvEpDbRvP`FfEtD`DnMzKbNlLtD`DzQzOn@f@nHxFlEhDdP|JlK~F`Aj@vDrBpLnFbCpAtDh@bEGlEHd@SzAJxFr@pFfAnCp@bFbBhHfDfBv@FDHD~Ap@pAl@vAp@dD`BxBfA~@j@tAx@~BtA~AjApBhBlBhBt@v@h@f@f@l@`ApAvAfBlA`Bl@hA`AbBf@hATb@LTLRNPXVZRjB`AlAn@lAn@r@Vz@VnBx@rBbA|BvAhB~@hAl@hBt@hB~@nAn@j@VxAt@rB~@dAf@pB`A~At@nAn@fAf@f@R^Ph@Vt@b@r@Z@@z@b@vCxAtCtAnElCtVfLdD~AxDfBjDbBzE|BzC~AtG|ChFfC`ChAbGrCn@ZlFfCnFlCrHlDpD`BnAn@xDjB~FjCtDxAtDjBx@`@`ClA|A~@pCvAtAn@\\NtDrBhEpB|FhCzAl@VJxExB|C`BtAt@tAx@fFfCVJrClAlEvBzU~K`EvBfJ|EpJtElD|A~E~BpCpAr@ZjDhBtExBrFhCf@TxAr@xBdAxDjBjB|@p@ZhD~AlLtF`IxD`DzAbElBl@V|FfC|CxAPHxBhAfClArBbApCpA`HdDlAj@zKhFfGzCnDbBrCrAhDxA`@T|BjA~BtAlAl@dGvCzInElCtALFb@RbClAzCvAxKhFrDfB@@pHnD`F~BdClAjAh@hDbBbCjAbC`A|CnAfCrAdAl@l@Z~EbCdBz@zGdDnJrExHpDrEpBr@ZpF|Bt@XhFpB~IhD`IhC|@ZrFdBxHbCnCz@zDpAjLlDZNFB`Bd@pKtDpE~A\\NxIlCr@R`InCrHdCh@P~IvCdGlB`ErAhCz@rGtBbFxAdF~ApEzA`A\\tAh@tGvBzEzAbH|BtEzApDhAdA\\hEtA~C`A`Bj@jBn@|FbBpJzCnBn@d@Nn@RpGzBjF`BlDdAfBh@p@Vx@ZhGrB~Br@LD|C`A|G~B~FlBfDdAzA^dBn@`FbBb@NrCz@bElArC~@nC~@nCt@z@Z~Ah@lCt@pA`@`Br@pEbBzFjBfM|Dr@T|DnAtFjBzJbD|HdCjExAlCr@nDbANFpAb@pFlB~FrBtFfBhGvBfA\\nFhBdEpA|EzAhC~@zDpApC|@dCv@NDhCt@hGtBvBr@fBd@x@TlATz@Jv@BrADxBLfARl@VPJzBz@nEvAd@PjAd@nA\\`AJx@?z@MtA[vAc@jB[z@I`B?xBJ~AVhA^t@^VN^LZBN?P@~@RfCv@xFfBjDnAfFzBvBjAvDfC`BhAdCjB~@z@@@dBhBlA|A~AnBv@fAn@z@h@`@x@b@jAl@rChApFhBnFfBxCbApCz@zBt@nExA~NxE`ErAv@VhJzClQvFbGlBfA\\rC~@nF~AbD~@hH`CpFjBxFjB|Bt@hF`BbIfCfH~BdDdApDbAl@P`EtAdCx@tFhBfFbBjFfBhCz@fCz@`Cv@vAb@fNnEnIpCxBr@pDjA~@XhJzCdDdA`T|GjA\\dIbCpKhCxJlBzF~@L@rMhBfNfBjHr@b@HpBVjF~@pBXzRhCz@T`AP|ATnBTrAT~Cd@dFn@fEl@b@FnJpA~Fv@nG|@xIlAdH~@jBVxBZnL`BpY|D|Fx@hKxAvP|BxDh@hDb@~Dd@`@DhBXhFx@dH`AzFv@xB\\fJlAdPvBrKzA~ATjMfBlPrB@?zJ~AfGz@hL~AbUzCjKvAdDf@ve@nG~AR~g@hHnL`BtKxAhHbAjG|@dL|AtG~@dD\\vFh@zD`@hBNjGTJ@B?`E\\pBHt@@d@@|JLnADp@Bp@@d@@~@AhA?fF?fGBl@@dA?dB?v@A`B@~@?dAAfAAxIApL@h@@dB@hA?bA?n@A^AfB?f@?dA@`E@`DArI?dBAhJ?xIHxG?lLF`B?|B?hA?~@?j@A|EIjBE`@Bv@@vABvABhIGr@@tCBz@@x@@v@AbC?dA?jEAh@?J?lABdBBz@?T?J?H?NCTGVIRETGFCNCLAHAf@@vABL?P@T?TBNBTFRDTDf@@fEGxBEzEShHS~ESvHi@tAKlE_@rBWjFi@bFq@dN_CXI|@]"
                     },
                     "start_location" : {
                        "lat" : 29.2897367,
                        "lng" : 77.73101
                     },
                     "travel_mode" : "DRIVING"
                  },
                  {
                     "distance" : {
                        "text" : "0.4 km",
                        "value" : 414
                     },
                     "duration" : {
                        "text" : "1 min",
                        "value" : 45
                     },
                     "end_location" : {
                        "lat" : 28.7820735,
                        "lng" : 77.52209909999999
                     },
                     "html_instructions" : "Turn \u003cb\u003eleft\u003c/b\u003e after Muradnagar Police Post (on the left)",
                     "maneuver" : "turn-left",
                     "polyline" : {
                        "points" : "i~snDqmcxM}AoB{BuCw@_AuA}AaAeAiBgB"
                     },
                     "start_location" : {
                        "lat" : 28.7794142,
                        "lng" : 77.5191344
                     },
                     "travel_mode" : "DRIVING"
                  },
                  {
                     "distance" : {
                        "text" : "11.7 km",
                        "value" : 11723
                     },
                     "duration" : {
                        "text" : "19 mins",
                        "value" : 1160
                     },
                     "end_location" : {
                        "lat" : 28.7004258,
                        "lng" : 77.4466858
                     },
                     "html_instructions" : "Sharp \u003cb\u003eright\u003c/b\u003e to stay on \u003cb\u003eNH34\u003c/b\u003e\u003cdiv style=\"font-size:0.9em\"\u003ePass by Punjab National Bank (on the right in 9.4&nbsp;km)\u003c/div\u003e",
                     "maneuver" : "turn-sharp-right",
                     "polyline" : {
                        "points" : "}ntnDc`dxMHOdDhDd@f@bAhAhAvAjB`CnA~AJN|BxCHJFFHHNJRNVNVLb@TZRZP`@XVPh@^XRh@b@j@`@\\XNLTRVTj@f@t@n@nBnBdR|QNN|AxAvAnA|@t@xArAv@t@NL~AvAXVJJ~GhGhIlHtEbEvChCpBhBBBlC`CfB|Ad@`@pCdCvArAb@d@|@x@x@t@r@p@z@v@bBvAd@`@\\Xr@j@dAz@bAx@xAlAp@j@~DpDfA`AjCbCjAdAxBrBb@`@hAdAvApANNlApAZ\\HFtAlArAlAjAfArCtCPP\\^^d@d@f@Z^VXZ^j@t@HJlA~AbB|BfBbCdAxAhDtEl@z@DHh@r@n@x@p@~@pAbBFHr@~@fAlAdAdA\\Zf@b@l@f@p@h@LJl@`@lAv@^Tb@XtAz@nEdCnBpAh@Zz@f@|D~BbAl@~CjBB@tHnEp@^x@f@\\RxA|@lDtBnAt@x@f@n@\\ZPPJPJ\\TPNXRl@h@t@p@dA~@^\\PNZXh@b@j@f@h@d@x@t@zBpBpBhBxBnB~AxAnBdBPNRPxBnBjAbAtAjAdBjBzBpBnGrFdOzMvBjBZXvAlAdCzBv@r@xIbIPNxDfDNNlBfBhEvD|AxAzBvBlCzB|ArAtBlBdB~ApBjBbA~@nAlA~A|ArJjJpI`IjFbFzBvBvIhIzInIRP"
                     },
                     "start_location" : {
                        "lat" : 28.7820735,
                        "lng" : 77.52209909999999
                     },
                     "travel_mode" : "DRIVING"
                  },
                  {
                     "distance" : {
                        "text" : "1.5 km",
                        "value" : 1486
                     },
                     "duration" : {
                        "text" : "4 mins",
                        "value" : 255
                     },
                     "end_location" : {
                        "lat" : 28.7085555,
                        "lng" : 77.43487229999999
                     },
                     "html_instructions" : "Turn \u003cb\u003eright\u003c/b\u003e onto \u003cb\u003e5 Number Bhatta Rd\u003c/b\u003e",
                     "maneuver" : "turn-right",
                     "polyline" : {
                        "points" : "updnDyhuwMEN{ClIa@hAKZ{BrGaA~Ci@~ASh@[~@Sh@Uf@OVKPIHWVe@b@]`@_@b@YZc@l@k@l@[\\a@d@aAfASRKLcAjA_@b@CDk@j@i@j@o@r@QPa@f@{@~@qAxAqA|AY\\SRSRi@h@QPKHOJ"
                     },
                     "start_location" : {
                        "lat" : 28.7004258,
                        "lng" : 77.4466858
                     },
                     "travel_mode" : "DRIVING"
                  },
                  {
                     "distance" : {
                        "text" : "0.2 km",
                        "value" : 167
                     },
                     "duration" : {
                        "text" : "1 min",
                        "value" : 35
                     },
                     "end_location" : {
                        "lat" : 28.7074047,
                        "lng" : 77.4337737
                     },
                     "html_instructions" : "Turn \u003cb\u003eleft\u003c/b\u003e",
                     "maneuver" : "turn-left",
                     "polyline" : {
                        "points" : "ocfnD}~rwMTPTRd@\\j@f@`AbAX\\LL"
                     },
                     "start_location" : {
                        "lat" : 28.7085555,
                        "lng" : 77.43487229999999
                     },
                     "travel_mode" : "DRIVING"
                  },
                  {
                     "distance" : {
                        "text" : "0.4 km",
                        "value" : 403
                     },
                     "duration" : {
                        "text" : "1 min",
                        "value" : 42
                     },
                     "end_location" : {
                        "lat" : 28.7096464,
                        "lng" : 77.43053259999999
                     },
                     "html_instructions" : "Turn \u003cb\u003eright\u003c/b\u003e at the 2nd cross street",
                     "maneuver" : "turn-right",
                     "polyline" : {
                        "points" : "g|enDaxrwMcEvG}FnJ"
                     },
                     "start_location" : {
                        "lat" : 28.7074047,
                        "lng" : 77.4337737
                     },
                     "travel_mode" : "DRIVING"
                  },
                  {
                     "distance" : {
                        "text" : "1.3 km",
                        "value" : 1342
                     },
                     "duration" : {
                        "text" : "2 mins",
                        "value" : 145
                     },
                     "end_location" : {
                        "lat" : 28.7004615,
                        "lng" : 77.42160969999999
                     },
                     "html_instructions" : "Turn \u003cb\u003eleft\u003c/b\u003e",
                     "maneuver" : "turn-left",
                     "polyline" : {
                        "points" : "ijfnDycrwM~F|Fb@b@~B`ChC~BvBlBNJfMzLnCnCfAbAhAdAvAtAd@b@j@l@f@f@nCjCj@f@"
                     },
                     "start_location" : {
                        "lat" : 28.7096464,
                        "lng" : 77.43053259999999
                     },
                     "travel_mode" : "DRIVING"
                  },
                  {
                     "distance" : {
                        "text" : "3.5 km",
                        "value" : 3459
                     },
                     "duration" : {
                        "text" : "5 mins",
                        "value" : 293
                     },
                     "end_location" : {
                        "lat" : 28.6880581,
                        "lng" : 77.39796559999999
                     },
                     "html_instructions" : "Turn \u003cb\u003eright\u003c/b\u003e onto \u003cb\u003eNH9\u003c/b\u003e",
                     "maneuver" : "turn-right",
                     "polyline" : {
                        "points" : "{pdnDalpwMLJ@@ITc@bAmCnGGLOZUb@UXmCjDc@h@W\\A?KH?@A@?@?@A@?@A@A@A@A??@A?A?A??@A?A?AAA?yAdBqBdCW^GLELCJAJ?N@JBLRp@Nb@`ApC|CtIvEpMjBjFb@lA`@nAfDnJ~IzVRd@x@`Ch@pBNd@LTRPZRPFPFPDTF\\DfBHzGF~DFl@DRBVDRDNFRHVRJJPN~AhBpFxFTTj@j@l@b@ZRTDn@HvANlBLZBb@@P@P?P@N?TARCRGBC"
                     },
                     "start_location" : {
                        "lat" : 28.7004615,
                        "lng" : 77.42160969999999
                     },
                     "travel_mode" : "DRIVING"
                  },
                  {
                     "distance" : {
                        "text" : "11.0 km",
                        "value" : 10960
                     },
                     "duration" : {
                        "text" : "12 mins",
                        "value" : 700
                     },
                     "end_location" : {
                        "lat" : 28.6302684,
                        "lng" : 77.32745729999999
                     },
                     "html_instructions" : "At the roundabout, take the \u003cb\u003e2nd\u003c/b\u003e exit onto \u003cb\u003eRaj Nagar Extension Elevated Rd\u003c/b\u003e",
                     "maneuver" : "roundabout-left",
                     "polyline" : {
                        "points" : "kcbnDixkwMPMZa@R[^e@\\k@^q@\\UJMHEBCFCHCJ?D?D?F?D@DBFBDDN?F?HADADAFCJGLQt@oAxAiCz@}ATa@lA{Bv@qAd@m@f@g@dA_AfAu@hAi@h@QlAWlAU`AI~@A|@BvAJt@H^Fr@Rd@PvBdAz@h@rAfAh@b@nA|@bAt@j@\\n@X|@Zh@Lf@LhANb@BdAHv@AVAfAAbACvFLf@Bl@JZDn@FvALv@Jf@JfAV|Bn@r@Tr@RPBN@P@NBh@Lp@Rn@Px@Zh@RhAd@fAf@`BdA`@^f@f@RRZb@Zb@?@d@l@d@`Af@`A`@x@BJj@nAf@lANX`@z@^z@|@xBt@jB`AtClArDbAdDtCfJrCdJd@pAdArDl@jBdAjDvAtEVt@bA~CzA~EPl@hArDx@bC|@rCbAdD|@vCf@~Af@|AJX@DJZt@bCt@dCpWjy@de@lzARh@^fA`@hAZ~@Zz@Zz@P^Tf@^r@l@bAl@`Ap@z@p@v@t@t@x@r@v@r@t@p@|@p@x@n@z@n@z@p@v@p@z@n@j@b@lAbAp@l@JHv@p@`GvEJJz@r@rBdBv@p@v@n@tBfBrBbB|BfB`BxA~A|Al@j@^Zh@j@b@b@b@h@fCvCdB~ANTJ^ZvCE~FCv@BfBL|AVpC^dC@^?LCJFXJb@?@Z`B`ApE@FfArEPf@ZjAR~@DPFZBZ"
                     },
                     "start_location" : {
                        "lat" : 28.6880581,
                        "lng" : 77.39796559999999
                     },
                     "travel_mode" : "DRIVING"
                  },
                  {
                     "distance" : {
                        "text" : "0.5 km",
                        "value" : 505
                     },
                     "duration" : {
                        "text" : "1 min",
                        "value" : 60
                     },
                     "end_location" : {
                        "lat" : 28.628792,
                        "lng" : 77.32257249999999
                     },
                     "html_instructions" : "Continue straight",
                     "maneuver" : "straight",
                     "polyline" : {
                        "points" : "ezvmDs_~vMFj@Jj@jAbFt@`DLj@bCfM"
                     },
                     "start_location" : {
                        "lat" : 28.6302684,
                        "lng" : 77.32745729999999
                     },
                     "travel_mode" : "DRIVING"
                  },
                  {
                     "distance" : {
                        "text" : "32 m",
                        "value" : 32
                     },
                     "duration" : {
                        "text" : "1 min",
                        "value" : 7
                     },
                     "end_location" : {
                        "lat" : 28.628701,
                        "lng" : 77.32226419999999
                     },
                     "html_instructions" : "Keep \u003cb\u003eright\u003c/b\u003e to continue toward \u003cb\u003eNH 24\u003c/b\u003e",
                     "maneuver" : "keep-right",
                     "polyline" : {
                        "points" : "}pvmDaa}vMP|@"
                     },
                     "start_location" : {
                        "lat" : 28.628792,
                        "lng" : 77.32257249999999
                     },
                     "travel_mode" : "DRIVING"
                  },
                  {
                     "distance" : {
                        "text" : "40 m",
                        "value" : 40
                     },
                     "duration" : {
                        "text" : "1 min",
                        "value" : 6
                     },
                     "end_location" : {
                        "lat" : 28.6287042,
                        "lng" : 77.32185700000001
                     },
                     "html_instructions" : "Slight \u003cb\u003eright\u003c/b\u003e toward \u003cb\u003eNH 24\u003c/b\u003e",
                     "maneuver" : "turn-slight-right",
                     "polyline" : {
                        "points" : "kpvmDc_}vM?nA"
                     },
                     "start_location" : {
                        "lat" : 28.628701,
                        "lng" : 77.32226419999999
                     },
                     "travel_mode" : "DRIVING"
                  },
                  {
                     "distance" : {
                        "text" : "7.4 km",
                        "value" : 7412
                     },
                     "duration" : {
                        "text" : "9 mins",
                        "value" : 528
                     },
                     "end_location" : {
                        "lat" : 28.5983112,
                        "lng" : 77.2557961
                     },
                     "html_instructions" : "Slight \u003cb\u003eleft\u003c/b\u003e onto \u003cb\u003eNH 24\u003c/b\u003e",
                     "maneuver" : "turn-slight-left",
                     "polyline" : {
                        "points" : "kpvmDs||vMJd@Np@TbAJb@`@jBvApGZrA\\tA`AfE`AdE`@dB`@bBJ`@tA|FPz@fAvEr@zCHb@H`@R`AR~@r@`DH`@BFJf@Jf@Lb@Jb@J`@H`@`@zAt@~CVbAVdAVjAbDzMz@rDp@lC`@dBZnAd@rBHZHZNn@Pv@DRXhA`BlHFV@@HZvAfGdAnEJf@Lf@~C|MT`AdCpKPp@XbA^pAJ\\r@`CXv@JVVx@Zv@R^Tb@Xl@Xd@NRLXNTHNLNd@r@V`@b@l@l@z@X\\?@RVr@z@n@r@TTj@l@JL\\Z`@\\`@\\l@f@hAz@|ArAbAv@|@v@^ZfBzAdB|AzDdDx@r@nAjAb@^XZJJj@j@TTHJJL`@n@T^`@j@Xd@b@t@|@zAl@lARb@d@dA\\t@^fARf@l@hBv@xBPf@L\\JZFRfBlF~BzGv@xBpEpML^JVJVR\\PZPXLTR^N^Pd@b@hArApDxC|IpFdPjEhMFVJ`@Nf@Rl@Rx@Tt@Dd@CxBCxB"
                     },
                     "start_location" : {
                        "lat" : 28.6287042,
                        "lng" : 77.32185700000001
                     },
                     "travel_mode" : "DRIVING"
                  },
                  {
                     "distance" : {
                        "text" : "1.6 km",
                        "value" : 1575
                     },
                     "duration" : {
                        "text" : "3 mins",
                        "value" : 162
                     },
                     "end_location" : {
                        "lat" : 28.6117595,
                        "lng" : 77.25125109999999
                     },
                     "html_instructions" : "Turn \u003cb\u003eright\u003c/b\u003e onto \u003cb\u003eNH 44\u003c/b\u003e",
                     "maneuver" : "turn-right",
                     "polyline" : {
                        "points" : "mrpmDw_pvMGv@]F}FnAuJzBgAPqB`@qAV{Dz@qCn@mCn@_HvAcHdBsCl@mIhBk@LmDt@"
                     },
                     "start_location" : {
                        "lat" : 28.5983112,
                        "lng" : 77.2557961
                     },
                     "travel_mode" : "DRIVING"
                  },
                  {
                     "distance" : {
                        "text" : "0.2 km",
                        "value" : 155
                     },
                     "duration" : {
                        "text" : "1 min",
                        "value" : 17
                     },
                     "end_location" : {
                        "lat" : 28.6127503,
                        "lng" : 77.25029429999999
                     },
                     "html_instructions" : "Slight \u003cb\u003eleft\u003c/b\u003e toward \u003cb\u003eBhairon Marg\u003c/b\u003e",
                     "maneuver" : "turn-slight-left",
                     "polyline" : {
                        "points" : "ofsmDicovMc@^ULQFSFUHQFMHMHMLGJELALCd@"
                     },
                     "start_location" : {
                        "lat" : 28.6117595,
                        "lng" : 77.25125109999999
                     },
                     "travel_mode" : "DRIVING"
                  },
                  {
                     "distance" : {
                        "text" : "1.0 km",
                        "value" : 1032
                     },
                     "duration" : {
                        "text" : "2 mins",
                        "value" : 109
                     },
                     "end_location" : {
                        "lat" : 28.6127608,
                        "lng" : 77.24053379999999
                     },
                     "html_instructions" : "Slight \u003cb\u003eleft\u003c/b\u003e onto \u003cb\u003eBhairon Marg\u003c/b\u003e",
                     "maneuver" : "turn-slight-left",
                     "polyline" : {
                        "points" : "ulsmDi}nvMr@tCRx@Rx@TbANz@Fd@@N@P@PA\\Ez@AH?J@L@LBL?DBHFPP`@Xl@NV\\|@Nj@Lr@BV@FB^?^?VAP?BCTETGVEPOb@KXOXOTMRKNKPABy@pAk@~@ILCDCDABABABCD?@A@?B?@ABAD?@AB?B?@?@UlK"
                     },
                     "start_location" : {
                        "lat" : 28.6127503,
                        "lng" : 77.25029429999999
                     },
                     "travel_mode" : "DRIVING"
                  },
                  {
                     "distance" : {
                        "text" : "0.4 km",
                        "value" : 394
                     },
                     "duration" : {
                        "text" : "1 min",
                        "value" : 77
                     },
                     "end_location" : {
                        "lat" : 28.6093537,
                        "lng" : 77.2400725
                     },
                     "html_instructions" : "Turn \u003cb\u003eleft\u003c/b\u003e onto \u003cb\u003eMathura Rd\u003c/b\u003e",
                     "maneuver" : "turn-left",
                     "polyline" : {
                        "points" : "wlsmDi`mvMx@dAjCHbADR?F@H?jFBlC?"
                     },
                     "start_location" : {
                        "lat" : 28.6127608,
                        "lng" : 77.24053379999999
                     },
                     "travel_mode" : "DRIVING"
                  },
                  {
                     "distance" : {
                        "text" : "0.6 km",
                        "value" : 637
                     },
                     "duration" : {
                        "text" : "2 mins",
                        "value" : 106
                     },
                     "end_location" : {
                        "lat" : 28.6107326,
                        "lng" : 77.23405319999999
                     },
                     "html_instructions" : "Turn \u003cb\u003eright\u003c/b\u003e after the lake (on the left)",
                     "maneuver" : "turn-right",
                     "polyline" : {
                        "points" : "mwrmDm}lvMR??XEdB?jAAx@E`AIx@EZCTEd@Il@Gh@GVI^Mf@K`@M\\KZQ^o@~AMX_ArBOZITEPCR?LD\\BZ@V"
                     },
                     "start_location" : {
                        "lat" : 28.6093537,
                        "lng" : 77.2400725
                     },
                     "travel_mode" : "DRIVING"
                  },
                  {
                     "distance" : {
                        "text" : "0.6 km",
                        "value" : 634
                     },
                     "duration" : {
                        "text" : "1 min",
                        "value" : 89
                     },
                     "end_location" : {
                        "lat" : 28.6108245,
                        "lng" : 77.22831400000001
                     },
                     "html_instructions" : "Slight \u003cb\u003eleft\u003c/b\u003e onto \u003cb\u003eC - Hexagon\u003c/b\u003e/\u003cb\u003eIndia Gate Cir\u003c/b\u003e\u003cdiv style=\"font-size:0.9em\"\u003ePass by Bikaner House (on the left in 400&nbsp;m)\u003c/div\u003e",
                     "maneuver" : "turn-slight-left",
                     "polyline" : {
                        "points" : "a`smDywkvMNf@`@nAPf@^jAPd@Rj@DJHTVv@j@|AJ^@DD`@B\\?`@ARGVKZM`@c@x@g@~@CDADSf@S`@i@|@CFCHEHWj@Y|@"
                     },
                     "start_location" : {
                        "lat" : 28.6107326,
                        "lng" : 77.23405319999999
                     },
                     "travel_mode" : "DRIVING"
                  },
                  {
                     "distance" : {
                        "text" : "0.4 km",
                        "value" : 365
                     },
                     "duration" : {
                        "text" : "1 min",
                        "value" : 38
                     },
                     "end_location" : {
                        "lat" : 28.6100181,
                        "lng" : 77.22491939999999
                     },
                     "html_instructions" : "Keep \u003cb\u003eleft\u003c/b\u003e to continue on \u003cb\u003eAkbar Rd\u003c/b\u003e",
                     "maneuver" : "keep-left",
                     "polyline" : {
                        "points" : "s`smD}sjvMi@~AGV?N?L@J?B?PBR@PBJ@FPj@lC|Hb@hA"
                     },
                     "start_location" : {
                        "lat" : 28.6108245,
                        "lng" : 77.22831400000001
                     },
                     "travel_mode" : "DRIVING"
                  },
                  {
                     "distance" : {
                        "text" : "0.7 km",
                        "value" : 679
                     },
                     "duration" : {
                        "text" : "1 min",
                        "value" : 65
                     },
                     "end_location" : {
                        "lat" : 28.6073577,
                        "lng" : 77.21890979999999
                     },
                     "html_instructions" : "At the roundabout, take the \u003cb\u003e2nd\u003c/b\u003e exit and stay on \u003cb\u003eAkbar Rd\u003c/b\u003e",
                     "maneuver" : "roundabout-left",
                     "polyline" : {
                        "points" : "s{rmDw~ivML?D@D@D@DBDBDBBBDD@DBF@D@F?DADAFADADCDADADPp@B^dAbDvAxDbDtJ|ApELFXfA"
                     },
                     "start_location" : {
                        "lat" : 28.6100181,
                        "lng" : 77.22491939999999
                     },
                     "travel_mode" : "DRIVING"
                  },
                  {
                     "distance" : {
                        "text" : "0.9 km",
                        "value" : 931
                     },
                     "duration" : {
                        "text" : "2 mins",
                        "value" : 104
                     },
                     "end_location" : {
                        "lat" : 28.6103471,
                        "lng" : 77.2122681
                     },
                     "html_instructions" : "At the roundabout, take the \u003cb\u003e4th\u003c/b\u003e exit onto \u003cb\u003eMotilal Nehru Marg\u003c/b\u003e",
                     "maneuver" : "roundabout-left",
                     "polyline" : {
                        "points" : "_krmDeyhvMHAVAP?VDf@Ln@`@B@HHLNJTHTFP@B@R@JE^GTEHOTMPORo@ZC@OBI@M?I?O?I?KAIAKEe@^MJABABgOd[Un@"
                     },
                     "start_location" : {
                        "lat" : 28.6073577,
                        "lng" : 77.21890979999999
                     },
                     "travel_mode" : "DRIVING"
                  },
                  {
                     "distance" : {
                        "text" : "0.7 km",
                        "value" : 669
                     },
                     "duration" : {
                        "text" : "2 mins",
                        "value" : 129
                     },
                     "end_location" : {
                        "lat" : 28.6139094,
                        "lng" : 77.2090206
                     },
                     "html_instructions" : "At the roundabout, take the \u003cb\u003e3rd\u003c/b\u003e exit and stay on \u003cb\u003eMotilal Nehru Marg\u003c/b\u003e\u003cdiv style=\"font-size:0.9em\"\u003ePass by Indian Air Force Headquarter (on the right)\u003c/div\u003e",
                     "maneuver" : "roundabout-left",
                     "polyline" : {
                        "points" : "u}rmDuogvMDDBFDD@FBF@F@F@F?@?B?@?B?@A@?B?@ADAFADCBADCDCDCBA@A@A?A@A@A?A@E@KBI@G?IAGAGCIEA@Qb@yFjLIb@B@BB@@@B@B?@@B?B@F?D@@AB?@?B?@A@A@?@A@A@A@KDIFI?QAeHSKA?g@"
                     },
                     "start_location" : {
                        "lat" : 28.6103471,
                        "lng" : 77.2122681
                     },
                     "travel_mode" : "DRIVING"
                  }
               ],
               "traffic_speed_entry" : [],
               "via_waypoint" : []
            }
         ],
         "overview_polyline" : {
            "points" : "ae`xDgtg{Mx@oIm@dKwCtOdA|Jfk@jg@`QvYz@hKbTfV~NvLzSxWvSjPtOlTp\\jQlf@`XjMnIfS`Et_@jNzn@v]|PtQnXnHdx@fLfRdUfXdZfBdHCdOlCLOtVuIlKTwG{@vAKnF}BlC?~HtHA|BtGdErKpIdKbEfJnQzCtRvMv@dNnMlFfEdH|MoAbKzGtC~K|IjGtMjBjHdM|GhPmCfRpC`P|F`H]|Np_@lBhDoCnFtB~DdH`NjOxJxCjBjDdH|A`IKdGbAhLkIpCxEtE`BhMzE|KnHvNuApEjCfG|FhQrYlFnPzVf[db@xg@nOdHbSzNvu@tq@dpDlgDbsBpoBh^bg@hL`[mAni@pvAnxAreDngDtt@tr@d\\xSr`AtmAl_Bb~Bnt@vy@z`Ad{Ahf@zx@z_@j`ArfA`pCzDpKzFgArJeCpIL`eB`VjhBhT|lD~d@j|D~m@zbFx_AtXhOrIiAlRyOnVWht@eAxkBk[v{C_u@rkDiw@fgAgUdmAwZfsBsv@z\\uOhPmVvHu`@lGaHdQcCxUdGdOhDvf@lBb_E{AnqAi@ngAyEn}Gc_@`dFsUpg@aCpJoEpz@ct@la@w~@_CeLjO~A`a@_YjgAgx@rd@mj@|NiN~P_a@fg@kZxl@kZtNmCv\\R`MdF`_@hj@d`@nV~c@tTjs@Vxr@TnIpEpO`UdVlj@Bvz@{AfdAbF~QpPhH~uEaLzu@kFt{Aka@b{Fy{A|cCum@~TnBf`@k@vTXjKwCdbB~wAv^nYr}B~pB`fAbo@di@pEp[`NtZdSjVnZblBh~@ldD`~AhbJhkE`_Bpr@zaBni@tuD|lAtfDhfA`xAte@~h@jMnRgB|LdCvc@tQtRrRn^nOncAd\\ddBvi@psB~p@bjAlTxo@`JzzBvZvbCn\\rfF~r@jpArJ~iCL~zAKtJH|m@}BpWsC~NiC_@mCkIyJ_BwBjEpEhIbKzC|DxD~B`GlEpk@ri@~y@nu@p_Al|@n^re@pb@lXxcAdu@~gCt~Bz_@t^oDxLmIjVoNfPgQrRvEfFaMfSbH`HpKzJz\\d\\jE`EcEvJsGvIAFKJ}FfHhd@lrAtEdJjUv@hTzPjIf@bDcC`EcCdOaT~OkFxNvDtM`IvL`@b]nEdUlOfw@t_CpjAxoD~Z`Yrg@zb@tHdIp@lMbAnQnJhc@pR~~@`_@t~A|_@hwAjn@hm@dd@tgAzZj~@m@rHmX~Fsq@hOaJrCIdGxAlNfCdMoFrKg@`MhTzAI|KkGnS~EzRsGvZ|T|o@|FvFwEzCaRdb@yIjPmJc@"
         },
         "summary" : "Saharanpur Rd",
         "warnings" : [],
         "waypoint_order" : []
      }
   ],
   "status" : "OK"
}
